Place,WeightClassKg,Division,Sex,Event,Equipment,Name,BirthDate,Country,BodyweightKg,Squat1Kg,Squat2Kg,Squat3Kg,Best3SquatKg,Bench1Kg,Bench2Kg,Bench3Kg,Best3BenchKg,Deadlift1Kg,Deadlift2Kg,Deadlift3Kg,Best3DeadliftKg,TotalKg
1,47,Open,F,SBD,Single-ply,Elisabeth Barry,1973-03-28,South Africa,46.85,100,-115,-115,100,45,-50,50,50,105,120,-132.5,120,270
1,84+,Open,F,SBD,Single-ply,Jacqui Rees,1980-03-25,South Africa,95.45,175,-185,185,185,105,112.5,-122.5,112.5,160,180,185,185,482.5
2,84+,Open,F,SBD,Single-ply,Christi de Jager,1986-01-10,South Africa,100.2,150,-160,-160,150,145,150,155,155,150,170,-177.5,170,475
1,57,Juniors,F,SBD,Single-ply,Nicola Maritz,1997-10-14,South Africa,56.85,110,117.5,-120,117.5,-57.5,57.5,-60,57.5,105,112.5,120,120,295
DQ,63,Juniors,F,SBD,Single-ply,Megan Leighton,1996-01-15,South Africa,61.6,132.5,,,132.5,-105,-108,-108,,147.5,157.5,-162.5,157.5,
1,57,Masters 2,F,SBD,Single-ply,Carol Anthony,1966-05-02,South Africa,55.35,102.5,112.5,-122.5,112.5,45,47.5,50,50,120,132.5,,132.5,295
DQ,120+,Open,M,SBD,Single-ply,Kyle Noonan,1990-08-03,South Africa,143.7,-365,-365,-365,,,,,,,,,,
1,53,Sub-Juniors,M,SBD,Single-ply,Tshepo Mulaudzi,,South Africa,50.5,120,-125,-125,120,70,80,-85,80,155,-167.5,-167.5,155,355
1,53,Juniors,M,SBD,Single-ply,Boitumelo Monaheng,1997-01-01,South Africa,50.2,120,125,-130,125,70,77.5,-80,77.5,140,150,-152.5,150,352.5
1,66,Juniors,M,SBD,Single-ply,Karabo Manamela,1999-12-07,South Africa,65.9,-200,-200,200,200,-120,120,-125,120,215,-220,-220,215,535
1,84,Open,F,B,Single-ply,Nicola Green,1983-09-29,South Africa,83.95,,,,,105,110,125,125,,,,,125
1,84+,Open,F,B,Single-ply,Christi de Jager,1986-01-10,South Africa,100,,,,,-145,145,-150,145,,,,,145
2,84+,Open,F,B,Single-ply,Jacqui Rees,1980-03-25,South Africa,95.3,,,,,105,112.5,120,120,,,,,120
1,63,Juniors,F,B,Single-ply,Megan Leighton,1996-01-15,South Africa,61.55,,,,,105,-108,-108,105,,,,,105
1,120+,Open,M,B,Single-ply,Hassan Nasreldin,1988-06-10,Egypt,131.1,,,,,170,185,192.5,192.5,,,,,192.5
1,66,Juniors,M,B,Single-ply,Ruben van der Linde,1998-12-22,South Africa,65.9,,,,,120,125,,125,,,,,125
1,105,Juniors,M,B,Single-ply,Ahmed Farrag,1998-08-24,Egypt,101.95,,,,,100,-115,-115,100,,,,,100
1,74,Masters 1,M,B,Single-ply,Glen van der Linde,1971-03-06,South Africa,72,,,,,125,130,135,135,,,,,135
1,59,Open,M,SBD,Raw,Mohamed Lakehal,1982-09-28,Algeria,59,180,200,210,210,80,90,100,100,190,200,220,220,530
1,66,Open,M,SBD,Raw,Ahmed Abdelna Al Darwge,1995-12-04,Lebanon,65,180,-200,200,200,110,120,125,125,240,260,-270,260,585
2,66,Open,M,SBD,Raw,Jerry Phukuile,1990-12-13,South Africa,65.45,185,-200,-200,185,110,115,125,125,200,220,235,235,545
1,74,Open,M,SBD,Raw,Nicolas Lazarides,1992-12-11,South Africa,74,170,-182.5,-185,170,122.5,130,135,135,212.5,-225,225,225,530
2,74,Open,M,SBD,Raw,Nicodemus Nikanor,1990-12-20,Namibia,72.65,130,140,152.5,152.5,90,97.5,-102.5,97.5,215,220,-232.5,220,470
3,74,Open,M,SBD,Raw,Kassim Kone,1990-12-09,Ivory Coast,66.65,105,125,130,130,90,-115,-115,90,140,165,175,175,395
4,74,Open,M,SBD,Raw,Dennis Chirima,1997-02-03,Zimbabwe,67.8,105,110,112.5,112.5,85,92.5,100,100,120,140,150,150,362.5
1,83,Open,M,SBD,Raw,Mohamed Sultan,1988-09-26,Egypt,81.2,220,250,-270,250,115,130,-137.5,130,250,280,-320,280,660
2,83,Open,M,SBD,Raw,Connor Scheckle,1987-11-24,South Africa,82.4,200,210,-215,210,150,157.5,-162.5,157.5,220,230,235,235,602.5
3,83,Open,M,SBD,Raw,Bandile Khuzwayo,1990-12-02,South Africa,82.75,195,210,-217.5,210,110,120,127.5,127.5,230,252.5,-270,252.5,590
1,93,Open,M,SBD,Raw,Amar Kanane,1982-09-28,Algeria,92.55,302.5,317.5,-330.5,317.5,165,170,-172.5,170,-290,290,320,320,807.5
2,93,Open,M,SBD,Raw,Gian Smit,1990-05-04,South Africa,92.7,235,250,-257.5,250,150,157.5,-162.5,157.5,250,270,282.5,282.5,690
3,93,Open,M,SBD,Raw,Tom Wewege,1992-08-24,South Africa,91.6,210,220,-230,220,140,150,160,160,252.5,262.5,277.5,277.5,657.5
4,93,Open,M,SBD,Raw,Adel Hussayn Al Jazeeri,1980-12-22,Lebanon,90.9,220,-240,245,245,140,155,-157.5,155,240,255,-262.5,255,655
5,93,Open,M,SBD,Raw,Aristide Ekou,1994-08-12,Ivory Coast,85,170,-190,-190,170,155,160,165,165,180,205,-220,205,540
1,105,Open,M,SBD,Raw,Mohamed Sahad,1987-07-05,Algeria,104.55,295,310,-320,310,180,187.5,192.5,192.5,300,315,-325,315,817.5
2,105,Open,M,SBD,Raw,Nouraldeen Daebis,1993-06-26,Lebanon,103.5,280,-282.5,300,300,180,190,-192.5,190,305,320,-337.5,320,810
3,105,Open,M,SBD,Raw,Sameh Hussein,1982-10-06,Egypt,104.35,230,,,230,140,-155,,140,150,,,150,520
1,120,Open,M,SBD,Raw,Hussein Mohamed Fidan,1995-09-11,Lebanon,118.35,280,300,305,305,175,-180,-180,175,-310,310,335,335,815
2,120,Open,M,SBD,Raw,Gustave Fezan-Bi,1988-03-22,Ivory Coast,118.6,300,-302.5,-302.5,300,-200,200,205,205,310,-320,-320,310,815
3,120,Open,M,SBD,Raw,Yacine Benjedou,1989-06-11,Algeria,107.35,275,292.5,300,300,170,172.5,175,175,300,310,315,315,790
1,120+,Open,M,SBD,Raw,Ilyes Boughalem,1987-01-11,Algeria,159.4,325,340,350,350,275,291,-292.5,291,270,285,297.5,297.5,938.5
1,74,Sub-Juniors,M,SBD,Raw,Hichem Bencheikh,2003-05-03,Algeria,74,177.5,188.5,190,190,95,102.5,-105,102.5,190,210,219,219,511.5
2,74,Sub-Juniors,M,SBD,Raw,Marco Vieira,2001-03-03,South Africa,73.8,-150,160,-167.5,160,92.5,95,-100,95,170,,,170,425
1,83,Sub-Juniors,M,SBD,Raw,Mohamed Ferdjoukh,2001-03-11,Algeria,79.65,165,175,180,180,105,107.5,110,110,230,250,-275.5,250,540
2,83,Sub-Juniors,M,SBD,Raw,Simon Curtain,2001-04-02,South Africa,81.21,120,125,130,130,90,92.5,-95,92.5,210,220,225,225,447.5
3,83,Sub-Juniors,M,SBD,Raw,Erich Human,2001-06-12,South Africa,78.05,120,130,140,140,85,90,95,95,180,190,200,200,435
1,93,Sub-Juniors,M,SBD,Raw,Saeid Mohammed Al Hasi,2001-10-01,Lebanon,91.35,200,225,235,235,130,140,-145,140,250,280,291,291,666
1,105,Sub-Juniors,M,SBD,Raw,Abdullah Sul Abou Dabous,2001-09-01,Lebanon,99.3,180,210,-215,210,-130,130,140,140,240,261,-262.5,261,611
1,120,Sub-Juniors,M,SBD,Raw,Justin Furman,2001-05-01,South Africa,116.7,195,205,210,210,112.5,117.5,120,120,205,215,220,220,550
1,120+,Sub-Juniors,M,SBD,Raw,Heinrich Botha,2001-02-01,South Africa,143.7,200,220,-235,220,120,130,135,135,200,225,237.5,237.5,592.5
1,66,Juniors,M,SBD,Raw,Brandon Samuels,1998-04-21,South Africa,64.9,140,150,172.5,172.5,-100,110,125,125,220,252.5,-260,252.5,550
1,74,Juniors,M,SBD,Raw,Wynand Kuhn,1999-02-09,South Africa,71,130,145,150,150,115,120,-122.5,120,220,230,-245,230,500
2,74,Juniors,M,SBD,Raw,Michael Ramajoe,1997-09-15,South Africa,71.05,150,160,-167.5,160,110,120,-127.5,120,205,-210,-210,205,485
1,83,Juniors,M,SBD,Raw,Lamine Benjedou,1997-01-02,Algeria,81.55,205,215,225,225,105,110,115,115,240,260,270.5,270.5,610.5
2,83,Juniors,M,SBD,Raw,Rhowan Du Plessis,1996-09-16,South Africa,82.45,-180,185,-200,185,120,125,-130,125,220,230,-240,230,540
3,83,Juniors,M,SBD,Raw,Cameron Crawford,1998-08-10,South Africa,77.6,165,175,182.5,182.5,110,117.5,-122.5,117.5,200,-222.5,-222.5,200,500
1,105,Juniors,M,SBD,Raw,Abdelslam Lakhal,1998-01-01,Algeria,104.1,230,245,-250,245,110,120,-122.5,120,260,-275,275,275,640
2,105,Juniors,M,SBD,Raw,Ahmed Farrag,1998-08-24,Egypt,102.9,110,-135,160,160,90,110,-117.5,110,160,200,225,225,495
1,120,Juniors,M,SBD,Raw,Salem Sale Merwas Eslam,1997-11-16,Lebanon,117.65,270,290,-305,290,170,180,182.5,182.5,300,320,325,325,797.5
1,120+,Juniors,M,SBD,Raw,Mousa Abdulrahman,1996-09-10,Lebanon,157.2,280,310,330,330,160,172.5,180,180,280,310,-332.5,310,820
2,120+,Juniors,M,SBD,Raw,Hamou Dib,1996-11-05,Algeria,143.9,280,290,305,305,172.5,-180,-180,172.5,300,320,-342.5,320,797.5
1,93,Masters 1,M,SBD,Raw,Mohamed Marie,1977-07-07,Egypt,90.9,220,230,235,235,150,160,-165,160,250,260,265,265,660
2,93,Masters 1,M,SBD,Raw,Benali Mechrouh,1975-01-05,Algeria,91.75,212.5,-220,220,220,120,-130,130,130,250,265,-280,265,615
1,105,Masters 1,M,SBD,Raw,Marius Johannes,1974-12-15,Namibia,102.8,-217.5,225,230,230,-165,172.5,177.5,177.5,255,-267.5,-267.5,255,662.5
DQ,105,Masters 1,M,SBD,Raw,Charles Johnson,1970-11-02,South Africa,99.35,210,-220,-220,210,-160,-160,-160,,,,,,
1,120,Masters 1,M,SBD,Raw,Husein Mohammed Kedish,1974-07-13,Lebanon,118.05,250,270,-290,270,150,160,170,170,270,280,-282.5,280,720
1,120+,Masters 1,M,SBD,Raw,Alauldin Al Shaykhi,1978-07-14,Lebanon,137.6,270,305,-315,305,180,-195,195,195,330,-360,360,360,860
1,74,Masters 2,M,SBD,Raw,Mohammed Mu Al Waseya,1966-01-01,Lebanon,73.05,125,-135,135,135,60,70,80,80,120,150,-172.5,150,365
1,93,Masters 2,M,SBD,Raw,Ebrahim Mobara,1964-12-09,South Africa,88.55,185,195,,195,100,105,,105,160,200,222.5,222.5,522.5
1,120,Masters 2,M,SBD,Raw,Denis Bensch,1965-12-14,South Africa,116,190,210,-215,210,120,130,140,140,200,220,227.5,227.5,577.5
2,120,Masters 2,M,SBD,Raw,Cliff Mudge,1968-04-09,South Africa,119.65,190,-210,210,210,85,92.5,-95,92.5,200,-230,-230,200,502.5
1,120+,Masters 2,M,SBD,Raw,Hercules Van der Berg,1966-11-27,South Africa,170.75,-240,-240,240,240,167.5,172.5,180,180,240,255,270,270,690
1,74,Masters 3,M,SBD,Raw,Yunus Hassen,1954-01-05,South Africa,71.3,115,125,135,135,62.5,70,75,75,180,195,206,206,416
1,120,Masters 3,M,SBD,Raw,André Ludik,1955-09-26,South Africa,111.95,140,,,140,105,110,112.5,112.5,170,190,200,200,452.5
1,57,Open,F,SBD,Raw,Sasha Payne,1995-05-10,South Africa,56.15,117.5,-122.5,122.5,122.5,70,72.5,75,75,145,152.5,157.5,157.5,355
1,63,Open,F,SBD,Raw,Safia Kouri,1974-05-12,Algeria,62.45,145,150,155,155,67.5,72.5,75,75,180,190,-198,190,420
1,72,Open,F,SBD,Raw,Zohra Tatar,1992-09-26,Algeria,70.35,135,142.5,150,150,62.5,67.5,70,70,185,187.5,197.5,197.5,417.5
2,72,Open,F,SBD,Raw,Olivia Perotti,1989-01-29,South Africa,70.35,155,165,-177.5,165,-80,80,85,85,155,165,-172.5,165,415
3,72,Open,F,SBD,Raw,Jozanne Hartzer,1987-03-18,South Africa,71.65,115,122.5,-125,122.5,60,65,67.5,67.5,140,155,,155,345
4,72,Open,F,SBD,Raw,Audrey Svonga,1985-11-22,Zimbabwe,71.55,92.5,97.5,100,100,65,67.5,-70,67.5,120,125,-127.5,125,292.5
1,84,Open,F,SBD,Raw,Malia Chafai,1974-10-20,Algeria,82.85,125,-135,142.5,142.5,60,65,67.5,67.5,150,160,170,170,380
2,84,Open,F,SBD,Raw,Emma Elcott,1990-01-04,South Africa,83.95,135,-142.5,142.5,142.5,60,67.5,-70,67.5,142.5,152.5,-162.5,152.5,362.5
1,84+,Open,F,SBD,Raw,Lauren Norton,1989-03-31,South Africa,110.8,160,172.5,-185,172.5,105,110,-117.5,110,-170,170,-180,170,452.5
2,84+,Open,F,SBD,Raw,Touria Kendouci,1978-04-20,Algeria,106.55,160,-170,-170,160,55,65,-67.5,65,140,155,-170,155,380
1,52,Sub-Juniors,F,SBD,Raw,Aimee Grefen,2003-04-25,South Africa,51.7,85,92.5,-95,92.5,35,40,-45,40,95,112.5,-117.5,112.5,245
2,52,Sub-Juniors,F,SBD,Raw,Liame Baadjies,2001-02-12,South Africa,52,67.5,-72.5,-72.5,67.5,37.5,40,-45,40,112.5,-117.5,-120,112.5,220
1,57,Sub-Juniors,F,SBD,Raw,Minke Colling,2003-11-08,South Africa,55.95,85,90,-92.5,90,42.5,45,-47.5,45,115,120,122.5,122.5,257.5
2,57,Sub-Juniors,F,SBD,Raw,Juliet Molife,2003-04-29,Zimbabwe,55.85,80,82.5,85,85,37.5,40,-45,40,90,97.5,100,100,225
1,57,Juniors,F,SBD,Raw,Nicola Maritz,1997-10-14,South Africa,57,80,87.5,90,90,42.5,-47.5,47.5,47.5,-100,100,,100,237.5
1,63,Juniors,F,SBD,Raw,Caitlin Poon,2000-06-07,South Africa,63,112.5,117.5,120,120,57.5,62.5,-65,62.5,120,127.5,132.5,132.5,315
1,72,Juniors,F,SBD,Raw,Amaria Houcine,1998-06-05,Algeria,63.15,125,130,-135,130,50,55,57.5,57.5,110,130,140,140,327.5
2,72,Juniors,F,SBD,Raw,Elmone Rhode,1998-04-11,Namibia,69.03,85,-90,97.5,97.5,47.5,50,-57.5,50,115,120,130,130,277.5
1,47,Masters 1,F,SBD,Raw,Elisabeth Barry,1973-03-28,South Africa,47,60,70,75,75,35,37.5,40,40,100,115,-122.5,115,230
1,63,Masters 1,F,SBD,Raw,Zonra Zietsman,,South Africa,62.65,85,95,-97.5,95,47.5,50,52.5,52.5,100,105,112.5,112.5,260
1,72,Masters 1,F,SBD,Raw,Debbie McAlpine,1976-10-15,South Africa,70.35,115,122.5,130,130,52.5,57.5,60,60,120,130,140,140,330
1,84,Masters 1,F,SBD,Raw,Pia Marangoni,1976-12-09,South Africa,76.75,130,135,-140,135,55,60,65,65,142.5,157.5,162.5,162.5,362.5
2,84,Masters 1,F,SBD,Raw,Jodi Poon,1975-04-02,South Africa,75.4,107.5,-110,110,110,57.5,-62.5,-62.5,57.5,-127.5,127.5,130,130,297.5
1,84+,Masters 1,F,SBD,Raw,Phokwane Moloele,1977-01-11,South Africa,90.75,115,122.5,127.5,127.5,65,70,72.5,72.5,120,140,160,160,360
1,63,Masters 2,F,SBD,Raw,Ronel Reyneke,1969-06-01,South Africa,61.7,95,-100,-100,95,57.5,60,65,65,100,110,120,120,280
1,72,Masters 2,F,SBD,Raw,Lana Kleynhans,1967-02-15,South Africa,69.5,95,102.5,-107.5,102.5,65,70,72.5,72.5,140,150,156,156,331
1,84,Masters 2,F,SBD,Raw,Fiona Hickman,1965-09-05,South Africa,82,100,110,115,115,55,60,65,65,120,130,140,140,320
1,74,Open,M,B,Raw,Fethi Hamdani,1993-04-19,Algeria,73.65,,,,,145,155,160,160,,,,,160
1,93,Open,M,B,Raw,Saber Kebbab,1976-09-03,Algeria,91.6,,,,,160,-165,180,180,,,,,180
2,93,Open,M,B,Raw,Ali Akif,1985-04-12,Morocco,93,,,,,160,165,-170,165,,,,,165
3,93,Open,M,B,Raw,Archie Ayekpa,1985-04-29,South Africa,90.35,,,,,155,162.5,-167.5,162.5,,,,,162.5
1,120,Open,M,B,Raw,Mohamed Zine Edd Ammor,1983-10-22,Algeria,117.5,,,,,200,212.5,220,220,,,,,220
2,120,Open,M,B,Raw,Abdulw Obaydallah Ali Salim,1983-01-12,Lebanon,114.15,,,,,150,160,-170,160,,,,,160
1,120+,Open,M,B,Raw,Dennis Conradie,1986-04-10,South Africa,143.4,,,,,195,-205,205,205,,,,,205
2,120+,Open,M,B,Raw,Hassan Nasreldin,1988-06-10,Egypt,130,,,,,130,140,150,150,,,,,150
1,105,Juniors,M,B,Raw,Ahmed Farrag,1998-08-24,Egypt,102.9,,,,,90,105,115,115,,,,,115
1,66,Masters 1,M,B,Raw,Moses Tsimane,1975-09-20,South Africa,61.45,,,,,90,105,-115,105,,,,,105
1,74,Masters 1,M,B,Raw,Glen van der Linde,1971-03-06,South Africa,71.35,,,,,110,115,-117.5,115,,,,,115
2,74,Masters 1,M,B,Raw,Ashraf Alsadiq Al Falah,1973-09-11,Lebanon,70.5,,,,,-90,90,-115,90,,,,,90
1,105,Masters 1,M,B,Raw,Nezar Balil,1978-05-30,Morocco,101.8,,,,,172.5,182.5,187.5,187.5,,,,,187.5
2,105,Masters 1,M,B,Raw,Charles Johnson,1970-11-02,South Africa,96.75,,,,,160,-170,-172.5,160,,,,,160
1,120,Masters 1,M,B,Raw,Tariq Makhlouf,1975-02-09,Lebanon,119.1,,,,,120,130,-140,130,,,,,130
1,83,Masters 2,M,B,Raw,Tommie de Nysschen,1963-05-30,South Africa,80.15,,,,,120,127.5,130,130,,,,,130
1,120,Masters 2,M,B,Raw,Gerhard Oosthuizen,1964-04-03,South Africa,117.1,,,,,180,-195,-195,180,,,,,180
DQ,120,Masters 2,M,B,Raw,Ian Furman,1967-11-06,South Africa,120,,,,,-187.5,-192.5,-192.5,,,,,,
1,120+,Masters 2,M,B,Raw,Hercules Van der Berg,1966-11-27,South Africa,168.7,,,,,160,167.5,172.5,172.5,,,,,172.5
1,72,Open,F,B,Raw,Audrey Svonga,1985-11-22,Zimbabwe,71.15,,,,,62.5,67.5,-70,67.5,,,,,67.5
1,84+,Open,F,B,Raw,Eva Raquel Antonio,1986-02-14,Namibia,92.65,,,,,60,65,72.5,72.5,,,,,72.5
1,72,Sub-Juniors,F,B,Raw,Mbasa Qilingele,2001-01-01,South Africa,72,,,,,65,70,72.5,72.5,,,,,72.5
