Place,Name,BirthYear,Country,BodyweightKg,Squat1Kg,Squat2Kg,Squat3Kg,Best3SquatKg,Bench1Kg,Bench2Kg,Bench3Kg,Best3BenchKg,Deadlift1Kg,Deadlift2Kg,Deadlift3Kg,Best3DeadliftKg,TotalKg,WeightClassKg,Division,Sex,Equipment,Event
1,Sergey Fedosienko,1982,Russia,58.2,200,215,225.5,225.5,150,160,165,165,230,255,270.5,270.5,661,59,Open,M,Raw,SBD
2,Dariusz Wszoła,1978,Poland,58.3,200,210,215,215,142.5,150,152.5,152.5,197.5,205,-210,205,572.5,59,Open,M,Raw,SBD
3,Franklin León,1983,Ecuador,58.45,180,192.5,200,200,130,140,-145,140,210,220,-235,220,560,59,Open,M,Raw,SBD
4,Takaharu Ebihara,1980,Japan,58.7,165,180,185,185,130,140,-142.5,140,200,210,215,215,540,59,Open,M,Raw,SBD
5,Mohamed Lakehal,1982,Algeria,58.5,195,210,-215,210,105,110,-112.5,110,200,215,-220,215,535,59,Open,M,Raw,SBD
6,Walter Gómez,1989,Ecuador,57.95,155,162.5,167.5,167.5,112.5,120,125,125,195,205,-210,205,497.5,59,Open,M,Raw,SBD
7,Eric Kupperstein,1966,USA,58.55,-172.5,-172.5,172.5,172.5,70,75,-80,75,225,235,-252.5,235,482.5,59,Open,M,Raw,SBD
8,Stuart Jamieson,1989,UK,57.75,140,155,-162.5,155,75,80,-85,80,215,225,-235,225,460,59,Open,M,Raw,SBD
1,Mikhail Andryukhin,1970,Russia,65.9,230,240,-242.5,240,132.5,137.5,-140,137.5,252.5,265,-270,265,642.5,66,Open,M,Raw,SBD
2,Tsung-Ting Hsieh,1982,Taiwan,63.4,200,210,-215,210,155,160,165,165,250,260,265,265,640,66,Open,M,Raw,SBD
3,Antti Savolainen,1978,Finland,65.5,200,207.5,210,210,150,155,-157.5,155,255,265,-277.5,265,630,66,Open,M,Raw,SBD
4,Sergey Skochek,1983,Russia,65.75,195,205,210,210,157.5,167.5,-172.5,167.5,230,-250,-255,230,607.5,66,Open,M,Raw,SBD
5,Shawn Frasquillo,1986,USA,65.05,182.5,192.5,197.5,197.5,140,150,155,155,227.5,240,-250,240,592.5,66,Open,M,Raw,SBD
6,Alex Ochoa,1990,Ecuador,65.45,190,202.5,210,210,125,132.5,-137.5,132.5,230,240,-252.5,240,582.5,66,Open,M,Raw,SBD
7,Christopher Simmons,1986,UK,64.55,-187.5,-187.5,187.5,187.5,125,-140,140,140,215,230,-235,230,557.5,66,Open,M,Raw,SBD
8,Jacobus Phalatsi,1981,South Africa,64.2,170,185,-195,185,120,130,-137.5,130,200,210,220,220,535,66,Open,M,Raw,SBD
9,Nghiep Luu,1975,Australia,65.9,170,180,-187.5,180,92.5,97.5,100,100,255,-273.5,-273.5,255,535,66,Open,M,Raw,SBD
10,Carlos Fredericks Remi,1985,South Africa,63.3,152.5,160,167.5,167.5,100,-107.5,-107.5,100,-232.5,235,-240,235,502.5,66,Open,M,Raw,SBD
1,Aliaksandr Hrynkevich-Sudnik,1976,Belarus,73.55,227.5,235,-240,235,155,162.5,165,165,282.5,287.5,-292.5,287.5,687.5,74,Open,M,Raw,SBD
2,Hassan El Belghiti,1975,France,72.55,205,217.5,222.5,222.5,135,142.5,145,145,285,296.5,310,310,677.5,74,Open,M,Raw,SBD
3,Harry Shimalistos,1985,South Africa,72.2,200,212.5,220,220,140,150,-152.5,150,270,290,305,305,675,74,Open,M,Raw,SBD
4,Kojo Gyennin,1979,Canada,73.1,227.5,237.5,242.5,242.5,135,140,142.5,142.5,275,290,-303.5,290,675,74,Open,M,Raw,SBD
5,Per Berglund,1967,Sweden,73.5,215,230,235,235,167.5,-175,175,175,250,260,265,265,675,74,Open,M,Raw,SBD
6,Paul Cooper,1975,UK,73.15,200,210,,210,155,162.5,-167.5,162.5,265,277.5,285,285,657.5,74,Open,M,Raw,SBD
7,Kader Baali,1968,France,73.9,225,-232.5,-237.5,225,147.5,152.5,155,155,265,277.5,-282.5,277.5,657.5,74,Open,M,Raw,SBD
8,Ming-Hui Lin,1983,Taiwan,72.5,232.5,242.5,-250,242.5,135,142.5,150,150,245,,,245,637.5,74,Open,M,Raw,SBD
9,Miguel Curipoma,1987,Ecuador,73.15,210,220,225,225,135,140,-145,140,240,250,260,260,625,74,Open,M,Raw,SBD
10,Jordan Berke,1989,USA,72.85,197.5,210,217.5,217.5,150,160,-165,160,232.5,245,-250,245,622.5,74,Open,M,Raw,SBD
11,Gayrat Ismoilov,1987,Uzbekistan,73.3,210,-217.5,-217.5,210,150,157.5,-160,157.5,252.5,-270,-270,252.5,620,74,Open,M,Raw,SBD
12,Helmke Lucas,1989,Australia,73.8,205,215,-220,215,160,165,-170,165,240,-250,-250,240,620,74,Open,M,Raw,SBD
13,Yue Sun,1989,Australia,73.55,187.5,197.5,205,205,130,135,137.5,137.5,215,222.5,240,240,582.5,74,Open,M,Raw,SBD
14,Steven Tyers,1989,UK,72.8,185,195,-200,195,125,-130,130,130,215,225,235,235,560,74,Open,M,Raw,SBD
1,José Castillo,1986,Ecuador,82.4,260,272.5,-282.5,272.5,165,175,182.5,182.5,300,315,-325,315,770,83,Open,M,Raw,SBD
2,Alexey Kuzmin,1982,Russia,82.3,267.5,-275,-275,267.5,177.5,182.5,-187.5,182.5,290,305,-320,305,755,83,Open,M,Raw,SBD
3,Derek Gove,1987,USA,82.55,237.5,247.5,257.5,257.5,142.5,152.5,-157.5,152.5,272.5,285,290,290,700,83,Open,M,Raw,SBD
4,Mika Parviainen,1979,Finland,82.35,225,237.5,242.5,242.5,155,160,165,165,275,287.5,290,290,697.5,83,Open,M,Raw,SBD
5,Connor Lutz,1990,Canada,81.4,225,242.5,-250,242.5,185,-193.5,193.5,193.5,245,260,-275,260,696,83,Open,M,Raw,SBD
6,Łukasz Matwin,1983,Poland,82.4,200,212.5,217.5,217.5,145,152.5,-155,152.5,280,302.5,315.5,315.5,685.5,83,Open,M,Raw,SBD
7,Colin Webb,1985,Australia,82.4,235,252.5,257.5,257.5,142.5,152.5,-155,152.5,270,-290,-290,270,680,83,Open,M,Raw,SBD
8,Matthew Coppenhall,1987,South Africa,81.45,215,230,240,240,155,162.5,165,165,240,250,,250,655,83,Open,M,Raw,SBD
9,Andrew Jovicevic,1966,Australia,82.4,195,205,-210,205,160,-170,-170,160,245,255,260,260,625,83,Open,M,Raw,SBD
10,Ryan Miller #3,1985,South Africa,82,185,190,-195,190,150,157.5,165,165,250,255,-260,255,610,83,Open,M,Raw,SBD
11,Ryoji Kono,1981,Japan,82.3,197.5,207.5,-212.5,207.5,140,150,-155,150,235,245,-257.5,245,602.5,83,Open,M,Raw,SBD
12,Faisal Alzaabi,1978,UAE,81.45,140,-142.5,-142.5,140,175,-182.5,-182.5,175,160,-162.5,-162.5,160,475,83,Open,M,Raw,SBD
DQ,Johan Henriksson,1984,Finland,81.45,230,242.5,-247.5,242.5,-152.5,-152.5,-152.5,,,,,,,83,Open,M,Raw,SBD
1,Krzysztof Wierzbicki,1990,Poland,92.25,255,275,285,285,170,180,190,190,350,360,372.5,372.5,847.5,93,Open,M,Raw,SBD
2,Mykhaylo Bulanyy,1975,Ukraine,93,270,287.5,300,300,190,205,-215,205,-320,330,342.5,342.5,847.5,93,Open,M,Raw,SBD
3,Stephen Manuel,1988,UK,92.1,280,290,-300,290,185,192.5,,192.5,200,280,302.5,302.5,785,93,Open,M,Raw,SBD
4,LS McClain,1978,USA,92.25,245,257.5,267.5,267.5,205,212.5,-217.5,212.5,285,292.5,-302.5,292.5,772.5,93,Open,M,Raw,SBD
5,Tom Martin #1,1987,UK,92.8,-255,255,-270,255,162.5,170,172.5,172.5,325,345,-360,345,772.5,93,Open,M,Raw,SBD
6,Quentin Gilbert,1983,France,92.65,270,282.5,-287.5,282.5,180,192.5,-197.5,192.5,280,292.5,-300,292.5,767.5,93,Open,M,Raw,SBD
7,David Coimbra,1983,Brazil,92.2,255,270,280,280,170,177.5,-180,177.5,285,307.5,-330,307.5,765,93,Open,M,Raw,SBD
8,Andre Blikaas Kim,1990,Norway,92.75,232.5,242.5,250,250,182.5,187.5,190,190,290,302.5,307.5,307.5,747.5,93,Open,M,Raw,SBD
9,Aron Lee Du Teitsson,1987,Iceland,91.25,-230,230,242.5,242.5,180,190,195,195,270,285,-295,285,722.5,93,Open,M,Raw,SBD
10,Hayden Pritchard,1988,New Zealand,90.95,260,272.5,-277.5,272.5,150,160,-162.5,160,280,-285,,280,712.5,93,Open,M,Raw,SBD
11,Corne Hubinger,1981,South Africa,91.85,225,235,-237.5,235,130,140,-145,140,250,-265,,250,625,93,Open,M,Raw,SBD
12,Balazs Dr Budai,1979,Hungary,90.45,-170,170,-177.5,170,125,132.5,-137.5,132.5,210,-222.5,225,225,527.5,93,Open,M,Raw,SBD
1,Yury Belkin,1990,Russia,103.56,300,310,315,315,200,210,215,215,330,337.5,-350,337.5,867.5,105,Open,M,Raw,SBD
2,Dmitry Lihanov,1979,Russia,103.1,295,310,317.5,317.5,205,215,221,221,305,310,315,315,853.5,105,Open,M,Raw,SBD
3,Alex-Edward Raus,1992,Estonia,104.6,310,320,330,330,200,207.5,212.5,212.5,295,305,310,310,852.5,105,Open,M,Raw,SBD
4,Sofiane Belkesir,1984,France,104.45,-285,290,300,300,195,205,-207.5,205,315,332.5,-347.5,332.5,837.5,105,Open,M,Raw,SBD
5,Andreas Hjelmtveit,1983,Norway,103.6,280,300,307.5,307.5,170,-175,,170,320,330,-343,330,807.5,105,Open,M,Raw,SBD
6,Andy Mahon,1976,New Zealand,102.5,290,307.5,315,315,155,165,170,170,290,-310,-310,290,775,105,Open,M,Raw,SBD
7,Janos Istvan Nemeshazy Jr,1979,Hungary,103.1,250,260,270,270,160,165,170,170,300,315,-330,315,755,105,Open,M,Raw,SBD
8,Johannes Suomela,1988,Finland,104.4,240,252.5,257.5,257.5,177.5,185,-190,185,285,302.5,-315,302.5,745,105,Open,M,Raw,SBD
9,Henry Tosh,1980,UK,99.75,220,230,240,240,175,182.5,187.5,187.5,280,290,300,300,727.5,105,Open,M,Raw,SBD
10,Ville Vahtola,1986,Finland,104.15,-255,255,-265,255,155,170,180,180,260,290,-310,290,725,105,Open,M,Raw,SBD
11,David Jame,1981,Australia,104.65,250,262.5,267.5,267.5,135,142.5,-145,142.5,280,300,305,305,715,105,Open,M,Raw,SBD
12,Michael Schrems,1984,Austria,104.25,235,242.5,245,245,187.5,195,200,200,265,-282.5,-282.5,265,710,105,Open,M,Raw,SBD
13,Gregor Loosen,1986,Germany,104.25,225,235,-240,235,155,165,-170,165,280,295,-305,295,695,105,Open,M,Raw,SBD
1,Mohamed Bouafia,1976,Algeria,119.7,350,370,375,375,200,210,-212.5,210,332.5,350,360,360,945,120,Open,M,Raw,SBD
2,Michael Tuchscherer,1985,USA,119,315,335,345,345,192.5,202.5,210,210,335,360,-390,360,915,120,Open,M,Raw,SBD
3,Aleksey Kudryavtsev,1988,Russia,118.55,305,317.5,322.5,322.5,210,217.5,220,220,300,320,345,345,887.5,120,Open,M,Raw,SBD
4,Tony Cliffe,1984,UK,118.65,300,315,322.5,322.5,205,215,220,220,310,322.5,-347.5,322.5,865,120,Open,M,Raw,SBD
5,Stephen Pritchard,1970,Australia,119.15,300,-310,312.5,312.5,200,207.5,215,215,305,320,-325,320,847.5,120,Open,M,Raw,SBD
6,Timo Hokkanen,1979,Finland,116.35,265,275,-285,275,225,235,-242,235,260,270,277.5,277.5,787.5,120,Open,M,Raw,SBD
7,Pavol Demčák,1977,Czechia,119.1,255,265,275,275,-215,215,222.5,222.5,260,270,285,285,782.5,120,Open,M,Raw,SBD
8,Dave Edwards,1985,South Africa,117.35,250,-265,265,265,190,200,205,205,270,285,292.5,292.5,762.5,120,Open,M,Raw,SBD
9,Damian Ostrowski,1983,Poland,118.6,260,-272.5,272.5,272.5,190,-202.5,-202.5,190,275,290,-302.5,290,752.5,120,Open,M,Raw,SBD
10,Alexander Pürzel,1983,Austria,117,240,-247.5,247.5,247.5,170,175,-177.5,175,300,-317.5,-317.5,300,722.5,120,Open,M,Raw,SBD
1,Ray Williams #1,1986,USA,162.4,372.5,397.5,412.5,412.5,220,230,235,235,-300,300,325,325,972.5,120+,Open,M,Raw,SBD
2,Oliva Kirisome,1985,Samoa,160.85,325,345,357.5,357.5,215,220,-222.5,220,320,-337.5,340,340,917.5,120+,Open,M,Raw,SBD
3,Martins Kruze,1988,Latvia,152.9,345,360,370,370,205,212.5,217.5,217.5,315,-327.5,327.5,327.5,915,120+,Open,M,Raw,SBD
4,Artem Kovalchuk,1982,Russia,137.15,325,342.5,-347.5,342.5,190,197.5,202.5,202.5,320,337.5,-342.5,337.5,882.5,120+,Open,M,Raw,SBD
5,Matt Baller,1985,USA,139.6,292.5,312.5,-325,312.5,240,252.5,260.5,260.5,272.5,287.5,297.5,297.5,870.5,120+,Open,M,Raw,SBD
6,Martin Borgland Rønning,1984,Norway,163.2,305,315,-320,315,235,240,245,245,300,310,,310,870,120+,Open,M,Raw,SBD
7,Juan Booyse,1990,South Africa,130,-270,270,287.5,287.5,185,192.5,200,200,240,255,265,265,752.5,120+,Open,M,Raw,SBD
8,Ilyes Boughalem,1987,Algeria,136.2,240,-260,-270,240,240,-260,-260,240,210,230,-250,230,710,120+,Open,M,Raw,SBD
1,Alexei Kulakov,1997,Russia,52.6,115,122.5,130,130,80,85,-90,85,155,162.5,-180,162.5,377.5,53,Sub-Juniors,M,Raw,SBD
2,Revaldo Matras,1996,South Africa,48.5,110,120,-125,120,60,65,67.5,67.5,160,167.5,172.5,172.5,360,53,Sub-Juniors,M,Raw,SBD
3,Hakim Riahi,1998,Algeria,52.1,100,115,120,120,50,-60,-60,50,160,177.5,-180,177.5,347.5,53,Sub-Juniors,M,Raw,SBD
1,Sergey Chizhikov,1997,Russia,58.35,155,165,170,170,85,92.5,-97.5,92.5,165,172.5,177.5,177.5,440,59,Sub-Juniors,M,Raw,SBD
2,Ali Braik Malek,1998,Libya,57.9,-120,-120,120,120,90,105,110.5,110.5,150,165,-175,165,395.5,59,Sub-Juniors,M,Raw,SBD
3,Marco Jacobs,1998,South Africa,58.2,120,125,130,130,80,87.5,90,90,135,147.5,150,150,370,59,Sub-Juniors,M,Raw,SBD
4,Kacper Drochomirecki,1998,Poland,58.65,122.5,132.5,140,140,77.5,-82.5,82.5,82.5,-135,135,147.5,147.5,370,59,Sub-Juniors,M,Raw,SBD
5,Orbert Booysen,1998,South Africa,57.25,-110,110,115,115,70,75,-80,75,130,-140,140,140,330,59,Sub-Juniors,M,Raw,SBD
1,Ihar Yuzapchuk,1996,Belarus,65,170,177.5,-182.5,177.5,125,130,132.5,132.5,180,190,197.5,197.5,507.5,66,Sub-Juniors,M,Raw,SBD
2,Alexei Schankin,1996,Russia,63.85,155,165,172.5,172.5,100,105,107.5,107.5,200,210,220,220,500,66,Sub-Juniors,M,Raw,SBD
3,Kamil Dec,1996,Poland,65.15,155,165,172.5,172.5,102.5,107.5,110,110,170,180,192.5,192.5,475,66,Sub-Juniors,M,Raw,SBD
4,Tomi Kuusisto,1997,Finland,64.75,155,162.5,167.5,167.5,90,95,100,100,192.5,200,-207.5,200,467.5,66,Sub-Juniors,M,Raw,SBD
5,Frank Zou,1996,Australia,63.85,-145,145,152.5,152.5,112.5,-117.5,-117.5,112.5,190,200,-210,200,465,66,Sub-Juniors,M,Raw,SBD
6,Ebrahim Pregnolato,1997,South Africa,64.8,130,137.5,145,145,95,-100,100,100,190,-202.5,202.5,202.5,447.5,66,Sub-Juniors,M,Raw,SBD
7,Keita Suzuki,1996,Japan,63.45,100,112.5,117.5,117.5,100,112.5,-115,112.5,160,-172.5,-172.5,160,390,66,Sub-Juniors,M,Raw,SBD
1,Maxim Nikitin,1996,Russia,74,175,185,195,195,135,-140,-140,135,230,237.5,-242.5,237.5,567.5,74,Sub-Juniors,M,Raw,SBD
2,Nathan Kimball,1996,USA,70.8,160,192.5,200,200,110,120,127.5,127.5,195,230,-245,230,557.5,74,Sub-Juniors,M,Raw,SBD
3,Tatu Sokka,1996,Finland,73.45,200,208,209,209,115,-122.5,-122.5,115,202.5,-212.5,217.5,217.5,541.5,74,Sub-Juniors,M,Raw,SBD
4,Jun Furukawa,1996,Japan,72.75,-175,190,-200,190,80,90,100,100,230,250,-260,250,540,74,Sub-Juniors,M,Raw,SBD
5,Jaakko Lähteenmäki,1996,Finland,72.8,195,202.5,-208.5,202.5,105,-107.5,,105,180,200,-235,200,507.5,74,Sub-Juniors,M,Raw,SBD
6,Ethan Brownlee,1996,UK,73,145,155,-160,155,95,100,-102.5,100,207.5,217.5,-222.5,217.5,472.5,74,Sub-Juniors,M,Raw,SBD
7,Luke Routier,1996,South Africa,73.25,152.5,162.5,-170,162.5,105,112.5,-115,112.5,170,190,-205,190,465,74,Sub-Juniors,M,Raw,SBD
1,Nikita Lakeev,1996,Russia,82.15,190,205,216,216,115,-120,120,120,230,240,-260,240,576,83,Sub-Juniors,M,Raw,SBD
2,Denis Nesterov,1996,Russia,76.65,180,190,197.5,197.5,110,115,117.5,117.5,220,230,240,240,555,83,Sub-Juniors,M,Raw,SBD
3,Cameron Andrews,1996,New Zealand,81.6,205,-215.5,-215.5,205,115,120,125,125,200,210,-215,210,540,83,Sub-Juniors,M,Raw,SBD
4,Paul Bereford Roger,1996,South Africa,78.35,155,165,180,180,97.5,102.5,-107.5,102.5,212.5,222.5,237.5,237.5,520,83,Sub-Juniors,M,Raw,SBD
5,Matthew Jessome,1997,Canada,75.8,165,175,180,180,87.5,97.5,105,105,210,217.5,-230,217.5,502.5,83,Sub-Juniors,M,Raw,SBD
1,Sergey Stupakov,1996,Russia,85.8,200,215,222.5,222.5,120,130,137.5,137.5,225,240,250,250,610,93,Sub-Juniors,M,Raw,SBD
2,Mousa Lazreg Husam Eddeen,1996,Libya,91.6,200,-215,220,220,125,-130,-130,125,240,250,-266,250,595,93,Sub-Juniors,M,Raw,SBD
3,Phillip Karbstein,1996,Germany,89.15,170,185,-192.5,185,115,120,-125,120,220,230,237.5,237.5,542.5,93,Sub-Juniors,M,Raw,SBD
4,Filip Glura,1996,Poland,92.3,170,182.5,190,190,120,-127.5,-127.5,120,210,220,-235,220,530,93,Sub-Juniors,M,Raw,SBD
5,Ryno Du Plooy,1996,South Africa,89.55,170,190,-202.5,190,100,107.5,-112.5,107.5,205,227.5,-242.5,227.5,525,93,Sub-Juniors,M,Raw,SBD
6,Jordan Major,1996,UK,90.65,165,175,-182.5,175,105,112.5,115,115,190,210,-220,210,500,93,Sub-Juniors,M,Raw,SBD
7,Mikael Kettunen,1996,Finland,91.9,170,180,-187.5,180,125,-132.5,-132.5,125,180,195,-202.5,195,500,93,Sub-Juniors,M,Raw,SBD
1,Conradie Mouton,1996,South Africa,101.9,170,-185,185,185,110,117.5,120,120,240,250,-260,250,555,105,Sub-Juniors,M,Raw,SBD
2,Alexander Braxton,1998,South Africa,98.9,170,180,195,195,100,107.5,-112.5,107.5,220,230,-240,230,532.5,105,Sub-Juniors,M,Raw,SBD
1,Joel Hintz,1996,New Zealand,107.65,-220,245,260,260,160,-165,-165,160,220,250,-255,250,670,120,Sub-Juniors,M,Raw,SBD
2,Ivan Delov,1996,Russia,109.45,180,195,-210,195,135,142.5,150,150,210,220,227.5,227.5,572.5,120,Sub-Juniors,M,Raw,SBD
3,Micheal Fourie,1998,South Africa,112,165,177.5,-180,177.5,117.5,-122.5,-122.5,117.5,205,215,-225,215,510,120,Sub-Juniors,M,Raw,SBD
1,Aleksandr Ognevoy,1996,Russia,151.9,225,245,-261,245,130,-140,,130,240,255,,255,630,120+,Sub-Juniors,M,Raw,SBD
2,Mussa Eldrogi Mussa Abdelwhab,1998,Libya,134,-100,100,130,130,40,50,60,60,130,170,-200,170,360,120+,Sub-Juniors,M,Raw,SBD
1,Akzhol Alymbek Uulu,1994,Kyrgyzstan,52.6,120,135,140,140,105,110,-115,110,165,175,187.5,187.5,437.5,53,Juniors,M,Raw,SBD
2,Husnuddin Buriev,1994,Uzbekistan,52.75,130,145,150,150,100,107.5,115,115,160,172.5,-180,172.5,437.5,53,Juniors,M,Raw,SBD
3,Pavel Zayats,1995,Belarus,52.35,80,90,100,100,60,80,85,85,90,115,-140,115,300,53,Juniors,M,Raw,SBD
1,Konstantin Makarov,1991,Russia,58.9,170,180,185,185,120,127.5,130,130,200,215,-220,215,530,59,Juniors,M,Raw,SBD
2,Azamat Alymbek Uulu,1992,Kyrgyzstan,58.3,150,-160,-162.5,150,115,122.5,-127.5,122.5,200,215,-221,215,487.5,59,Juniors,M,Raw,SBD
3,Clint Williams,1992,South Africa,58.6,130,145,155,155,85,90,92.5,92.5,175,190,200,200,447.5,59,Juniors,M,Raw,SBD
4,Tomoki Maegawa,1994,Japan,58.1,-150,150,160,160,80,90,95,95,180,190,-200,190,445,59,Juniors,M,Raw,SBD
5,Jordan Lam,1993,UK,58.15,130,140,150,150,87.5,95,97.5,97.5,175,185,192.5,192.5,440,59,Juniors,M,Raw,SBD
6,Yuya Onuma,1992,Japan,57.9,137.5,145,-150,145,82.5,85,90,90,177.5,-192.5,,177.5,412.5,59,Juniors,M,Raw,SBD
1,John Paul Cauchi,1992,Australia,65.75,190,202.5,210,210,102.5,107.5,110,110,235,255.5,273,273,593,66,Juniors,M,Raw,SBD
2,Leonid Kuznetsov,1993,Russia,63.85,205,-210,-210,205,125,130,-132.5,130,230,-240.5,-242.5,230,565,66,Juniors,M,Raw,SBD
3,Tomáš Juříček,1992,Czechia,65.25,175,187.5,-197.5,187.5,130,140,142.5,142.5,-205,220,222.5,222.5,552.5,66,Juniors,M,Raw,SBD
4,Eddie Berglund,1995,Sweden,64.1,170,190,200,200,165.5,173,180,180,170,-195,-195,170,550,66,Juniors,M,Raw,SBD
5,Matti Christensen,1995,Denmark,64.1,160,170,180,180,147.5,152.5,-157.5,152.5,190,197.5,202.5,202.5,535,66,Juniors,M,Raw,SBD
6,Brandon Choo,1992,Australia,65.5,162.5,172.5,177.5,177.5,102.5,107.5,110,110,200,212.5,222.5,222.5,510,66,Juniors,M,Raw,SBD
7,Sergiy Chernyshov,1991,Ukraine,65.7,172.5,-182.5,-185,172.5,125,132.5,135,135,175,190,197.5,197.5,505,66,Juniors,M,Raw,SBD
8,Ross Lawton,1992,UK,65.85,-190,190,-205,190,95,102.5,105,105,190,210,-225,210,505,66,Juniors,M,Raw,SBD
9,Ivan Vers,1991,South Africa,63.2,150,162.5,-170,162.5,110,120,-125,120,180,195,-202.5,195,477.5,66,Juniors,M,Raw,SBD
10,Jacob Keesee,1995,USA,64.25,145,157.5,167.5,167.5,92.5,100,110,110,165,172.5,180,180,457.5,66,Juniors,M,Raw,SBD
DQ,Yasutaka Fuchigami,1992,Japan,64.4,-197.5,-197.5,-205,,,,,,,,,,,66,Juniors,M,Raw,SBD
1,Josh Hancott,1993,Canada,73.65,232.5,250.5,-256,250.5,152.5,160,-168,160,250,262.5,271,271,681.5,74,Juniors,M,Raw,SBD
2,Toni Väisänen,1991,Finland,73.15,202.5,207.5,212.5,212.5,135,140,145,145,250,260,265,265,622.5,74,Juniors,M,Raw,SBD
3,Alexander Molin,1992,Russia,73.45,200,210,217.5,217.5,155,162.5,-168.5,162.5,230,237.5,242.5,242.5,622.5,74,Juniors,M,Raw,SBD
4,Andrew Thomas,1994,New Zealand,72.8,175,190,202.5,202.5,125,135,-142.5,135,220,230,242.5,242.5,580,74,Juniors,M,Raw,SBD
5,Yoshiaki Yamamoto,1992,Japan,72.4,180,192.5,-202.5,192.5,120,127.5,135,135,225,-240,245,245,572.5,74,Juniors,M,Raw,SBD
6,Dagfinnur Ari Normann,1993,Iceland,73.4,195,202.5,-207.5,202.5,135,-142.5,-142.5,135,210,220,225,225,562.5,74,Juniors,M,Raw,SBD
7,Japhta Khalapa,1992,South Africa,73.2,-200,200,-212.5,200,110,120,125,125,225,-240,-240,225,550,74,Juniors,M,Raw,SBD
8,Michael Ferguson #2,1991,UK,72.35,170,190,-200,190,112.5,117.5,-120,117.5,222.5,232.5,235,235,542.5,74,Juniors,M,Raw,SBD
DQ,Andrew Tang,1993,Australia,73.85,160,-172.5,-172.5,160,110,-117.5,-117.5,110,-240,-240,-240,,,74,Juniors,M,Raw,SBD
1,Brett Gibbs,1991,New Zealand,82.25,265,275,280,280,175,182.5,185,185,290,302.5,305.5,305.5,770.5,83,Juniors,M,Raw,SBD
2,Randy Zhou,1991,Canada,83,255,262.5,265,265,157.5,162.5,167.5,167.5,270,277.5,287.5,287.5,720,83,Juniors,M,Raw,SBD
3,Jonnie Candito,1992,USA,81.75,230,245,255,255,132.5,140,145,145,252.5,267.5,282.5,282.5,682.5,83,Juniors,M,Raw,SBD
4,Piotr Jablonski,1991,Poland,82.25,225,232.5,237.5,237.5,180,185,-187.5,185,235,250,260,260,682.5,83,Juniors,M,Raw,SBD
5,Fabian Machado,1991,Ecuador,82.55,215,230,-235,230,155,-160,160,160,265,277.5,-285,277.5,667.5,83,Juniors,M,Raw,SBD
6,Nicki Lentz,1992,Denmark,83,245,-257.5,257.5,257.5,135,142.5,147.5,147.5,240,250,255,255,660,83,Juniors,M,Raw,SBD
7,Jan Lipponen,1991,Finland,82.1,220,230,237.5,237.5,137.5,142.5,-145,142.5,235,245,255,255,635,83,Juniors,M,Raw,SBD
8,Alistair Cannings,1991,UK,80.4,210,222.5,230,230,140,145,150,150,225,235,245,245,625,83,Juniors,M,Raw,SBD
9,Samuel Derynck,1992,USA,80.45,205,217.5,-227.5,217.5,137.5,140,142.5,142.5,242.5,257.5,-260,257.5,617.5,83,Juniors,M,Raw,SBD
10,Jabulani Phantle,1991,South Africa,79.75,200,215,222.5,222.5,130,137.5,-142.5,137.5,250,-260,-260,250,610,83,Juniors,M,Raw,SBD
11,Owen Hubbard,1992,UK,81.15,240,250,257.5,257.5,180,190.5,-194,190.5,100,,,100,548,83,Juniors,M,Raw,SBD
12,Censori Michael,1991,Australia,82.8,175,185,-190,185,122.5,127.5,130,130,195,207.5,212.5,212.5,527.5,83,Juniors,M,Raw,SBD
1,Garrett Bailey,1992,USA,91.95,240,250,257.5,257.5,155,162.5,165,165,325,-335,-335,325,747.5,93,Juniors,M,Raw,SBD
2,Sascha Stendebach,1991,Germany,90.15,210,232.5,240,240,165,175,180,180,280,290,292.5,292.5,712.5,93,Juniors,M,Raw,SBD
3,André Midtby,1991,Norway,87.4,217.5,225,232.5,232.5,172.5,-177.5,-177.5,172.5,260,270,282.5,282.5,687.5,93,Juniors,M,Raw,SBD
4,Nelson Sitsile,1991,South Africa,89.35,200,220,232.5,232.5,120,132.5,-140,132.5,270,282.5,290,290,655,93,Juniors,M,Raw,SBD
5,Kamil Krakowiak,1992,Poland,89.45,200,-215,220,220,130,-137.5,-137.5,130,250,270,-285,270,620,93,Juniors,M,Raw,SBD
1,Johan Smith,1991,South Africa,103.6,240,255,-262.5,255,190,200,205,205,275,285,295,295,755,105,Juniors,M,Raw,SBD
2,Markus Suomela,1992,Finland,103.15,215,225,232.5,232.5,165,-172.5,177.5,177.5,300,-312.5,312.5,312.5,722.5,105,Juniors,M,Raw,SBD
3,Douglas Bowen,1991,USA,104.6,240,260,275,275,142.5,150,157.5,157.5,250,275,287.5,287.5,720,105,Juniors,M,Raw,SBD
4,Niko Nurmi,1995,Finland,104.75,260,265,-270,265,145,152.5,-157.5,152.5,290,295,-305,295,712.5,105,Juniors,M,Raw,SBD
5,Seiken Sano,1995,Japan,95.75,190,202.5,210,210,110,120,130,130,250,265,-290,265,605,105,Juniors,M,Raw,SBD
6,Samuel Downey,1995,USA,94.3,215,230,240,240,125,140,147.5,147.5,170,192.5,207.5,207.5,595,105,Juniors,M,Raw,SBD
1,Tuomas Hautala,1992,Finland,118.95,300,310,,310,180,190,200,200,330,350,362.5,362.5,872.5,120,Juniors,M,Raw,SBD
2,Cameron McKenzie,1993,Australia,114,290,-300,-300,290,177.5,-182.5,182.5,182.5,307.5,322.5,330,330,802.5,120,Juniors,M,Raw,SBD
3,Benedict Bucarizza,1991,South Africa,115.2,285,-292.5,292.5,292.5,190,195,200,200,300,310,-315,310,802.5,120,Juniors,M,Raw,SBD
4,Piotr Sadowski,1993,Poland,117.2,-285,-285,285,285,192.5,200,-202.5,200,290,305,-312.5,305,790,120,Juniors,M,Raw,SBD
5,Jonathan Parsons,1991,New Zealand,115.8,-280,280,-302.5,280,175,182.5,-185,182.5,305,-315,-315,305,767.5,120,Juniors,M,Raw,SBD
6,Even Bless Liland,1991,Norway,118.4,240,255,260,260,182.5,187.5,192.5,192.5,280,292.5,-300,292.5,745,120,Juniors,M,Raw,SBD
7,Nathan Zephir,1991,USA,118.7,235,247.5,252.5,252.5,187.5,200,207.5,207.5,255,270,-280,270,730,120,Juniors,M,Raw,SBD
1,David Lupáč,1991,Czechia,145.05,310,330,340,340,200,215,225,225,300,320,335,335,900,120+,Juniors,M,Raw,SBD
2,Luke Klein,1992,USA,153.45,285,300,305,305,187.5,197.5,-202.5,197.5,290,305,315,315,817.5,120+,Juniors,M,Raw,SBD
3,Janis Ansmits,1991,Latvia,131.45,255,270,280,280,190,200,205,205,290,305,-315,305,790,120+,Juniors,M,Raw,SBD
4,Shaun Kelly,1993,UK,132.4,255,270,275,275,160,170,-175,170,270,280,290,290,735,120+,Juniors,M,Raw,SBD
5,Minal Raniga,1991,South Africa,132.95,260,270,-275,270,145,-155,-155,145,260,270,277.5,277.5,692.5,120+,Juniors,M,Raw,SBD
6,Yuki Funamizu,1993,Japan,125.9,200,215,230,230,130,140,150,150,200,230,240,240,620,120+,Juniors,M,Raw,SBD
1,Kiyokazu Genda,1972,Japan,57,155,165,170,170,95,102.5,105,105,175,185,-190,185,460,59,Masters 1,M,Raw,SBD
2,Eikichi Tomita,1971,Japan,57.15,120,125,130,130,80,-85,85,85,170,-190,-190,170,385,59,Masters 1,M,Raw,SBD
1,Jeff Phillips #1,1965,USA,64.65,167.5,175,182.5,182.5,105,110,115,115,210,227.5,-235,227.5,525,66,Masters 1,M,Raw,SBD
2,Abdelkader Aissa,1969,Algeria,65.9,130,150,170,170,100,110,-112.5,110,-220,240,-247.5,240,520,66,Masters 1,M,Raw,SBD
3,Masoud El Mesheti,1973,Libya,64.7,160,-170,170,170,105,110,-115,110,200,-220,-222.5,200,480,66,Masters 1,M,Raw,SBD
4,Pascal Poidras,1967,France,65.25,150,157.5,-165,157.5,125,-132.5,132.5,132.5,-170,180,-202.5,180,470,66,Masters 1,M,Raw,SBD
5,Kiyoshi Kawamura,1968,Japan,62.95,145,155,-160,155,100,107.5,-112.5,107.5,180,190,-200,190,452.5,66,Masters 1,M,Raw,SBD
DQ,Jacob Carrasco-Gonsales,1966,Peru,65.85,-180,-180,-185,,115,117.5,-120,117.5,225,-230,-230,225,,66,Masters 1,M,Raw,SBD
1,Sami Siltala,1972,Finland,73.5,170,175,180,180,135,-142.5,145,145,225,242.5,252.5,252.5,577.5,74,Masters 1,M,Raw,SBD
2,Mohamed Askandrani,1972,Libya,72.45,170,180,190,190,120,130,140,140,220,235,245,245,575,74,Masters 1,M,Raw,SBD
3,Peep Päll,1970,Estonia,70.05,162.5,170,175,175,110,115,-117.5,115,200,212.5,215,215,505,74,Masters 1,M,Raw,SBD
4,Keiji Fujikawa,1971,Japan,73.2,167.5,177.5,182.5,182.5,115,-120,120,120,185,200,202.5,202.5,505,74,Masters 1,M,Raw,SBD
5,Kevin Wooldrage,1970,UK,71.25,160,170,-175,170,105,110,112.5,112.5,185,195,202.5,202.5,485,74,Masters 1,M,Raw,SBD
6,Bruno Cauhape,1971,France,71.6,150,157.5,160,160,110,-115,115,115,200,210,-217.5,210,485,74,Masters 1,M,Raw,SBD
1,David Decouleur,1972,France,82.1,220,230,-240,230,125,135,142.5,142.5,250,265,267.5,267.5,640,83,Masters 1,M,Raw,SBD
2,Laddie Gibson,1965,USA,82.45,187.5,200,210,210,167.5,177.5,-180,177.5,232.5,245,252.5,252.5,640,83,Masters 1,M,Raw,SBD
3,Peter Schmidt,1975,Germany,80.35,217.5,230,-235,230,140,147.5,152.5,152.5,220,240,252.5,252.5,635,83,Masters 1,M,Raw,SBD
4,Donald Bigham,1972,USA,81.45,205,227.5,-235,227.5,145,147.5,-150,147.5,235,247.5,-262.5,247.5,622.5,83,Masters 1,M,Raw,SBD
5,Hannu Hakala,1973,Finland,83,190,207.5,212.5,212.5,145,152.5,157.5,157.5,220,245,-255,245,615,83,Masters 1,M,Raw,SBD
6,Marcos Sanchéz,1974,Ecuador,82.25,220,230,-237.5,230,140,-147.5,-147.5,140,230,240,-245,240,610,83,Masters 1,M,Raw,SBD
7,Alimbek Rakhimov,1966,Kyrgyzstan,81.25,192.5,205,-230,205,145,152.5,157.5,157.5,215,-232.5,,215,577.5,83,Masters 1,M,Raw,SBD
8,Rémi Bertrand,1970,France,82.7,180,187.5,-195,187.5,125,-130,130,130,230,240,-247.5,240,557.5,83,Masters 1,M,Raw,SBD
9,Martin Smith,1973,UK,82.15,170,180,-190,180,140,150,152.5,152.5,210,220,-230,220,552.5,83,Masters 1,M,Raw,SBD
10,Robert King,1974,Canada,82.75,170,-185,-190,170,120,130,-142.5,130,220,227.5,-232.5,227.5,527.5,83,Masters 1,M,Raw,SBD
11,Takeshi Kanayama,1968,Japan,79.7,140,-155,-155,140,110,-120,-120,110,160,-170,170,170,420,83,Masters 1,M,Raw,SBD
1,Kevin Weiss,1971,Canada,92.4,215,230,240,240,155,165,172.5,172.5,240,255,-260,255,667.5,93,Masters 1,M,Raw,SBD
2,Chad Rexrode,1968,USA,86.15,217.5,230,-240,230,155,160,-165,160,230,242.5,250,250,640,93,Masters 1,M,Raw,SBD
3,Mika Lehtinen,1973,Finland,92.65,180,-195,200,200,180,187.5,-195,187.5,230,240,247.5,247.5,635,93,Masters 1,M,Raw,SBD
4,Henk de Wet,1974,South Africa,91.75,200,210,-220,210,140,145,-150,145,240,262.5,-280,262.5,617.5,93,Masters 1,M,Raw,SBD
5,Victor Mapoo,1970,South Africa,86.35,210,220,227.5,227.5,135,142.5,-147.5,142.5,215,225,230,230,600,93,Masters 1,M,Raw,SBD
6,Hamid Jamal,1971,Morocco,90.05,-180,180,190,190,140,147.5,155,155,230,240,-252.5,240,585,93,Masters 1,M,Raw,SBD
7,Tim Wheeler,1974,UK,91.75,190,202.5,210,210,100,105,110,110,225,242.5,252.5,252.5,572.5,93,Masters 1,M,Raw,SBD
8,Daniel Pires,1971,France,90.6,170,190,200,200,160,165,170,170,170,200,-215,200,570,93,Masters 1,M,Raw,SBD
DQ,Miktibek Aitikeyev,1971,Kyrgyzstan,90.75,220,-230,-230,220,-130,-150,-150,,190,,,190,,93,Masters 1,M,Raw,SBD
1,Sune Bak,1974,Denmark,104.25,235,242.5,-247.5,242.5,180,187.5,-190,187.5,275,282.5,-287.5,282.5,712.5,105,Masters 1,M,Raw,SBD
2,Petri Heikkinen,1973,Finland,101.7,240,-255,255,255,152.5,160,-170,160,260,275,-297.5,275,690,105,Masters 1,M,Raw,SBD
3,Joni-Pekka Nylund,1971,Finland,102.4,217.5,225,235,235,125,135,140,140,270,280,-282.5,280,655,105,Masters 1,M,Raw,SBD
4,Jorncy Page,1972,South Africa,104.9,230,-245,245,245,157.5,165,170,170,240,-272.5,-272.5,240,655,105,Masters 1,M,Raw,SBD
5,David Mlodziawkoski,1969,France,102.6,210,220,,220,140,147.5,-152.5,147.5,250,270,-282.5,270,637.5,105,Masters 1,M,Raw,SBD
6,Greg Titus,1966,USA,97.8,187.5,195,200,200,167.5,172.5,177.5,177.5,230,240,242.5,242.5,620,105,Masters 1,M,Raw,SBD
7,Cornel Welgemoed,1970,South Africa,104.2,-195,195,210,210,150,160,-162.5,160,230,245,-255,245,615,105,Masters 1,M,Raw,SBD
8,Waldemar Doktor,1973,Poland,101,170,-190,-190,170,120,125,-130,125,190,205,-212.5,205,500,105,Masters 1,M,Raw,SBD
1,Colin Wright #1,1967,UK,117.4,280,295,302.5,302.5,165,172.5,177.5,177.5,280,295,310,310,790,120,Masters 1,M,Raw,SBD
2,Matthew Cosmo,1971,South Africa,118.1,-285,285,305,305,180,-187.5,-187.5,180,260,-282.5,-282.5,260,745,120,Masters 1,M,Raw,SBD
3,Roman Atanov,1973,Russia,114.95,265,-275,275,275,180,187.5,192.5,192.5,265,275,-285,275,742.5,120,Masters 1,M,Raw,SBD
4,Andrew Rodney,1965,UK,119.8,260,-285,-295,260,170,-180,-180,170,250,270,287.5,287.5,717.5,120,Masters 1,M,Raw,SBD
5,Robert Schmidt #3,1973,USA,117.5,250,-262.5,-262.5,250,177.5,187.5,-192.5,187.5,237.5,247.5,-257.5,247.5,685,120,Masters 1,M,Raw,SBD
6,Quintin Kannemeyer,1974,South Africa,117.9,240,,,240,-165,165,,165,280,-297.5,-297.5,280,685,120,Masters 1,M,Raw,SBD
7,Patrick Chambers,1970,USA,107.4,-210,210,220,220,175,-180,-180,175,272.5,282.5,-287.5,282.5,677.5,120,Masters 1,M,Raw,SBD
8,Francois Cazin Jean,1966,France,110.3,190,205,220,220,137.5,145,150,150,195,210,-225,210,580,120,Masters 1,M,Raw,SBD
1,Jaroslav Šoukal,1972,Czechia,157.3,260,275,285,285,215,225,,225,260,275,,275,785,120+,Masters 1,M,Raw,SBD
2,Ricky Mullan,1974,UK,124.4,240,255,265,265,110,120,127.5,127.5,280,295,312.5,312.5,705,120+,Masters 1,M,Raw,SBD
3,Richard Hocquard,1968,France,126.4,245,-255,-257.5,245,155,160,-165,160,245,260,-272.5,260,665,120+,Masters 1,M,Raw,SBD
4,Dennis Hulslander,1971,USA,141.8,100,-130,,100,170,182.5,187.5,187.5,182.5,272.5,280,280,567.5,120+,Masters 1,M,Raw,SBD
5,Omar Jumaa Al Dhareri,1971,UAE,196.15,-165,-165,165,165,165,170,175,175,140,-170,-170,140,480,120+,Masters 1,M,Raw,SBD
1,Christian Voisin,1956,France,64.9,165,172.5,175,175,110,115,117.5,117.5,190,200,-205,200,492.5,66,Masters 2,M,Raw,SBD
2,Fabrice Pailler,1963,France,65.45,130,140,-147.5,140,100,105,-110,105,180,192.5,-207.5,192.5,437.5,66,Masters 2,M,Raw,SBD
3,Karl Christians,1963,South Africa,64.85,140,150,-155,150,85,90,-92.5,90,120,170,182.5,182.5,422.5,66,Masters 2,M,Raw,SBD
4,Yoshinori Hara,1958,Japan,64.85,110,120,130,130,80,85,87.5,87.5,190,-195,-200,190,407.5,66,Masters 2,M,Raw,SBD
5,Yoshinari Saneshima,1963,Japan,64.5,115,125,132.5,132.5,90,100,102.5,102.5,-120,120,130,130,365,66,Masters 2,M,Raw,SBD
6,William Taylor,1957,UK,64.5,110,120,-125,120,80,85,90,90,130,142.5,150,150,360,66,Masters 2,M,Raw,SBD
7,Igor Ashikhmin,1962,Russia,65.25,110,117.5,-125,117.5,75,80,82.5,82.5,137.5,147.5,-152.5,147.5,347.5,66,Masters 2,M,Raw,SBD
DQ,Bradford Olson,1962,USA,64.9,-155,,,-155,,,,,,,,,,66,Masters 2,M,Raw,SBD
1,Allen Ottolangui,1960,UK,73.8,-165,165,-172.5,165,100,105,107.5,107.5,195,202.5,205,205,477.5,74,Masters 2,M,Raw,SBD
2,Hendrik Basson,1960,Australia,72.9,-155,160,-167.5,160,95,100,-105,100,195,202.5,205,205,465,74,Masters 2,M,Raw,SBD
DQ,Gary Kaiser,1960,USA,71.95,-182.5,,,-182.5,,,,,,,,,,74,Masters 2,M,Raw,SBD
1,Richard Wenner,1963,USA,82.45,165,175,185,185,137.5,145,150,150,227.5,247.5,260,260,595,83,Masters 2,M,Raw,SBD
2,Ari Oksanen,1964,Finland,81.9,175,185,192.5,192.5,132.5,142.5,-150,142.5,205,215,225,225,560,83,Masters 2,M,Raw,SBD
3,Jorma Ollikainen,1957,Finland,80.55,170,185,-195,185,105,110,-115,110,222.5,235,-260,235,530,83,Masters 2,M,Raw,SBD
4,Masashi Goto,1962,Japan,82.55,180,-190,-190,180,125,-130,-130,125,205,225,-232.5,225,530,83,Masters 2,M,Raw,SBD
5,Erik Rasmussen,1962,Denmark,81.8,175,180,185,185,135,142.5,-150.5,142.5,175,185,-205,185,512.5,83,Masters 2,M,Raw,SBD
6,Régis Gautier,1956,France,80.95,-155,155,-160,155,115,120,-125,120,220,227.5,232.5,232.5,507.5,83,Masters 2,M,Raw,SBD
7,Patrick Foin,1960,France,80.75,130,140,150,150,100,105,-112.5,105,210,225,230,230,485,83,Masters 2,M,Raw,SBD
8,David Quatse,1962,South Africa,77.35,-155,155,-175,155,75,82.5,90,90,185,200,-215,200,445,83,Masters 2,M,Raw,SBD
1,Harri Hagfors,1961,Finland,92.25,-200,200,217.5,217.5,135,140,145,145,245,265,270,270,632.5,93,Masters 2,M,Raw,SBD
2,Eric Dumas,1964,Australia,90.05,227.5,235,240,240,140,145,-150,145,225,235,245,245,630,93,Masters 2,M,Raw,SBD
3,Gemel Bougamdouz,1963,France,89.25,190,-202.5,202.5,202.5,160,-165,-165,160,227.5,240,245,245,607.5,93,Masters 2,M,Raw,SBD
4,Chris Cooper,1962,UK,92.25,190,200,205,205,145,150,-152.5,150,220,232.5,242.5,242.5,597.5,93,Masters 2,M,Raw,SBD
5,Nail Garipov,1960,Russia,92.25,155,165,-170,165,120,127.5,132.5,132.5,175,190,200,200,497.5,93,Masters 2,M,Raw,SBD
6,Voitto Ahopelto,1956,Finland,91.55,150,170,-180,170,125,130,-140,130,180,190,-195,190,490,93,Masters 2,M,Raw,SBD
7,Ebrahim Mobara,1964,South Africa,91.7,160,170,180,180,90,95,-100,95,195,205,210,210,485,93,Masters 2,M,Raw,SBD
1,Mark Robb,1959,USA,103.35,250,265,275,275,140,147.5,152.5,152.5,275,292.5,-307.5,292.5,720,105,Masters 2,M,Raw,SBD
2,Adalgiso Sicoli,1960,France,103.9,245,255,-260,255,140,147.5,,147.5,260,-277.5,-277.5,260,662.5,105,Masters 2,M,Raw,SBD
3,Dominique Berrier,1964,France,98.9,-210,210,-225,210,125,-127.5,,125,230,240,262.5,262.5,597.5,105,Masters 2,M,Raw,SBD
4,Colin Young,1957,South Africa,102.6,165,170,175,175,140,-142.5,-142.5,140,200,210,212.5,212.5,527.5,105,Masters 2,M,Raw,SBD
5,Gary Grahn,1955,USA,94.55,135,-145,145,145,105,112.5,117.5,117.5,155,170,177.5,177.5,440,105,Masters 2,M,Raw,SBD
DQ,Tavita Lipine,1956,Samoa,102.4,-275,-275,-285,,,,,,,,,,,105,Masters 2,M,Raw,SBD
1,Marc Giles,1964,UK,108.55,180,200,210,210,155,162.5,167.5,167.5,230,250,252.5,252.5,630,120,Masters 2,M,Raw,SBD
2,Vladimir Tsukanov,1959,Russia,107.85,220,242.5,250,250,130,137.5,142.5,142.5,210,230,235,235,627.5,120,Masters 2,M,Raw,SBD
1,Sergey Nikeshin,1958,Russia,127.4,205,220,230,230,155,165,-175,165,250,260,267.5,267.5,662.5,120+,Masters 2,M,Raw,SBD
2,Robert Sadler,1962,UK,126.9,190,210,220,220,140,-150,150,150,-230,230,-270,230,600,120+,Masters 2,M,Raw,SBD
1,Taiichi Horibata,1954,Japan,58.3,105,115,-120,115,85,-90,-90,85,120,125,-130,125,325,59,Masters 3,M,Raw,SBD
2,Seppo Flink,1953,Finland,58.7,60,-65,,60,75,80,-85,80,85,95,100,100,240,59,Masters 3,M,Raw,SBD
1,Katsuji Okiura,1945,Japan,65.8,150,-170,170,170,75,80,-82.5,80,180,200,205,205,455,66,Masters 3,M,Raw,SBD
2,Markku Kemppainen,1949,Finland,65.2,90,95,105,105,95,100,105,105,130,145,-157.5,145,355,66,Masters 3,M,Raw,SBD
1,Robert Yamasaki,1952,USA,72.05,185,-200,200,200,110,117.5,122.5,122.5,215,-235,235,235,557.5,74,Masters 3,M,Raw,SBD
2,Mitsugu Hachisu,1950,Japan,68.75,175,190,197.5,197.5,125,130,-135,130,190,210,-220,210,537.5,74,Masters 3,M,Raw,SBD
3,Dan Oppenheim,1945,South Africa,72.75,105,115,125,125,85,90,95,95,150,165,175,175,395,74,Masters 3,M,Raw,SBD
1,Ron Delaney,1951,Canada,82.1,-162.5,172.5,180.5,180.5,110,-120,120,120,227.5,240,245,245,545.5,83,Masters 3,M,Raw,SBD
2,Tatsuro Tanikawa,1952,Japan,75.55,160,170,180,180,120,125,130,130,170,185,-200,185,495,83,Masters 3,M,Raw,SBD
3,Jean-François Vinot,1951,France,79.45,140,150,160,160,85,90,95,95,200,215,225,225,480,83,Masters 3,M,Raw,SBD
4,Michel Dudziak,1948,France,82.35,122.5,-125,-125,122.5,85,92.5,-97.5,92.5,190,-200,200,200,415,83,Masters 3,M,Raw,SBD
1,Christian Delpieu,1951,France,90,-190,190,205,205,100,110,-115,110,210,225,235,235,550,93,Masters 3,M,Raw,SBD
2,Kari Mattila,1945,Sweden,90.65,150,160,-165,160,100,105,107.5,107.5,200,215,-220,215,482.5,93,Masters 3,M,Raw,SBD
3,Jacques Robineau,1948,France,84.95,140,150,162.5,162.5,85,95,100,100,180,190,200,200,462.5,93,Masters 3,M,Raw,SBD
1,Jean-Paul Belmas,1949,France,98.35,180,200,-205,200,100,-110,-110,100,200,-230,,200,500,105,Masters 3,M,Raw,SBD
1,Tapani Orha,1953,Finland,112.6,-100,100,,100,90,,,90,200,220,-252.5,220,410,120,Masters 3,M,Raw,SBD
1,Akiyoshi Kawanaka,1942,Japan,58.55,75,-90,-90,75,85,90,95,95,85,95,105,105,275,59,Masters 4,M,Raw,SBD
1,Hideharu Akagi,1944,Japan,65.5,100,110,120,120,100,107.5,112.5,112.5,120,130,-137.5,130,362.5,66,Masters 4,M,Raw,SBD
2,Sergey Pustovalov,1940,Russia,64.75,100,112.5,-125,112.5,50,55,57.5,57.5,140,150,152.5,152.5,322.5,66,Masters 4,M,Raw,SBD
3,Hiroo Takagi,1938,Japan,61.8,100,110,-120,110,65,70,-75,70,130,140,-150,140,320,66,Masters 4,M,Raw,SBD
1,Reynaldo Pascal-Casas,1944,France,72.95,-115,115,120,120,100,107.5,-112.5,107.5,-150,150,-160,150,377.5,74,Masters 4,M,Raw,SBD
2,Desmond Scott,1941,UK,72.8,-95,95,105,105,70,77.5,-82.5,77.5,140,150,157.5,157.5,340,74,Masters 4,M,Raw,SBD
3,Tamio Yasui,1942,Japan,72.95,-90,90,97.5,97.5,80,82.5,85,85,110,117.5,125,125,307.5,74,Masters 4,M,Raw,SBD
4,Masato Tabata,1943,Japan,68.4,70,80,85,85,75,85,90,90,85,-95,100,100,275,74,Masters 4,M,Raw,SBD
1,Ernie Parkes,1942,UK,82,105,115,125,125,-87.5,87.5,92.5,92.5,200,210,,210,427.5,83,Masters 4,M,Raw,SBD
2,Clarry Parsons,1941,New Zealand,81.2,-150,-150,150,150,80,85,90,90,160,170,-187.5,170,410,83,Masters 4,M,Raw,SBD
1,Tito Bastianelli Sr,1934,USA,85.1,120,125,137.5,137.5,75,82.5,87.5,87.5,155,170,180,180,405,93,Masters 4,M,Raw,SBD
2,Raymond Fougnier,1943,USA,84.65,120,130,-140,130,80,-90,-90,80,160,170,185,185,395,93,Masters 4,M,Raw,SBD
3,Tapani Puhakka,1944,Finland,90,70,80,90,90,85,95,-100,95,170,185,-197.5,185,370,93,Masters 4,M,Raw,SBD
1,Valeriy Bystrov,1941,Russia,97.3,150,165,175,175,95,110,-115,110,180,195,205,205,490,105,Masters 4,M,Raw,SBD
2,Theunis Naude,1944,South Africa,97.45,100,110,,110,70,,,70,205,210,215,215,395,105,Masters 4,M,Raw,SBD
1,Truls Kristensen,1939,Norway,110.65,180,192.5,197.5,197.5,120,127.5,130,130,185,197.5,205,205,532.5,120,Masters 4,M,Raw,SBD
2,Gerald Burke,1944,USA,108.65,-150,150,162.5,162.5,137.5,-142.5,-142.5,137.5,142.5,-150,162.5,162.5,462.5,120,Masters 4,M,Raw,SBD
1,Raimo Sandelin,1940,Finland,120.55,90,100,,100,90,100,,100,130,150,167.5,167.5,367.5,120+,Masters 4,M,Raw,SBD
1,Olga Golubeva,1970,Russia,46.9,105,110,115,115,80,85,91,91,130,140,,140,346,47,Open,F,Raw,SBD
2,Rie Kani,1979,Japan,46.5,100,105,107.5,107.5,67.5,70,72.5,72.5,135,145,-150,145,325,47,Open,F,Raw,SBD
3,Steph Kean,1986,Canada,46.05,110,115,-117.5,115,52.5,-57.5,-57.5,52.5,142.5,-150,152.5,152.5,320,47,Open,F,Raw,SBD
4,Stéphanie Legard,1981,France,46.1,105,110,115,115,65,70,-72.5,70,120,127.5,135,135,320,47,Open,F,Raw,SBD
5,Yvelise Martin,1982,France,46.6,-105,105,-110,105,67.5,70,-72.5,70,115,122.5,-127.5,122.5,297.5,47,Open,F,Raw,SBD
6,Priscilla Smoot,1979,Australia,46.15,85,-90,90,90,50,55,-57.5,55,115,122.5,125,125,270,47,Open,F,Raw,SBD
7,Tessa Hart,1986,UK,46.25,-82.5,-82.5,82.5,82.5,50,52.5,-55,52.5,110,120,-127.5,120,255,47,Open,F,Raw,SBD
1,Sofia Loft,1990,Sweden,50.55,125,132.5,140,140,75,80,82.5,82.5,150,157.5,162.5,162.5,385,52,Open,F,Raw,SBD
2,Miia Grandas Liimatainen,1986,Sweden,50.65,125,132.5,140,140,70,-72.5,72.5,72.5,150,160,167.5,167.5,380,52,Open,F,Raw,SBD
3,Vilma Ochoa Vargas,1980,Ecuador,51.9,132.5,142.5,147.5,147.5,75,80,82.5,82.5,150,-160,-162.5,150,380,52,Open,F,Raw,SBD
4,Suzanne Hartwig-Gary,1968,USA,51.15,132.5,142.5,150,150,65,-70,70,70,132.5,142.5,152.5,152.5,372.5,52,Open,F,Raw,SBD
5,Marisa Inda,1976,USA,49.9,112.5,122.5,-127.5,122.5,70,75,-80,75,140,150,155,155,352.5,52,Open,F,Raw,SBD
6,Elizabeth Craven,1975,Australia,51.4,127.5,132.5,-137.5,132.5,70,-75,75,75,135,-145,-145,135,342.5,52,Open,F,Raw,SBD
7,Farana van Heerden,1988,South Africa,47.7,80,90,105,105,35,40,-42.5,40,110,120,125,125,270,52,Open,F,Raw,SBD
1,Inna Filimonova #1,1976,Russia,55.95,150,160,167.5,167.5,70,77.5,-82.5,77.5,165,177.5,185,185,430,57,Open,F,Raw,SBD
2,Rosa Castro,1979,Ecuador,56.6,-142.5,-147.5,147.5,147.5,80,85,87.5,87.5,155,165,172.5,172.5,407.5,57,Open,F,Raw,SBD
3,Viktoriya Abdulina,1967,Ukraine,56,-140,145,152.5,152.5,80,85,-87.5,85,150,160,167.5,167.5,405,57,Open,F,Raw,SBD
4,Hui-Chun Wu,1986,Taiwan,56.3,115,125,-130,125,85,92.5,97.5,97.5,155,165,175,175,397.5,57,Open,F,Raw,SBD
5,Jessica Benedetto,1981,Canada,55.35,125,135,-140,135,87.5,92.5,95,95,142.5,152.5,-162.5,152.5,382.5,57,Open,F,Raw,SBD
6,Yuliya Vavilova,1979,Russia,56.8,130,137.5,142.5,142.5,82.5,87.5,-90,87.5,145,-150,-150,145,375,57,Open,F,Raw,SBD
7,Rosimery Lima,1977,UK,55.85,120,127.5,-132.5,127.5,72.5,77.5,80,80,145,155,-165,155,362.5,57,Open,F,Raw,SBD
8,Louise Murray,1988,UK,54.85,125,-130,130,130,72.5,77.5,82.5,82.5,140,145,147.5,147.5,360,57,Open,F,Raw,SBD
9,Alix Newton,1986,Australia,55.7,120,125,-127.5,125,75,77.5,-80,77.5,-132.5,132.5,-137.5,132.5,335,57,Open,F,Raw,SBD
10,Alyssa Haveson,1988,USA,56.2,105,115,-117.5,115,60,65,70,70,137.5,150,-157.5,150,335,57,Open,F,Raw,SBD
11,Bronwyn Stevens,1970,New Zealand,56.9,130,-137.5,-137.5,130,62.5,-65,65,65,137.5,-142.5,-142.5,137.5,332.5,57,Open,F,Raw,SBD
12,Yuko Sakuyama,1987,Japan,55.95,115,-125,-125,115,85,90,-95,90,125,-135,-135,125,330,57,Open,F,Raw,SBD
13,Kseniya Prokhorova,1983,Ukraine,56.95,110,-117.5,-117.5,110,82.5,-85,-85,82.5,132.5,-140,-142.5,132.5,325,57,Open,F,Raw,SBD
14,Seritha Plaaitjies,1982,South Africa,56.15,75,85,95,95,60,65,-70,65,120,132.5,142.5,142.5,302.5,57,Open,F,Raw,SBD
15,Ilona Wilson,1977,South Africa,56.1,95,-105,105,105,35,40,42.5,42.5,125,137.5,147.5,147.5,295,57,Open,F,Raw,SBD
1,Jennifer Thompson #1,1973,USA,60.65,130,142.5,-150,142.5,125,137.5,-140.5,137.5,160,190,197.5,197.5,477.5,63,Open,F,Raw,SBD
2,Jenny Adolfsson,1982,Sweden,62.4,142.5,150,-152.5,150,105,110,112.5,112.5,162.5,172.5,177.5,177.5,440,63,Open,F,Raw,SBD
3,Cícera Tavares,1976,Brazil,61.85,-155,-155,160,160,75,80,-82.5,80,175,182.5,-192.5,182.5,422.5,63,Open,F,Raw,SBD
4,Olga Vorotnikova,1975,Russia,62.25,140,145,-150,145,95,-100,-100,95,165,172.5,180,180,420,63,Open,F,Raw,SBD
5,Maria Dubenskaya,1988,Russia,61.95,127.5,135,142.5,142.5,102.5,107.5,-110,107.5,160,167.5,-175,167.5,417.5,63,Open,F,Raw,SBD
6,Meghan Pellatt,1984,USA,61.25,120,135,137.5,137.5,72.5,77.5,-85,77.5,165,175,182.5,182.5,397.5,63,Open,F,Raw,SBD
7,Kelli Fagan,1980,Australia,62.35,-145,145,152.5,152.5,67.5,72.5,-75,72.5,150,162.5,-170,162.5,387.5,63,Open,F,Raw,SBD
8,Lisa Basson,1984,South Africa,62.75,100,110,-115,110,65,70,75,75,130,147.5,162.5,162.5,347.5,63,Open,F,Raw,SBD
8,Silvia Stütz,1978,Germany,62.75,100,105,-110,105,80,-87.5,-87.5,80,150,162.5,-170,162.5,347.5,63,Open,F,Raw,SBD
10,Abi Graham,1978,UK,60.65,100,115,122.5,122.5,65,70,72.5,72.5,140,150,-157.5,150,345,63,Open,F,Raw,SBD
DQ,Danel Van Jaarveld,1977,South Africa,61.35,-110,-110,-110,,60,62.5,-65,62.5,125,130,135,135,,63,Open,F,Raw,SBD
1,Kimberly Walford,1978,USA,65.25,160,172.5,-182.5,172.5,97.5,107.5,-110,107.5,215,230,-233,230,510,72,Open,F,Raw,SBD
2,Ana Rosa Castellain,1985,Brazil,68.15,175,185.5,-190,185.5,115,120,122.5,122.5,192.5,200,-205,200,508,72,Open,F,Raw,SBD
3,Johanna Kankus,1984,Finland,71.05,155,-165,165,165,95,102.5,-110,102.5,150,160,-175,160,427.5,72,Open,F,Raw,SBD
4,Eileen DuPlooy,1983,Canada,71.4,145,150,155,155,85,-90,-90,85,165,172.5,-175,172.5,412.5,72,Open,F,Raw,SBD
5,Tamara Thomsen,1982,Germany,67.65,145,152.5,-157.5,152.5,75,80,-82.5,80,155,160,-162.5,160,392.5,72,Open,F,Raw,SBD
6,Louise Richardson,1977,UK,68.25,-137.5,137.5,150,150,60,65,70,70,160,172.5,-177.5,172.5,392.5,72,Open,F,Raw,SBD
7,Tarryn-Leigh Merifield,1987,South Africa,68.85,110,117.5,122.5,122.5,60,65,-70,65,145,152.5,160,160,347.5,72,Open,F,Raw,SBD
8,Kyoko Suzuki,1977,Japan,66.2,112.5,120,125,125,55,60,-65,60,127.5,135,-145,135,320,72,Open,F,Raw,SBD
9,Candice Coetzer,1985,South Africa,67,100,110,-115,110,50,55,-60,55,130,145,-162.5,145,310,72,Open,F,Raw,SBD
1,Ielja Strik,1973,Netherlands,83,195,-205.5,-205.5,195,127.5,-136,-136,127.5,180,190,-197.5,190,512.5,84,Open,F,Raw,SBD
2,Valeria Timoshchuk,1988,Russia,79.85,170,180,-190,180,102.5,107.5,110,110,175,185,190,190,480,84,Open,F,Raw,SBD
3,Marzena Piter,1989,Poland,75.5,152.5,162.5,-167.5,162.5,90,97.5,100,100,187.5,195,202.5,202.5,465,84,Open,F,Raw,SBD
4,Chleo Van Wyk,1990,Australia,80.1,160,-167.5,-167.5,160,97.5,105,-107.5,105,185,192.5,-200,192.5,457.5,84,Open,F,Raw,SBD
5,Jessica Gilbert,1989,Australia,77.9,-160,170,-172.5,170,92.5,102.5,107.5,107.5,165,175,-182.5,175,452.5,84,Open,F,Raw,SBD
6,Charlie Shotton-Gale,1983,UK,84,140,150,155,155,85,-90,,85,170,-177.5,-177.5,170,410,84,Open,F,Raw,SBD
1,Bonica Brown,1988,USA,121.8,205,222.5,230,230,112.5,-132.5,-132.5,112.5,202.5,217.5,-236.5,217.5,560,84+,Open,F,Raw,SBD
2,Fang-Yun Su,1992,Taiwan,112.5,210,222.5,230.5,230.5,90,95,102.5,102.5,170,175,180,180,513,84+,Open,F,Raw,SBD
3,Sonia Manaena,1961,New Zealand,124.15,-175,175,,175,102.5,,,102.5,210,220,230,230,507.5,84+,Open,F,Raw,SBD
4,Samantha Viteri,1990,Ecuador,106.1,140,152.5,160,160,80,87.5,-92.5,87.5,172.5,182.5,185,185,432.5,84+,Open,F,Raw,SBD
5,Anna Macnab,1984,UK,108.75,160,170,-175,170,75,80,82.5,82.5,170,180,-185,180,432.5,84+,Open,F,Raw,SBD
6,Catherine Greene,1984,Australia,85,-145,145,-152.5,145,75,80,-82.5,80,165,-175,-175,165,390,84+,Open,F,Raw,SBD
1,Anna Zamorina,1999,Russia,46.55,60,67.5,-72.5,67.5,35,40,-45,40,80,90,95,95,202.5,47,Sub-Juniors,F,Raw,SBD
1,Miranda Chambers,2000,USA,51.2,-100,100,102.5,102.5,57.5,60,-62.5,60,110,122.5,132.5,132.5,295,52,Sub-Juniors,F,Raw,SBD
2,Aliaksandra Burykina,1999,Belarus,50.9,105,110,112.5,112.5,60,-67.5,-67.5,60,110,115,120,120,292.5,52,Sub-Juniors,F,Raw,SBD
3,Kerri-Anne Cauchi,1996,Australia,50.95,80,85,-87.5,85,42.5,45,-47.5,45,112.5,120,122.5,122.5,252.5,52,Sub-Juniors,F,Raw,SBD
4,Rochelle de Beer,1999,South Africa,51.15,-62.5,62.5,67.5,67.5,35,37.5,40,40,85,92.5,97.5,97.5,205,52,Sub-Juniors,F,Raw,SBD
1,Katinka van Baalen,1996,Netherlands,56.5,100,105,-107.5,105,67.5,72.5,75,75,125,132.5,137.5,137.5,317.5,57,Sub-Juniors,F,Raw,SBD
2,Oksana Ledeneva,1996,Russia,56.75,100,110,-115,110,60,65,67.5,67.5,110,122.5,137.5,137.5,315,57,Sub-Juniors,F,Raw,SBD
3,Megan Leighton,1996,South Africa,55.4,92.5,100,-105,100,52.5,57.5,-60,57.5,115,-125,-125,115,272.5,57,Sub-Juniors,F,Raw,SBD
4,Shelby Bruce,1997,South Africa,56.1,65,70,75,75,37.5,-42.5,-42.5,37.5,90,100,105,105,217.5,57,Sub-Juniors,F,Raw,SBD
1,Majken Hansen,1996,Denmark,63,100,107.5,110,110,60,-65,-65,60,140,150.5,153,153,323,63,Sub-Juniors,F,Raw,SBD
2,Tuulia Lohivuo,1997,Finland,60.65,107.5,112.5,117.5,117.5,62.5,-67.5,-67.5,62.5,135,140,142.5,142.5,322.5,63,Sub-Juniors,F,Raw,SBD
3,Aleksandra Borisova,1997,Russia,62.75,100,-107.5,-107.5,100,62.5,65,67.5,67.5,145,150,-155.5,150,317.5,63,Sub-Juniors,F,Raw,SBD
4,Anastasiya Potrashkova,1996,Russia,61,105,112.5,117.5,117.5,62.5,67.5,-70,67.5,125,130,-137.5,130,315,63,Sub-Juniors,F,Raw,SBD
1,Alina Davletshina,1996,Russia,70.15,120,130,137.5,137.5,-70,72.5,77.5,77.5,130,140,145,145,360,72,Sub-Juniors,F,Raw,SBD
2,Lydia Mele,1998,USA,71.4,112.5,120,-125,120,57.5,65,-67.5,65,122.5,130,137.5,137.5,322.5,72,Sub-Juniors,F,Raw,SBD
3,Anastasiya Derevyanko,1998,Russia,63.9,100,105,107.5,107.5,60,-65,65,65,120,125,-130,125,297.5,72,Sub-Juniors,F,Raw,SBD
DQ,Caitlyn Gant,1997,USA,70.1,107.5,112.5,-120,112.5,52.5,-57.5,-57.5,52.5,-130,-130,-130,,,72,Sub-Juniors,F,Raw,SBD
1,Aino Autio,1997,Finland,82.25,115,122.5,130,130,70,-75,-75,70,140,150,152.5,152.5,352.5,84,Sub-Juniors,F,Raw,SBD
2,Iuliia Gracheva,1996,Russia,79.25,-110,-110,110,110,50,60,62.5,62.5,120,135,150,150,322.5,84,Sub-Juniors,F,Raw,SBD
3,Ella Lowenberg,1996,USA,81.45,90,-110,-110,90,52.5,57.5,-60,57.5,115,120,122.5,122.5,270,84,Sub-Juniors,F,Raw,SBD
1,Jenessa Ward,1996,Canada,131.6,100,110,120,120,40,52.5,57.5,57.5,110,-160,160,160,337.5,84+,Sub-Juniors,F,Raw,SBD
1,Mariia Starostina,1991,Russia,42.7,82.5,-90,90,90,52.5,60,65,65,102.5,115,-122.5,115,270,43,Juniors,F,Raw,SBD
1,Aleksandra Otchenashko,1991,Belarus,45.85,110,120,-130,120,55,60,65,65,135,140,145,145,330,47,Juniors,F,Raw,SBD
2,Molly Zunker,1991,USA,45.55,95,100,102.5,102.5,55,57.5,-60,57.5,127.5,137.5,-150,137.5,297.5,47,Juniors,F,Raw,SBD
3,Alexandra Churkina,1992,Russia,46.8,90,95,-100,95,55,60,-62.5,60,105,112.5,120,120,275,47,Juniors,F,Raw,SBD
4,Ayasa Minami,1993,Japan,47,80,-85,85,85,52.5,55,57.5,57.5,90,100,-105,100,242.5,47,Juniors,F,Raw,SBD
1,Inna Filimonova #2,1994,Russia,51.4,120,127.5,130,130,85,92.5,97.5,97.5,120,-127.5,127.5,127.5,355,52,Juniors,F,Raw,SBD
2,Mareen Schmeelke,1991,Germany,51.9,115,120,122.5,122.5,65,70,-72.5,70,130,142.5,-152.5,142.5,335,52,Juniors,F,Raw,SBD
3,Breann Thiessen,1992,Canada,52,117.5,122.5,127.5,127.5,60,65,67.5,67.5,130,135,-142.5,135,330,52,Juniors,F,Raw,SBD
4,Klaudia Rusztyn,1993,Poland,51.8,90,97.5,-102.5,97.5,50,55,-57.5,55,135,142.5,150,150,302.5,52,Juniors,F,Raw,SBD
5,Sarah Simpson,1991,New Zealand,51.5,75,85,90,90,65,67.5,-70,67.5,125,130,135,135,292.5,52,Juniors,F,Raw,SBD
6,Stacey Bryant,1992,South Africa,49.55,80,-95,-95,80,50,52.5,-55,52.5,110,120,-125,120,252.5,52,Juniors,F,Raw,SBD
7,Jordan Dayes,1992,Australia,50.75,97.5,-105,-105,97.5,40,42.5,45,45,105,-115,-115,105,247.5,52,Juniors,F,Raw,SBD
8,Alushka September,1995,South Africa,50.25,60,65,70,70,45,47.5,-52.5,47.5,112.5,117.5,-122.5,117.5,235,52,Juniors,F,Raw,SBD
9,Ashlee Alteri,1993,USA,51.05,72.5,80,-92.5,80,42.5,47.5,-52.5,47.5,85,95,100,100,227.5,52,Juniors,F,Raw,SBD
1,Kenia Monserrate,1991,Ecuador,55.5,120,130,135,135,75,80,-82.5,80,130,140,152.5,152.5,367.5,57,Juniors,F,Raw,SBD
2,Laura McGuill,1991,USA,55.8,105,112.5,122.5,122.5,-52.5,52.5,60,60,130,142.5,152.5,152.5,335,57,Juniors,F,Raw,SBD
3,Samantha Solie,1994,Canada,55.45,110,120,-122.5,120,60,65,-67.5,65,110,-117.5,117.5,117.5,302.5,57,Juniors,F,Raw,SBD
4,Chihiro Teraishi,1993,Japan,56.55,85,92.5,-100,92.5,65,67.5,70,70,110,120,127.5,127.5,290,57,Juniors,F,Raw,SBD
5,Tamara Navarro,1992,Australia,56.75,110,-117.5,-117.5,110,47.5,50,-52.5,50,117.5,122.5,-132.5,122.5,282.5,57,Juniors,F,Raw,SBD
1,Johanna Aguinaga,1993,Ecuador,62.75,125,132.5,137.5,137.5,85,90,-95,90,135,142.5,150,150,377.5,63,Juniors,F,Raw,SBD
2,Maruru Terahara,1993,Japan,61.55,130,-140,140,140,60,65,-67.5,65,140,152.5,157.5,157.5,362.5,63,Juniors,F,Raw,SBD
3,Ashley Templeton,1991,New Zealand,62.5,122.5,-127.5,-127.5,122.5,77.5,82.5,85,85,147.5,-152.5,-157.5,147.5,355,63,Juniors,F,Raw,SBD
4,Ariel Symon,1992,Australia,60.95,117.5,125,-127.5,125,70,-77.5,-77.5,70,125,130,135,135,330,63,Juniors,F,Raw,SBD
5,Ewa Januszkiewicz,1991,USA,60.85,92.5,102.5,110,110,52.5,60,-65,60,140,152.5,157.5,157.5,327.5,63,Juniors,F,Raw,SBD
6,Anastasia Lysenko,1994,Russia,62.7,110,115,117.5,117.5,75,80,82.5,82.5,117.5,-122.5,122.5,122.5,322.5,63,Juniors,F,Raw,SBD
7,Natalia Malihina,1991,Russia,61.65,100,112.5,-117.5,112.5,65,70,75,75,130,-140,-145,130,317.5,63,Juniors,F,Raw,SBD
8,Elín Melgar Aðalheiðardóttir,1992,Iceland,59.35,110,-117.5,-117.5,110,67.5,72.5,-75,72.5,115,125,-132.5,125,307.5,63,Juniors,F,Raw,SBD
9,Melisa Heinonen,1995,Finland,60.25,-100,-100,100,100,57.5,60,-62.5,60,120,132.5,-140,132.5,292.5,63,Juniors,F,Raw,SBD
10,Heli Jokela,1994,Finland,61.7,100,105,-107.5,105,67.5,-70,-70,67.5,120,-125,-125,120,292.5,63,Juniors,F,Raw,SBD
1,Mikelina Belaineh,1991,USA,70.1,132.5,142.5,147.5,147.5,82.5,85,-87.5,85,167.5,177.5,-195,177.5,410,72,Juniors,F,Raw,SBD
2,Alesya Lishinskaya,1995,Uzbekistan,66.45,150,-160,-160,150,70,-80,-80,70,120,130,137.5,137.5,357.5,72,Juniors,F,Raw,SBD
3,Rachel Ellering,1992,USA,69.7,130,137.5,140,140,65,-70,-70,65,120,132.5,140,140,345,72,Juniors,F,Raw,SBD
4,Samantha Taylor #4,1991,Canada,71.05,110,117.5,120,120,55,57.5,-62.5,57.5,140,147.5,155,155,332.5,72,Juniors,F,Raw,SBD
5,Kristin Elliott,1991,Canada,70.05,-102.5,102.5,-110,102.5,52.5,57.5,60,60,125,135,142.5,142.5,305,72,Juniors,F,Raw,SBD
6,Tammy Goosen,1993,South Africa,69.35,90,-105,-105,90,47.5,50,-52.5,50,115,125,-135,125,265,72,Juniors,F,Raw,SBD
1,Ekaterina Bratus,1991,Russia,82.95,150,160,165,165,90,97.5,102.5,102.5,145,157.5,167.5,167.5,435,84,Juniors,F,Raw,SBD
2,Kseniia Subbota,1994,Russia,82.4,125,135,145,145,70,75,80,80,135,150,165,165,390,84,Juniors,F,Raw,SBD
3,Kamila Kasperska,1992,Poland,75.5,130,140,145,145,60,65,67.5,67.5,147.5,162.5,-177.5,162.5,375,84,Juniors,F,Raw,SBD
4,Karolina Ruta,1992,Poland,82,125,132.5,135,135,65,70,-72.5,70,145,155,167.5,167.5,372.5,84,Juniors,F,Raw,SBD
5,Stephanie Mahan,1992,USA,82,130,137.5,142.5,142.5,65,70,72.5,72.5,137.5,147.5,155,155,370,84,Juniors,F,Raw,SBD
6,Jenny Nocas,1993,USA,78.65,115,122.5,130,130,72.5,77.5,80,80,135,142.5,147.5,147.5,357.5,84,Juniors,F,Raw,SBD
1,Matile Sitagata,1992,Samoa,115.7,185,195,-200,195,80,82.5,-85,82.5,190,210,-220.5,210,487.5,84+,Juniors,F,Raw,SBD
2,Maria Koteles,1992,Hungary,138.9,155,165,172.5,172.5,120,-130,-130,120,165,-177.5,180,180,472.5,84+,Juniors,F,Raw,SBD
3,Juanita Visser,1991,South Africa,112.35,130,-145,150,150,80,-87.5,-87.5,80,170,190,-220.5,190,420,84+,Juniors,F,Raw,SBD
4,Samantha Pretty,1994,Canada,104.5,132.5,140,147.5,147.5,80,-85,-87.5,80,147.5,155,165,165,392.5,84+,Juniors,F,Raw,SBD
5,Tiarne Augustine,1994,Australia,115.65,132.5,142.5,150,150,85,-90,-90,85,120,125,130,130,365,84+,Juniors,F,Raw,SBD
6,Eveliina Hytönen,1992,Finland,87.9,132.5,137.5,-145,137.5,65,70,-72.5,70,140,147.5,-157.5,147.5,355,84+,Juniors,F,Raw,SBD
1,Nathalie Feraud,1967,France,46.9,85,90,95,95,65,70,-72.5,70,120,125,-130,125,290,47,Masters 1,F,Raw,SBD
2,Kelli Lowenberg,1973,USA,42.85,65,72.5,-75,72.5,37.5,40,-42.5,40,100,105,-110,105,217.5,47,Masters 1,F,Raw,SBD
1,Elisabeth Barry,1973,South Africa,49.95,80,85,90,90,40,-42.5,-42.5,40,120,127.5,130,130,260,52,Masters 1,F,Raw,SBD
2,Véronique Gaillard,1966,France,51.2,92.5,97.5,102.5,102.5,50,52.5,-55,52.5,95,-102.5,102.5,102.5,257.5,52,Masters 1,F,Raw,SBD
3,Isabelle Collignon,1971,France,51.35,-77.5,82.5,-85,82.5,-42.5,42.5,-45,42.5,122.5,125,-130,125,250,52,Masters 1,F,Raw,SBD
4,Anita Kidgell,1968,UK,51.5,65,70,-75,70,50,52.5,-55,52.5,107.5,112.5,-117.5,112.5,235,52,Masters 1,F,Raw,SBD
5,Yayoi Saga,1965,Japan,50.85,70,-80,80,80,40,45,-47.5,45,90,100,107.5,107.5,232.5,52,Masters 1,F,Raw,SBD
1,Antoinette Kriel,1971,South Africa,55.55,110,117.5,122.5,122.5,75,-80,80,80,132.5,145,-147.5,145,347.5,57,Masters 1,F,Raw,SBD
2,Catherine Sorrenson,1972,Australia,56.35,-115,122.5,-127.5,122.5,75,80,85,85,127.5,-140,-142.5,127.5,335,57,Masters 1,F,Raw,SBD
3,Cathleen Mele,1966,USA,56.65,77.5,82.5,-87.5,82.5,52.5,-55,-55,52.5,117.5,125,132.5,132.5,267.5,57,Masters 1,F,Raw,SBD
4,Iwona Mazur-Zmuda,1973,Poland,56.25,80,85,-90,85,35,40,-42.5,40,110,120,-142.5,120,245,57,Masters 1,F,Raw,SBD
1,Isabelle Iliev,1967,France,61.55,115,122.5,-127.5,122.5,80,85,-87.5,85,135,140,145,145,352.5,63,Masters 1,F,Raw,SBD
2,Satu Luoto,1969,Finland,61.6,117.5,125,130,130,85,87.5,-90,87.5,125,130,132.5,132.5,350,63,Masters 1,F,Raw,SBD
3,Vicki Botha,1973,South Africa,57.7,100,110,115,115,70,-75,-75,70,145,152.5,-167.5,152.5,337.5,63,Masters 1,F,Raw,SBD
4,Beverley Rodgers,1972,UK,62,90,97.5,102.5,102.5,67.5,70,72.5,72.5,120,127.5,132.5,132.5,307.5,63,Masters 1,F,Raw,SBD
5,Lin Donevska,1970,Australia,62.45,-92.5,92.5,100,100,60,65,-67.5,65,110,-117.5,117.5,117.5,282.5,63,Masters 1,F,Raw,SBD
1,Sheryl Condon,1972,USA,71.15,120,127.5,135,135,70,75,77.5,77.5,155,165,172.5,172.5,385,72,Masters 1,F,Raw,SBD
2,Jennifer Kroken,1974,USA,71.3,122.5,130,137.5,137.5,67.5,72.5,75,75,132.5,142.5,150,150,362.5,72,Masters 1,F,Raw,SBD
3,Laura de Wet,1974,South Africa,67.7,120,130,-140,130,60,65,-67.5,65,135,150,-160,150,345,72,Masters 1,F,Raw,SBD
4,Farhana Booley,1973,South Africa,68.15,95,105,112.5,112.5,52.5,-57.5,57.5,57.5,120,-125,-125,120,290,72,Masters 1,F,Raw,SBD
1,Alicia Webb,1971,USA,82.55,157.5,177.5,182.5,182.5,90,95,100,100,157.5,177.5,187.5,187.5,470,84,Masters 1,F,Raw,SBD
2,Tina Robinson,1967,USA,80.3,142.5,150,152.5,152.5,102.5,107.5,110,110,157.5,170,175,175,437.5,84,Masters 1,F,Raw,SBD
3,Karita Kraufvelin,1973,Finland,79.15,115,120,125,125,50,-55,-55,50,150,165,175,175,350,84,Masters 1,F,Raw,SBD
4,Janita Kruger,1967,South Africa,83.8,112.5,122.5,132.5,132.5,60,65,-67.5,65,135,-150,-150,135,332.5,84,Masters 1,F,Raw,SBD
5,Linda Vixner,1972,Sweden,75.75,120,-127.5,127.5,127.5,60,65,-67.5,65,120,130,137.5,137.5,330,84,Masters 1,F,Raw,SBD
6,Bonita Hein,1970,South Africa,74.95,90,105,110,110,55,62.5,-70,62.5,140,150,155,155,327.5,84,Masters 1,F,Raw,SBD
7,Jo Whiteley,1970,UK,83.25,95,-105,-105,95,-62.5,62.5,-67.5,62.5,132.5,142.5,147.5,147.5,305,84,Masters 1,F,Raw,SBD
1,Katariina Nokua,1973,Finland,107.25,160,170,177.5,177.5,102.5,-107.5,-107.5,102.5,175,-180,180,180,460,84+,Masters 1,F,Raw,SBD
2,Tracy Ludwig,1973,South Africa,117.1,160,170,175,175,77.5,82.5,-87.5,82.5,182.5,200,-205,200,457.5,84+,Masters 1,F,Raw,SBD
3,Jerriann Doll,1968,USA,96.45,100,105,110,110,80,-92.5,92.5,92.5,150,167.5,-175,167.5,370,84+,Masters 1,F,Raw,SBD
4,Karen Towersey,1966,UK,86,92.5,100,-105,100,55,60,65,65,120,130,135,135,300,84+,Masters 1,F,Raw,SBD
1,Noriko Tsuji,1964,Japan,45.95,80,90,-95,90,57.5,60,62.5,62.5,110,115,-120,115,267.5,47,Masters 2,F,Raw,SBD
2,Sylviane Bechar,1959,France,42.95,75,85,-90,85,55,60,62.5,62.5,100,110,-120,110,257.5,47,Masters 2,F,Raw,SBD
1,Jenny Hunter,1958,UK,51.75,-70,70,75,75,62.5,67.5,70,70,120,130,138,138,283,52,Masters 2,F,Raw,SBD
2,Lucienne Bonnet Arnal,1957,France,51.95,80,-85,85,85,55,60,-62.5,60,110,-115,-115,110,255,52,Masters 2,F,Raw,SBD
1,Lynne Homan,1962,USA,56.45,90,97.5,100,100,70,-78,-78,70,130,135,140,140,310,57,Masters 2,F,Raw,SBD
2,Edith Guennec,1956,France,54.2,-92.5,-92.5,92.5,92.5,47.5,50,-52.5,50,135,143,145,145,287.5,57,Masters 2,F,Raw,SBD
3,Miriam Sinclair,1958,South Africa,54.9,70,80,90,90,47.5,52.5,-55,52.5,115,125,-130,125,267.5,57,Masters 2,F,Raw,SBD
1,Riitta Sundvall Liimatainen,1963,Sweden,60.75,130,140,-150,140,77.5,82.5,85,85,132.5,142.5,-151,142.5,367.5,63,Masters 2,F,Raw,SBD
2,Judith Drenth,1958,USA,61.4,85,-92.5,-92.5,85,57.5,-62.5,62.5,62.5,105,117.5,130,130,277.5,63,Masters 2,F,Raw,SBD
1,Cathleen Marksteiner,1958,USA,64.05,100,107.5,112.5,112.5,65,70,-75,70,110,120,127.5,127.5,310,72,Masters 2,F,Raw,SBD
2,Sue Giles,1960,UK,70.9,70,80,85,85,52.5,57.5,60,60,105,115,122.5,122.5,267.5,72,Masters 2,F,Raw,SBD
1,Jackie Blasbery,1963,UK,83.5,120,130,135,135,75,82.5,90,90,150,160,170,170,395,84,Masters 2,F,Raw,SBD
1,Karen Richardson,1964,UK,102.8,130,140,147.5,147.5,60,65,70,70,150,165,180,180,397.5,84+,Masters 2,F,Raw,SBD
DQ,Sue Hallen,1957,USA,104.7,-130,-135,-135,,80,90,-100,90,137.5,147.5,-155,147.5,,84+,Masters 2,F,Raw,SBD
1,Marina Cornwall,1954,UK,44.45,70,75,77.5,77.5,45,47.5,-50,47.5,110,115,120,120,245,47,Masters 3,F,Raw,SBD
2,Susan Elwyn,1947,USA,45.25,72.5,80,-85,80,42.5,45,-47.5,45,110,115,-120,115,240,47,Masters 3,F,Raw,SBD
1,Vuokko Viitasaari,1954,Finland,50.65,85,95,105,105,50,-55,-55,50,110,125,137.5,137.5,292.5,52,Masters 3,F,Raw,SBD
1,Annemarie Kemmerer,1953,USA,62.1,75,80,85,85,55,60,-62.5,60,115,125,132.5,132.5,277.5,63,Masters 3,F,Raw,SBD
1,Patricia Kroken,1947,USA,84.7,67.5,75,-82.5,75,25,,,25,92.5,97.5,102.5,102.5,202.5,84+,Masters 3,F,Raw,SBD
