Division,WeightClassKg,Place,Name,Team,BodyweightKg,Best3SquatKg,Best3BenchKg,Best3DeadliftKg,TotalKg,Equipment,Event,Sex,BirthDate
Girls,44.23,DQ,Kori Childs,Water Valley,38.56,70.31,,,,Single-ply,SBD,F,
Girls,47.85,1,Alice Cogburn,Slaton,46.81,97.52,52.16,106.59,256.28,Single-ply,SBD,F,
Girls,47.85,2,Macee Rathbun,Post,46.99,81.65,24.95,95.25,201.85,Single-ply,SBD,F,
Girls,51.94,1,Alyssa Aguero,Ballinger,51.44,120.2,52.16,115.67,288.03,Single-ply,SBD,F,
Girls,51.94,2,Paige Rodriquez,Slaton,50.17,95.25,43.09,104.33,242.67,Single-ply,SBD,F,
Girls,51.94,3,Savanna Rubio,Slaton,51.26,102.06,43.09,97.52,242.67,Single-ply,SBD,F,
Girls,51.94,4,Kristin Chavarin,Slaton,51.71,77.11,34.02,102.06,213.19,Single-ply,SBD,F,
Girls,51.94,5,Octavia Silva,Post,51.35,88.45,34.02,86.18,208.65,Single-ply,SBD,F,
Girls,51.94,6,Malena Morales,Lamesa,50.98,74.84,31.75,79.38,185.97,Single-ply,SBD,F,
Girls,51.94,7,Ashley Macias,Dimmitt,50.44,61.23,31.75,83.91,176.9,Single-ply,SBD,F,
Girls,51.94,DQ,Jocelyn Marroquin,Lamesa,49.08,97.52,,,,Single-ply,SBD,F,
Girls,56.02,1,Micaela Hernandez,Sundown,55.34,129.27,61.23,140.61,331.12,Single-ply,SBD,F,
Girls,56.02,2,Mariah Loera,Lamesa,54.61,90.72,38.56,99.79,229.06,Single-ply,SBD,F,
Girls,56.02,3,Amy Tew,Tahoka,55.88,88.45,38.56,99.79,226.8,Single-ply,SBD,F,
Girls,56.02,4,Abygail Perez,Dimmitt,53.71,90.72,38.56,90.72,219.99,Single-ply,SBD,F,
Girls,56.02,5,Eileen Martinez,Lamesa,55.88,83.91,36.29,95.25,215.46,Single-ply,SBD,F,
Girls,56.02,6,Zenaida Villalba,Dimmitt,52.07,74.84,40.82,83.91,199.58,Single-ply,SBD,F,
Girls,56.02,7,Ryann Quintanilla,Sundown,55.61,68.04,34.02,72.57,174.63,Single-ply,SBD,F,
Girls,56.02,DQ,Idaly Maldonado,Sundown,53.61,72.57,49.9,,,Single-ply,SBD,F,
Girls,56.02,DQ,Liezza Betancourt,Slaton,54.43,,,,,Single-ply,SBD,F,
Girls,60.1,1,Minnel Leal,Dimmitt,59.51,113.4,65.77,138.35,317.51,Single-ply,SBD,F,
Girls,60.1,2,Soli Cisneros,Slaton,59.69,113.4,65.77,127.01,306.17,Single-ply,SBD,F,
Girls,60.1,3,Destynee Rodriquez,Slaton,58.33,108.86,65.77,104.33,278.96,Single-ply,SBD,F,
Girls,60.1,4,Kristin Tidwell,Post,56.88,113.4,52.16,106.59,272.16,Single-ply,SBD,F,
Girls,60.1,5,Kyrstyn Rexrode,Abernathy,59.06,90.72,45.36,115.67,251.74,Single-ply,SBD,F,
Girls,60.1,6,Natalie Leoano,Slaton,59.51,104.33,40.82,102.06,247.21,Single-ply,SBD,F,
Girls,60.1,7,Brinlie Webb,Sundown,57.33,90.72,47.63,97.52,235.87,Single-ply,SBD,F,
Girls,60.1,8,Jimena Fuentes,Dimmitt,59.6,81.65,36.29,95.25,213.19,Single-ply,SBD,F,
Girls,60.1,9,Catherine Whiteley,Roby,58.88,74.84,34.02,77.11,185.97,Single-ply,SBD,F,
Girls,67.36,1,Maci Harmon,Tahoka,67.31,131.54,70.31,140.61,342.46,Single-ply,SBD,F,
Girls,67.36,2,Leah Trotty,Slaton,65.32,104.33,54.43,108.86,267.62,Single-ply,SBD,F,
Girls,67.36,3,Vanessa Miller,Abernathy,66.22,97.52,47.63,122.47,267.62,Single-ply,SBD,F,
Girls,67.36,4,Kaitlyn Aguero,Dimmitt,65.05,104.33,52.16,104.33,260.82,Single-ply,SBD,F,
Girls,67.36,5,Sierra Rodriquez,Slaton,65.32,117.93,43.09,99.79,260.82,Single-ply,SBD,F,
Girls,67.36,6,Jolie Bell,Dimmitt,65.32,99.79,49.9,95.25,244.94,Single-ply,SBD,F,
Girls,67.36,7,Kayleigh Castillo,Lamesa,65.95,102.06,38.56,104.33,244.94,Single-ply,SBD,F,
Girls,67.36,8,Patricia Camargo,Tahoka,63.05,90.72,36.29,95.25,222.26,Single-ply,SBD,F,
Girls,67.36,9,Cameron Moore,Water Valley,64.05,81.65,40.82,86.18,208.65,Single-ply,SBD,F,
Girls,67.36,10,Elyanna Medellin,Floydada,64.41,79.38,38.56,90.72,208.65,Single-ply,SBD,F,
Girls,67.36,DQ,Sydney Harvey,Tahoka,62.78,104.33,38.56,,,Single-ply,SBD,F,
Girls,67.36,DQ,Adrianna Nunez,Abernathy,64.95,86.18,,,,Single-ply,SBD,F,
Girls,75.07,1,Cj Lopez,Sundown,68.22,136.08,65.77,147.42,349.27,Single-ply,SBD,F,
Girls,75.07,2,Amaya Ramos,Slaton,72.94,140.61,77.11,127.01,344.73,Single-ply,SBD,F,
Girls,75.07,3,Ariana Perez,Dimmitt,70.67,147.42,49.9,142.88,340.19,Single-ply,SBD,F,
Girls,75.07,4,Jaclyn Loera,Slaton,73.84,131.54,47.63,122.47,301.64,Single-ply,SBD,F,
Girls,75.07,5,Bergundi Hoover,Sundown,74.3,111.13,74.84,115.67,301.64,Single-ply,SBD,F,
Girls,75.07,6,Jo Vasquez,Dimmitt,69.22,117.93,63.5,117.93,299.37,Single-ply,SBD,F,
Girls,75.07,7,Karyme Rodriguez,Lubbock Roosevelt,73.75,106.59,49.9,127.01,283.5,Single-ply,SBD,F,
Girls,75.07,8,Molly Broun,Tahoka,74.66,99.79,45.36,120.2,265.35,Single-ply,SBD,F,
Girls,75.07,9,Sahaira Reyes,Sundown,70.49,97.52,52.16,104.33,254.01,Single-ply,SBD,F,
Girls,75.07,10,Noemy Olmos,Dimmitt,72.67,95.25,38.56,90.72,224.53,Single-ply,SBD,F,
Girls,75.07,11,Ava Ybarra,Lamesa,72.76,92.99,36.29,95.25,224.53,Single-ply,SBD,F,
Girls,75.07,DQ,Morgan Torrez,Abernathy,73.57,79.38,,,,Single-ply,SBD,F,
Girls,82.33,1,Revee Carranza,Sundown,81.92,147.42,65.77,149.69,362.87,Single-ply,SBD,F,
Girls,82.33,2,Mackinzie Boreing,Slaton,81.37,124.74,81.65,145.15,351.53,Single-ply,SBD,F,
Girls,82.33,3,Marium Monreal,Dimmitt,82.19,158.76,65.77,113.4,337.93,Single-ply,SBD,F,
Girls,82.33,4,Selah Padilla,Water Valley,77.02,127.01,49.9,149.69,326.59,Single-ply,SBD,F,
Girls,82.33,5,Anslee Few,Roby,81.28,133.81,47.63,117.93,299.37,Single-ply,SBD,F,
Girls,82.33,6,Autum Olivas,Sundown,76.38,102.06,54.43,108.86,265.35,Single-ply,SBD,F,
Girls,82.33,7,Alyse Galindo,Lamesa,81.37,111.13,36.29,104.33,251.74,Single-ply,SBD,F,
Girls,82.33,DQ,Victorya Baldwin,Sundown,80.92,83.91,,,,Single-ply,SBD,F,
Girls,90.04,1,Makayla Gonzales,Lamesa,86.27,120.2,70.31,122.47,312.98,Single-ply,SBD,F,
Girls,90.04,2,Araceli Valdez,Slaton,85.46,124.74,63.5,122.47,310.71,Single-ply,SBD,F,
Girls,90.04,3,Kaylea Britt,Floydada,89.09,111.13,56.7,111.13,278.96,Single-ply,SBD,F,
Girls,90.04,4,Cathryn Duniven,Roby,82.46,102.06,47.63,83.91,233.6,Single-ply,SBD,F,
Girls,100.02,1,Marilyn Martinez,Dimmitt,96.89,147.42,68.04,133.81,349.27,Single-ply,SBD,F,
Girls,100.02,2,Maribel Garcia,Tahoka,94.98,142.88,58.97,127.01,328.85,Single-ply,SBD,F,
Girls,117.71,1,Maraya Corrales,Dimmitt,104.33,149.69,77.11,138.35,365.14,Single-ply,SBD,F,
Girls,117.71,2,Katie Sehon,Sundown,110.77,142.88,47.63,154.22,344.73,Single-ply,SBD,F,
