Name,Sex,WeightClassKg,BodyweightKg,BirthDate,Team,Squat1Kg,Squat2Kg,Squat3Kg,Best3SquatKg,Bench1Kg,Bench2Kg,Bench3Kg,Best3BenchKg,Deadlift1Kg,Deadlift2Kg,Deadlift3Kg,Best3DeadliftKg,TotalKg,Event,Equipment,Division,Place
Tobias Zinserling,M,120+,147.9,1978-02-08,Gothaer BFHV e. V.,370,385,,385,,240,,240,360,,,360,985,SBD,Single-ply,Open,1
Michael Hildebrandt,M,93,93,1984-08-26,Gothaer BFHV e. V.,,,,,265,282.5,,282.5,,,,,282.5,B,Single-ply,Open,1
Steffen Heinze,M,83,82.9,1988-06-13,Gothaer BFHV e. V.,,,,,,,,,215,235,252.5,252.5,252.5,D,Single-ply,Open,1
Tobias Zinserling,M,120+,147.9,1978-02-08,Gothaer BFHV e. V.,370,385,,385,,,,,,,,,385,S,Single-ply,Open,1
Jimmy Müller,M,66,60.6,1989-01-13,Gothaer BFHV e. V.,,,,,90,,,90,,,,,90,B,Single-ply,Open,1
Tom Förster,M,105,102.9,1994-11-08,Gothaer BFHV e. V.,,,,,,,,,210,220,232.5,232.5,232.5,D,Single-ply,Open,4
Lucas Baumbach,M,83,78.6,1999-09-25,Gothaer BFHV e. V.,140,155,165,165,,,,,,,,,165,S,Single-ply,Open,3
Andreas Trodler,M,93,83.8,1971-12-08,HSV Weimar,,,,,125,140,145,145,,,,,145,B,Single-ply,Open,5
Paul Linstedt,M,93,89.9,1986-07-08,HSV Weimar,,,,,,,,,180,190,,190,190,D,Single-ply,Open,2
Gustav Waidmann,M,93,91.8,1953-03-08,HSV Weimar,,210,230,230,,,,,,,,,230,S,Single-ply,Open,1
Sepp Wensky,M,93,84.5,1989-05-26,KST Weimar,,,,,110,117.5,122.5,122.5,,,,,122.5,B,Single-ply,Open,6
Dominik Tielsch,M,93,90,1990-10-10,KST Weimar,,,,,,,,,165,175,185,185,185,D,Single-ply,Open,3
Martin Hollitzer,M,93,88.5,1989-06-16,KST Weimar,130,135,,135,,,,,,,,,135,S,Single-ply,Open,2
Carsten Hauschild,M,105,94.9,1960-04-24,KSV Weißensee,,,,,90,100,,100,,,,,100,B,Single-ply,Open,3
Marco Hirt,M,105,99.4,1980-07-30,KSV Weißensee,,,,,,,,,215,230,250,250,250,D,Single-ply,Open,3
Marie Hauschild,F,72,64.5,1995-06-13,KSV Weißensee,125,135,145,145,,,,,,,,,145,S,Single-ply,Open,1
Krystian Schmidt,M,105,94.1,1984-02-13,Lobensteiner AV,,,,,170,,,170,,,,,170,B,Single-ply,Open,1
Mathias Werner,M,105,104.4,1984-05-11,Lobensteiner AV,,,,,,,,,265,282.5,295,295,295,D,Single-ply,Open,1
Lutz Conrad,M,83,80.5,1984-01-15,Lobensteiner AV,190,210,225,225,,,,,,,,,225,S,Single-ply,Open,1
Manuel Gruner,M,120,112.4,1995-03-13,Lobensteiner AV,,,,,152.5,160,,160,,,,,160,B,Single-ply,Open,1
Manuel Gruner,M,120,112.4,2000-09-20,Lobensteiner AV,,,,,,,,,180,195,200,200,200,D,Single-ply,Open,1
Andreas Slawik,M,105,101,1986-10-20,Lobensteiner AV,180,195,200,200,,,,,,,,,200,S,Single-ply,Open,1
Sascha Stern,M,93,84.3,1979-04-04,SAV Erfrt,,,,,190,202.5,207.5,207.5,,,,,207.5,B,Single-ply,Open,2
Aaron Weiß,M,93,92.6,1991-11-05,SAV Erfrt,,,,,,,,,,260,275,275,275,D,Single-ply,Open,1
Oleg Grerats,M,120+,162.1,1991-09-04,SAV Erfrt,,,325,325,,,,,,,,,325,S,Single-ply,Open,2
Mathias Kneißl,M,105,98.7,1980-12-02,SV Jena,,,,,140,145,150,150,,,,,150,B,Single-ply,Open,2
Mathias Kneißl,M,105,98.7,1980-12-02,SV Jena,,,,,,,,,180,190,200,200,200,D,Single-ply,Open,5
Mathias Kneißl,M,105,98.7,1980-02-12,SV Jena,170,175,180,180,,,,,,,,,180,S,Single-ply,Open,2
Julian Schick,M,83,82.2,1988-01-21,SV Jena,,,,,107.5,115,120,120,,,,,120,B,Single-ply,Open,1
Markus Gnauck,M,105,95,1980-12-02,SV Jena,,,,,,,,,220,240,250,250,250,D,Single-ply,Open,2
Eadbhard Pernot,M,83,79.7,1995-07-17,SV Jena,160,165,,165,,,,,,,,,165,S,Single-ply,Open,4
Dirk Wetzel,M,93,85,1980-10-12,SV Motor Arnstadt,,,,,182.5,187.5,192.5,192.5,,,,,192.5,B,Single-ply,Open,3
Toni Petzold,M,74,70.4,1988-09-19,SV Motor Arnstadt,,,,,,,,,215,225,,225,225,D,Single-ply,Open,1
Alexander Jung,M,120,108.1,1981-02-13,SV Motor Arnstadt,210,225,,225,,,,,,,,,225,S,Single-ply,Open,1
Christoph Koch,M,93,89.9,1995-07-12,SV Motor Arnstadt,,,,,160,170,,170,,,,,170,B,Single-ply,Open,4
Astrid Benitsch,F,63,62.1,1982-12-27,SV Motor Arnstadt,,,,,,,,,132.5,142.5,147.5,147.5,147.5,D,Single-ply,Open,1
Hofmann Timo,M,83,75.8,1996-03-06,SV Motor Arnstadt,170,185,195,195,,,,,,,,,195,S,Single-ply,Open,2
