Name,Sex,CyrillicName,Division,BirthDate,Age,Event,Equipment,Tested,WeightClassKg,BodyweightKg,Squat1Kg,Squat2Kg,Squat3Kg,Squat4Kg,Best3SquatKg,Bench1Kg,Bench2Kg,Bench3Kg,Bench4Kg,Best3BenchKg,Deadlift1Kg,Deadlift2Kg,Deadlift3Kg,Deadlift4Kg,Best3DeadliftKg,TotalKg,Place
Roman Yurasov,M,Роман Юрасов,Amateur Open,1976-03-16,39,D,Multi-ply,Yes,125,115.7,,,,,,,,,,,200,240,260,,260,260,1
Marina Kamyshnikova,F,Марина Камышникова,Amateur Open,1979-02-16,37,D,Single-ply,Yes,52,51.9,,,,,,,,,,,125,-132.5,132.5,,132.5,132.5,1
Oksana Snetkova,F,Оксана Снеткова,Amateur Open,1979-05-28,36,D,Single-ply,Yes,67.5,67,,,,,,,,,,,117.5,120,-130,,120,120,1
Vladimir Dorodnykh,M,Владимир Дородных,Amateur Masters 60-64,1954-03-28,61,D,Single-ply,Yes,82.5,82.2,,,,,,,,,,,160,-180,205,,205,205,1
Anton Sosunov,M,Антон Сосунов,Amateur Open,1980-12-14,35,D,Single-ply,Yes,90,82.7,,,,,,,,,,,185,-195,200,,200,200,1
Igor Umerenkov,M,Игорь Умеренков,Amateur Open,1980-09-13,35,D,Single-ply,Yes,100,97,,,,,,,,,,,290,302.5,,,302.5,302.5,1
Alla Mitrakhovich,F,Алла Митрахович,Amateur Open,1989-04-30,26,D,Raw,Yes,44,44,,,,,,,,,,,80,85,90,,90,90,1
Yuliya Skvortsova,F,Юлия Скворцова,Amateur Open,1990-02-21,26,D,Raw,Yes,44,43.2,,,,,,,,,,,85,-90,,,85,85,2
Anastasiya Vedeneeva,F,Анастасия Веденеева,Amateur Open,1981-11-21,34,D,Raw,Yes,48,46.7,,,,,,,,,,,115,-120,-120,,115,115,1
Kseniya Snezhko,F,Ксения Снежко,Amateur Open,1990-07-13,25,D,Raw,Yes,48,47,,,,,,,,,,,92.5,100,107.5,,107.5,107.5,2
Darya Timkina,F,Дарья Тимкина,Amateur Open,1989-05-03,26,D,Raw,Yes,48,46.8,,,,,,,,,,,85,92.5,-97.5,,92.5,92.5,3
Valeriya Radchenko,F,Валерия Радченко,Amateur Teen 18-19,1998-02-22,18,D,Raw,Yes,52,51.7,,,,,,,,,,,-80,87.5,92.5,,92.5,92.5,1
Irina Golovunina,F,Ирина Головунина,Amateur Open,1981-09-01,34,D,Raw,Yes,52,51.2,,,,,,,,,,,115,120,122.5,,122.5,122.5,1
Svetlana Rodina,F,Светлана Родина,Amateur Open,1977-09-16,38,D,Raw,Yes,56,53.4,,,,,,,,,,,70,92.5,95,,95,95,1
Alena Cheglikova,F,Алена Чегликова,Amateur Teen 16-17,1999-04-12,16,D,Raw,Yes,60,59.1,,,,,,,,,,,100,-110,110,,110,110,1
Ekaterina Podkhomutnikova,F,Екатерина Подхомутникова,Amateur Open,1982-02-03,34,D,Raw,Yes,60,57.8,,,,,,,,,,,-127.5,-127.5,127.5,,127.5,127.5,1
Tatyana Lazukova,F,Татьяна Лазукова,Amateur Masters 50-54,1963-08-13,52,D,Raw,Yes,60,58.4,,,,,,,,,,,100,-110,-110,,100,100,1
Elizaveta Selyukova,F,Елизавета Селюкова,Amateur Juniors 20-23,1994-09-16,21,D,Raw,Yes,67.5,66.2,,,,,,,,,,,102.5,107.5,112.5,,112.5,112.5,1
Viktoriya Balashova,F,Виктория Балашова,Amateur Juniors 20-23,1992-12-01,23,D,Raw,Yes,67.5,66.3,,,,,,,,,,,95,105,110,,110,110,2
Ekaterina Kostina,F,Екатерина Костина,Amateur Open,1989-04-30,26,D,Raw,Yes,67.5,64.5,,,,,,,,,,,135,142.5,150,,150,150,1
Vera Tumanova,F,Вера Туманова,Amateur Open,1981-08-15,34,D,Raw,Yes,67.5,60.8,,,,,,,,,,,140,145,-150,,145,145,2
Tatyana Smolyaninova,F,Татьяна Смольянинова,Amateur Open,1991-04-08,24,D,Raw,Yes,67.5,66.7,,,,,,,,,,,120,135,-140,,135,135,3
Ekaterina Nadtochenko,F,Екатерина Надточенко,Amateur Open,1982-07-30,33,D,Raw,Yes,67.5,67,,,,,,,,,,,110,-117.5,117.5,,117.5,117.5,4
Olesya Platova,F,Олеся Платова,Amateur Open,1992-01-05,24,D,Raw,Yes,67.5,66.5,,,,,,,,,,,-100,-100,100,,100,100,5
Oksana Snetkova,F,Оксана Снеткова,Amateur Open,1979-05-28,36,D,Raw,Yes,67.5,67,,,,,,,,,,,-120,-120,-120,,,,DQ
Mariya Shilina,F,Мария Шилина,Amateur Open,1985-05-10,30,D,Raw,Yes,75,73.7,,,,,,,,,,,-110,120,-142.5,,120,120,1
Yuliya Panteleeva,F,Юлия Пантелеева,Amateur Open,1981-11-29,34,D,Raw,Yes,82.5,76.2,,,,,,,,,,,120,127.5,-132.5,,127.5,127.5,1
Denis Akinin,M,Денис Акинин,Amateur Teen 13-15,2000-06-05,15,D,Raw,Yes,67.5,65.2,,,,,,,,,,,112.5,117.5,122.5,,122.5,122.5,1
Nikolay Zhatikov,M,Николай Жатиков,Amateur Open,1990-05-16,25,D,Raw,Yes,67.5,64.4,,,,,,,,,,,150,165,-190,,165,165,1
Yuriy Zubov,M,Юрий Зубов,Amateur Masters 75-79,1939-08-16,76,D,Raw,Yes,67.5,65.2,,,,,,,,,,,-150,150,-152.5,,150,150,1
Aleksandr Nikolaev,M,Александр Николаев,Amateur Teen 18-19,1996-06-16,19,D,Raw,Yes,75,72.2,,,,,,,,,,,160,177.5,182.5,,182.5,182.5,1
Vladimir Rysev,M,Владимир Рысев,Amateur Teen 18-19,1998-02-01,18,D,Raw,Yes,75,69.2,,,,,,,,,,,-170,170,177.5,,177.5,177.5,2
Vadim Shchemenenko,M,Вадим Щемененко,Amateur Open,1989-01-21,27,D,Raw,Yes,75,72,,,,,,,,,,,170,190,-202.5,,190,190,1
Ivan Vasilev,M,Иван Васильев,Amateur Open,1991-06-08,24,D,Raw,Yes,75,74.4,,,,,,,,,,,155,177.5,-202.5,,177.5,177.5,2
Mursal Mamedov,M,Мурсал Мамедов,Amateur Juniors 20-23,1996-01-01,20,D,Raw,Yes,82.5,80.1,,,,,,,,,,,-197.5,212.5,-222.5,,212.5,212.5,1
Pavel Kanishchev,M,Павел Канищев,Amateur Juniors 20-23,1992-12-26,23,D,Raw,Yes,82.5,80.6,,,,,,,,,,,185,195,-200,,195,195,2
Evgeniy Dmitriev,M,Евгений Дмитриев,Amateur Juniors 20-23,1993-06-27,22,D,Raw,Yes,82.5,76.8,,,,,,,,,,,185,190,-192.5,,190,190,3
Daniil Zyablitskiy,M,Даниил Зяблицкий,Amateur Juniors 20-23,1992-11-04,23,D,Raw,Yes,82.5,80.8,,,,,,,,,,,-205,-205,-205,,,,DQ
Mikhail Basov,M,Михаил Басов,Amateur Open,1986-03-17,29,D,Raw,Yes,82.5,81.1,,,,,,,,,,,-195,215,225,,225,225,5
Boris Zharkikh,M,Борис Жарких,Amateur Open,1991-04-26,24,D,Raw,Yes,82.5,81.4,,,,,,,,,,,200,215,-220,,215,215,6
Kirill Marakshin,M,Кирилл Маракшин,Amateur Open,1988-03-18,27,D,Raw,Yes,82.5,80.4,,,,,,,,,,,205,-215,-215,,205,205,7
Vladimir Tarasov,M,Владимир Тарасов,Amateur Open,1981-12-26,34,D,Raw,Yes,82.5,77.7,,,,,,,,,,,175,-185,185,,185,185,8
Vladimir Shamardin,M,Владимир Шамардин,Amateur Open,1985-10-11,30,D,Raw,Yes,82.5,80.7,,,,,,,,,,,-162.5,185,-190,,185,185,9
Vladimir Didenko,M,Владимир Диденко,Amateur Open,1989-04-29,26,D,Raw,Yes,82.5,82.2,,,,,,,,,,,175,-185,185,,185,185,10
Mikhail Zuev,M,Михаил Зуев,Amateur Open,1985-04-25,30,D,Raw,Yes,82.5,76.4,,,,,,,,,,,170,175,180,,180,180,11
Eduard Mamiy,M,Эдуард Мамий,Amateur Open,1989-08-10,26,D,Raw,Yes,82.5,82.4,,,,,,,,,,,170,-180,-185,,170,170,12
Ilya Kuznetsov,M,Илья Кузнецов,Amateur Masters 40-44,1975-11-19,40,D,Raw,Yes,82.5,81.7,,,,,,,,,,,170,185,200,,200,200,1
Mikhail Butorin,M,Михаил Буторин,Amateur Masters 45-49,1971-01-14,45,D,Raw,Yes,82.5,81.6,,,,,,,,,,,190,205,210,,210,210,1
Maksim Shalunov,M,Максим Шалунов,Amateur Teen 13-15,2000-08-25,15,D,Raw,Yes,90,87.6,,,,,,,,,,,155,-160,-160,,155,155,1
Saveliy Bokarev,M,Савелий Бокарев,Amateur Teen 16-17,1998-10-30,17,D,Raw,Yes,90,86.3,,,,,,,,,,,200,207.5,215,222.5,215,215,1
Mikhail Elizarov,M,Михаил Елизаров,Amateur Juniors 20-23,1993-06-21,22,D,Raw,Yes,90,83.9,,,,,,,,,,,210,-222.5,222.5,,222.5,222.5,2
Daniil Pershin,M,Даниил Першин,Amateur Juniors 20-23,1995-12-30,20,D,Raw,Yes,90,87.2,,,,,,,,,,,180,195,200,,200,200,3
Konstantin Kholostov,M,Константин Холостов,Amateur Juniors 20-23,1995-08-20,20,D,Raw,Yes,90,85.4,,,,,,,,,,,-185,-185,-195,,,,DQ
Andrey Serikov,M,Андрей Сериков,Amateur Open,1976-07-16,39,D,Raw,Yes,90,86.9,,,,,,,,,,,230,235,242.5,,242.5,242.5,1
Nikolay Babunin,M,Николай Бабунин,Amateur Open,1986-10-25,29,D,Raw,Yes,90,87.2,,,,,,,,,,,202.5,222.5,237.5,,237.5,237.5,2
Evgeniy Moiseev,M,Евгений Моисеев,Amateur Open,1989-09-07,26,D,Raw,Yes,90,87.4,,,,,,,,,,,227.5,235,-240,,235,235,3
Vladislav Girko,M,Владислав Гирко,Amateur Open,1987-09-19,28,D,Raw,Yes,90,86,,,,,,,,,,,220,230,-240,,230,230,4
Anton Nikiforov,M,Антон Никифоров,Amateur Open,1985-09-29,30,D,Raw,Yes,90,86.4,,,,,,,,,,,-195,-195,-195,,,,DQ
Anatoliy Dodonov,M,Анатолий Додонов,Amateur Masters 45-49,1969-04-15,46,D,Raw,Yes,90,90,,,,,,,,,,,240,255,-270,,255,255,1
Sergey Gnatyuk,M,Сергей Гнатюк,Amateur Masters 55-59,1960-12-10,55,D,Raw,Yes,90,86.6,,,,,,,,,,,170,180,186,,186,186,1
Nikolay Nikitukhin,M,Николай Никитухин,Amateur Teen 16-17,1998-05-08,17,D,Raw,Yes,100,97,,,,,,,,,,,170,190,-202.5,,190,190,1
Sergey Bronzov,M,Сергей Бронзов,Amateur Teen 18-19,1996-05-04,19,D,Raw,Yes,100,90.6,,,,,,,,,,,250,265,-270,,265,265,1
Artem Alekseev,M,Артем Алексеев,Amateur Teen 18-19,1997-11-03,18,D,Raw,Yes,100,96.7,,,,,,,,,,,202.5,232.5,-242.5,,232.5,232.5,3
Ilya Korobkov,M,Илья Коробков,Amateur Juniors 20-23,1996-01-17,20,D,Raw,Yes,100,97.4,,,,,,,,,,,-232.5,240,-250,,240,240,1
Fedor Zayats,M,Федор Заяц,Amateur Juniors 20-23,1994-10-17,21,D,Raw,Yes,100,98.8,,,,,,,,,,,202.5,-207.5,-207.5,,202.5,202.5,2
Oleg Varvarin,M,Олег Варварин,Amateur Open,1986-04-02,29,D,Raw,Yes,100,96.8,,,,,,,,,,,250,-260,-260,,250,250,3
Dmitriy Kazakov,M,Дмитрий Казаков,Amateur Open,1976-11-19,39,D,Raw,Yes,100,98.6,,,,,,,,,,,240,250,-260,,250,250,4
Ivan Lakhanov,M,Иван Лаханов,Amateur Open,1987-06-17,28,D,Raw,Yes,100,97.4,,,,,,,,,,,215,225,232.5,,232.5,232.5,6
Aleksandr Ostrovskiy,M,Александр Островский,Amateur Open,1987-02-11,29,D,Raw,Yes,100,97.8,,,,,,,,,,,-182.5,192.5,202.5,,202.5,202.5,7
Stanislav Vidyaev,M,Станислав Видяев,Amateur Open,1976-12-06,39,D,Raw,Yes,100,92.3,,,,,,,,,,,160,170,-180,,170,170,8
Taron Khachatryan,M,Тарон Хачатрян,Amateur Open,1986-01-18,30,D,Raw,Yes,100,94.8,,,,,,,,,,,-202.5,-202.5,-202.5,,,,DQ
Aleksey Grigorev,M,Алексей Григорьев,Amateur Masters 40-44,1975-02-04,41,D,Raw,Yes,100,99.7,,,,,,,,,,,-235,235,-237.5,,235,235,1
Valeriy Anikeev,M,Валерий Аникеев,Amateur Masters 40-44,1975-10-20,40,D,Raw,Yes,100,95,,,,,,,,,,,195,-202.5,-202.5,,195,195,2
Ilya Dennikov,M,Илья Денников,Amateur Masters 45-49,1970-06-02,45,D,Raw,Yes,100,98.6,,,,,,,,,,,-210,220,225,,225,225,1
Aleksandr Kartashov,M,Александр Карташов,Amateur Juniors 20-23,1994-07-14,21,D,Raw,Yes,110,101,,,,,,,,,,,200,207.5,212.5,,212.5,212.5,1
Konstantin Morozov,M,Константин Морозов,Amateur Open,1984-10-23,31,D,Raw,Yes,110,109.6,,,,,,,,,,,330,350,360,,360,360,1
Pavel Nogotkov,M,Павел Ноготков,Amateur Open,1981-12-03,34,D,Raw,Yes,110,107,,,,,,,,,,,260,280,-300,,280,280,4
Dmitriy Pavlovskiy,M,Дмитрий Павловский,Amateur Open,1988-02-01,28,D,Raw,Yes,110,102.7,,,,,,,,,,,250,260,-265,,260,260,5
Sergey Bulaev,M,Сергей Булаев,Amateur Open,1972-12-04,43,D,Raw,Yes,110,105.2,,,,,,,,,,,250,-260,-260,,250,250,6
Yuriy Boronakhin,M,Юрий Боронахин,Amateur Open,1983-10-21,32,D,Raw,Yes,110,106.1,,,,,,,,,,,220,240,250,,250,250,7
Aleksey Pritkov,M,Алексей Притков,Amateur Open,1988-10-05,27,D,Raw,Yes,110,104.9,,,,,,,,,,,210,225,240,,240,240,9
Roman Moiseev,M,Роман Моисеев,Amateur Open,1990-11-27,25,D,Raw,Yes,110,102,,,,,,,,,,,220,232.5,-240,,232.5,232.5,10
Dmitriy Ilyukhin,M,Дмитрий Илюхин,Amateur Open,1982-12-26,33,D,Raw,Yes,110,102,,,,,,,,,,,230,-240,-240,,230,230,11
Konstantin Karpov,M,Константин Карпов,Amateur Open,1984-12-11,31,D,Raw,Yes,110,103.3,,,,,,,,,,,-200,207.5,215,,215,215,12
Sergey Shesterkin,M,Сергей Шестеркин,Amateur Open,1990-06-04,25,D,Raw,Yes,110,107.5,,,,,,,,,,,190,207.5,215,,215,215,13
Konstantin Pylaev,M,Константин Пылаев,Amateur Masters 40-44,1972-11-01,43,D,Raw,Yes,110,105.3,,,,,,,,,,,207.5,-230,-230,,207.5,207.5,1
Aleksandr Smirnov,M,Александр Смирнов,Amateur Masters 40-44,1974-04-21,41,D,Raw,Yes,110,108.8,,,,,,,,,,,-215,,,,,,DQ
Andrey Burakov,M,Андрей Бураков,Amateur Masters 55-59,1958-09-17,57,D,Raw,Yes,110,101.8,,,,,,,,,,,180,200,210,,210,210,1
Valentin Matanov,M,Валентин Матанов,Amateur Teen 16-17,1998-04-11,17,D,Raw,Yes,125,122.3,,,,,,,,,,,220,-235,-245,,220,220,1
Georgiy Bebiashvili,M,Георгий Бебиашвили,Amateur Teen 18-19,1997-01-13,19,D,Raw,Yes,125,110.8,,,,,,,,,,,260,-270,-270,,260,260,1
Aleksandr Yanichev,M,Александр Яничев,Amateur Open,1977-05-13,38,D,Raw,Yes,125,123,,,,,,,,,,,225,235,242.5,,242.5,242.5,1
Ivan Levov,M,Иван Левов,Amateur Open,1990-10-29,25,D,Raw,Yes,125,124.6,,,,,,,,,,,220,235,-245,,235,235,2
Aleksandr Tikhonov,M,Александр Тихонов,Amateur Open,1990-06-30,25,D,Raw,Yes,125,115.2,,,,,,,,,,,190,215,225,,225,225,3
Denis Krasnorutskiy,M,Денис Красноруцкий,Amateur Open,1983-08-05,32,D,Raw,Yes,140,134.2,,,,,,,,,,,245,255,260,,260,260,1
Irina Smolentseva,F,Ирина Смоленцева,Amateur Open,1988-02-10,28,B,Multi-ply,Yes,67.5,66.6,,,,,,85,-90,-90,,85,,,,,,85,1
Konstantin Alekseychuk,M,Константин Алексейчук,Amateur Open,1988-11-17,27,B,Multi-ply,Yes,75,74.3,,,,,,140,150,,,150,,,,,,150,1
Dmirtriy Korneev,M,Дмиртрий Корнеев,Amateur Open,1987-02-15,29,B,Single-ply,Yes,82.5,82.2,,,,,,170,180,182.5,,182.5,,,,,,182.5,1
Andrey Solovev,M,Андрей Соловьев,Amateur Open,1982-06-22,33,B,Single-ply,Yes,82.5,82.1,,,,,,170,177.5,-182.5,,177.5,,,,,,177.5,2
Denis Dobryanskiy,M,Денис Добрянский,Amateur Open,1977-12-06,38,B,Single-ply,Yes,90,86.5,,,,,,195,200,205,,205,,,,,,205,1
Denis Karpov,M,Денис Карпов,Amateur Open,1981-04-20,34,B,Single-ply,Yes,100,98.4,,,,,,-190,-190,190,,190,,,,,,190,1
Yuriy Golubkov,M,Юрий Голубков,Amateur Open,1985-06-24,30,B,Single-ply,Yes,100,98.1,,,,,,170,-187.5,-187.5,,170,,,,,,170,2
Aleksey Figol,M,Алексей Фиголь,Amateur Masters 40-44,1973-01-26,43,B,Single-ply,Yes,100,96.6,,,,,,172.5,-180,-180,,172.5,,,,,,172.5,1
Mikhail Evstigneev,M,Михаил Евстигнеев,Amateur Open,1976-06-21,39,B,Single-ply,Yes,110,104.4,,,,,,262.5,267.5,-272.5,,267.5,,,,,,267.5,1
Aleksandr Kalinin,M,Александр Калинин,Amateur Masters 40-44,1975-05-07,40,B,Single-ply,Yes,110,106.3,,,,,,160,170,185,,185,,,,,,185,1
Svyatoslav Kotik,M,Святослав Котик,Amateur Masters 40-44,1972-01-14,44,B,Single-ply,Yes,110,108.9,,,,,,-185,-197.5,-197.5,,,,,,,,,DQ
Elena Ivanova,F,Елена Иванова,Amateur Teen 16-17,1999-07-24,16,B,Raw,Yes,48,44.9,,,,,,42.5,45,-47.5,,45,,,,,,45,1
Olga Ivanova,F,Ольга Иванова,Amateur Teen 18-19,1996-09-18,19,B,Raw,Yes,48,45.1,,,,,,45,47.5,50,,50,,,,,,50,1
Alina Shestiglazova,F,Алина Шестиглазова,Amateur Juniors 20-23,1995-02-21,21,B,Raw,Yes,48,47.5,,,,,,42.5,45,47.5,,47.5,,,,,,47.5,1
Mariam Kharazishvili,F,Мариам Харазишвили,Amateur Juniors 20-23,1994-09-12,21,B,Raw,Yes,48,47.1,,,,,,40,-45,-45,,40,,,,,,40,2
Svetlana Dombrovskaya,F,Светлана Домбровская,Amateur Open,1981-05-27,34,B,Raw,Yes,48,47.6,,,,,,50,-55,55,,55,,,,,,55,1
Anna Ivanova,F,Анна Іванова,Amateur Open,1984-03-15,31,B,Raw,Yes,52,51.3,,,,,,65,67.5,-70,,67.5,,,,,,67.5,1
Nadezhda Belova,F,Надежда Белова,Amateur Open,1986-09-23,29,B,Raw,Yes,52,51.8,,,,,,52.5,57.5,62.5,,62.5,,,,,,62.5,2
Marina Reshetova,F,Марина Решетова,Amateur Open,1990-05-31,25,B,Raw,Yes,52,50.4,,,,,,55,57.5,-60,,57.5,,,,,,57.5,3
Yana Troshina,F,Яна Трошина,Amateur Open,1985-07-05,30,B,Raw,Yes,52,49.8,,,,,,45,50,52.5,,52.5,,,,,,52.5,5
Lyubov Chernina,F,Любовь Чернина,Amateur Open,1986-07-18,29,B,Raw,Yes,52,51.9,,,,,,52.5,-57.5,-57.5,,52.5,,,,,,52.5,6
Irina Trefilova,F,Ирина Трефилова,Amateur Masters 50-54,1962-07-26,53,B,Raw,Yes,52,52,,,,,,52.5,-55,-55,,52.5,,,,,,52.5,1
Viktoriya Yultsova,F,Виктория Юльцова,Amateur Teen 13-15,2002-04-06,13,B,Raw,Yes,56,55.8,,,,,,80,85,85.5,,85.5,,,,,,85.5,1
Ekaterina Samokhina,F,Екатерина Самохина,Amateur Juniors 20-23,1994-10-06,21,B,Raw,Yes,56,55.9,,,,,,60,62.5,-65,,62.5,,,,,,62.5,1
Tatyana Pantyukhova,F,Татьяна Пантюхова,Amateur Juniors 20-23,1992-07-07,23,B,Raw,Yes,56,55.2,,,,,,52.5,55,57.5,,57.5,,,,,,57.5,2
Ekaterina Kudryavtseva,F,Екатерина Кудрявцева,Amateur Juniors 20-23,1993-08-29,22,B,Raw,Yes,56,53.5,,,,,,45,47.5,-50,,47.5,,,,,,47.5,3
Viktoriya Yultsova,F,Виктория Юльцова,Amateur Open,2002-04-06,13,B,Raw,Yes,56,55.8,,,,,,80,85,85.5,,85.5,,,,,,85.5,1
Vera Baybikova,F,Вера Байбикова,Amateur Open,1976-12-02,39,B,Raw,Yes,56,54.2,,,,,,50,-55,-55,,50,,,,,,50,2
Marina Almukova,F,Марина Альмукова,Amateur Open,1986-12-09,29,B,Raw,Yes,56,54.8,,,,,,-50,-55,-55,,,,,,,,,DQ
Lyudmila Dubinina,F,Людмила Дубинина,Amateur Masters 40-44,1971-10-28,44,B,Raw,Yes,56,54.5,,,,,,55,57.5,-60,,57.5,,,,,,57.5,1
Anastasiya Druzhinina,F,Анастасия Дружинина,Amateur Teen 16-17,1998-09-15,17,B,Raw,Yes,60,58.4,,,,,,42.5,47.5,50,,50,,,,,,50,1
Tatyana Batalova,F,Татьяна Баталова,Amateur Teen 18-19,1997-05-20,18,B,Raw,Yes,60,57.6,,,,,,42.5,45,47.5,,47.5,,,,,,47.5,2
Olga Krichmar,F,Ольга Кричмар,Amateur Open,1982-03-09,33,B,Raw,Yes,60,58.9,,,,,,65,-67.5,-67.5,,65,,,,,,65,1
Aliya Sadekova,F,Алия Садекова,Amateur Open,1982-07-29,33,B,Raw,Yes,60,58.4,,,,,,-55,57.5,-60,,57.5,,,,,,57.5,2
Mariya Polivkina,F,Мария Поливкина,Amateur Open,1987-02-21,29,B,Raw,Yes,60,57.7,,,,,,37.5,40,-42.5,,40,,,,,,40,4
Anna Frolova,F,Анна Фролова,Amateur Open,1991-05-21,24,B,Raw,Yes,60,59.3,,,,,,-65,-65,-65,,,,,,,,,DQ
Kseniya Shchekina,F,Ксения Щекина,Amateur Juniors 20-23,1995-10-25,20,B,Raw,Yes,67.5,67.5,,,,,,65,-75,-75,,65,,,,,,65,1
Elizaveta Selyukova,F,Елизавета Селюкова,Amateur Juniors 20-23,1994-09-16,21,B,Raw,Yes,67.5,65,,,,,,55,-57.5,-57.5,,55,,,,,,55,2
Svetlana Sotnikova,F,Светлана Сотникова,Amateur Open,1983-01-30,33,B,Raw,Yes,67.5,63.5,,,,,,72.5,75,77.5,,77.5,,,,,,77.5,1
Svetlana Grigoreva,F,Светлана Григорьева,Amateur Open,1982-07-15,33,B,Raw,Yes,67.5,65.4,,,,,,65,-70,70,,70,,,,,,70,2
Natalya Voronova,F,Наталья Воронова,Amateur Open,1980-04-08,35,B,Raw,Yes,67.5,63.6,,,,,,45,50,-55,,50,,,,,,50,3
Irina Denisova,F,Ирина Денисова,Amateur Open,1986-06-07,29,B,Raw,Yes,67.5,66.1,,,,,,45,-52.5,-52.5,,45,,,,,,45,4
Nadezhda Galchenkova,F,Надежда Гальченкова,Amateur Open,1983-01-10,33,B,Raw,Yes,67.5,60.7,,,,,,-60,-60,-65,,,,,,,,,DQ
Ekaterina Kostina,F,Екатерина Костина,Amateur Open,1989-04-30,26,B,Raw,Yes,67.5,64,,,,,,-70,-75,-75,,,,,,,,,DQ
Elena Zhuk,F,Елена Жук,Amateur Open,1984-01-25,32,B,Raw,Yes,75,74,,,,,,67.5,-70,-70,,67.5,,,,,,67.5,1
Darya Rodionova,F,Дарья Родионова,Amateur Open,1983-02-13,33,B,Raw,Yes,82.5,80.5,,,,,,80,-85,85,,85,,,,,,85,1
Inna Tyokhan,F,Инна Тёхан,Amateur Masters 40-44,1971-10-07,44,B,Raw,Yes,82.5,78.6,,,,,,60,62.5,65,,65,,,,,,65,1
Sergey Lyashev,M,Сергей Ляшев,Amateur Teen 13-15,2000-07-07,15,B,Raw,Yes,60,58,,,,,,-90,90,-102.5,,90,,,,,,90,1
Viktor Shabin,M,Виктор Шабин,Amateur Teen 16-17,1999-12-27,16,B,Raw,Yes,60,59.3,,,,,,70,77.5,-80,,77.5,,,,,,77.5,1
Vazgen Baloyan,M,Вазген Балоян,Amateur Teen 13-15,2000-08-13,15,B,Raw,Yes,67.5,66.4,,,,,,100,107.5,110,,110,,,,,,110,1
Daniil Ershov,M,Даниил Ершов,Amateur Teen 13-15,2000-06-26,15,B,Raw,Yes,67.5,67.3,,,,,,80,-85,-85,,80,,,,,,80,2
Artur Yakovlev,M,Артур Яковлев,Amateur Teen 18-19,1996-08-12,19,B,Raw,Yes,67.5,64.6,,,,,,95,102.5,107.5,,107.5,,,,,,107.5,1
Evgeniy Nechaev,M,Евгений Нечаев,Amateur Juniors 20-23,1993-09-19,22,B,Raw,Yes,67.5,65,,,,,,120,125,130,,130,,,,,,130,1
Chermen Savlokhov,M,Чермен Савлохов,Amateur Juniors 20-23,1994-09-16,21,B,Raw,Yes,67.5,65.9,,,,,,115,-120,120,,120,,,,,,120,2
Sergey Perevalov,M,Сергей Перевалов,Amateur Open,1981-03-12,34,B,Raw,Yes,67.5,67.5,,,,,,140,150,-152.5,,150,,,,,,150,1
Evgeniy Karpov,M,Евгений Карпов,Amateur Open,1979-10-26,36,B,Raw,Yes,67.5,66.9,,,,,,115,-125,-125,,115,,,,,,115,3
Roman Sergeev,M,Роман Сергеев,Amateur Open,1991-09-22,24,B,Raw,Yes,67.5,65.7,,,,,,102.5,107.5,110,,110,,,,,,110,4
Kirill Garkavyy,M,Кирилл Гарькавый,Amateur Teen 13-15,2001-01-30,15,B,Raw,Yes,75,74,,,,,,95,97.5,-100,,97.5,,,,,,97.5,1
Dmitriy Chernyaev,M,Дмитрий Черняев,Amateur Teen 16-17,1999-06-04,16,B,Raw,Yes,75,72,,,,,,90,95,100,,100,,,,,,100,2
Nikita Vorobev,M,Никита Воробьев,Amateur Teen 18-19,1997-05-04,18,B,Raw,Yes,75,75,,,,,,107.5,-117.5,-117.5,,107.5,,,,,,107.5,1
Kirill Molyukov,M,Кирилл Молюков,Amateur Teen 18-19,1997-04-08,18,B,Raw,Yes,75,74.1,,,,,,-105,105,-110,,105,,,,,,105,2
Kevin Kuznetsov,M,Кевин Кузнецов,Amateur Juniors 20-23,1996-01-24,20,B,Raw,Yes,75,74.2,,,,,,-117.5,117.5,125,,125,,,,,,125,1
Aleksey Shostak,M,Алексей Шостак,Amateur Open,1989-08-16,26,B,Raw,Yes,75,74.4,,,,,,142.5,147.5,-150,,147.5,,,,,,147.5,3
Konstantin Dedyaev,M,Константин Дедяев,Amateur Open,1991-04-16,24,B,Raw,Yes,75,72.1,,,,,,125,135,145,,145,,,,,,145,4
Roman Petrakov,M,Роман Петраков,Amateur Open,1981-06-13,34,B,Raw,Yes,75,74.7,,,,,,145,-150,-150,,145,,,,,,145,5
Aleksandr Kaplya,M,Александр Капля,Amateur Open,1978-09-02,37,B,Raw,Yes,75,74.9,,,,,,135,145,-155,,145,,,,,,145,6
Aleksey Volodin,M,Алексей Володин,Amateur Open,1986-08-24,29,B,Raw,Yes,75,73.4,,,,,,130,135,-137.5,,135,,,,,,135,7
Valeriy Strelnikov,M,Валерий Стрельников,Amateur Open,1981-03-25,34,B,Raw,Yes,75,73.9,,,,,,117.5,125,135,,135,,,,,,135,8
Evgeniy Kolegay,M,Евгений Колегай,Amateur Open,1988-11-25,27,B,Raw,Yes,75,71.6,,,,,,-130,130,-135,,130,,,,,,130,9
Ivan Vasilev,M,Иван Васильев,Amateur Open,1991-06-08,24,B,Raw,Yes,75,74.4,,,,,,117.5,127.5,-135,,127.5,,,,,,127.5,10
Viktor Chernenok,M,Виктор Черненок,Amateur Open,1984-03-20,31,B,Raw,Yes,75,72.8,,,,,,125,-135,-135,,125,,,,,,125,11
Aleksey Skrynnik,M,Алексей Скрынник,Amateur Open,1990-01-27,26,B,Raw,Yes,75,71.8,,,,,,115,-120,120,,120,,,,,,120,12
Igor Kozlov,M,Ігор Козлов,Amateur Open,1990-08-24,25,B,Raw,Yes,75,74.1,,,,,,117.5,-122.5,-122.5,,117.5,,,,,,117.5,13
Oleg Shtang,M,Олег Штанг,Amateur Open,1984-12-21,31,B,Raw,Yes,75,74.6,,,,,,-117.5,-117.5,117.5,,117.5,,,,,,117.5,14
Nikolay Buchukuri,M,Николай Бучукури,Amateur Open,1978-05-16,37,B,Raw,Yes,75,73,,,,,,105,-117.5,-117.5,,105,,,,,,105,15
Andrey Kovalev,M,Андрей Ковалев,Amateur Open,1984-06-25,31,B,Raw,Yes,75,73.5,,,,,,105,-117.5,-117.5,,105,,,,,,105,16
Sergey Malgin,M,Сергей Мальгин,Amateur Open,1989-08-17,26,B,Raw,Yes,75,74.2,,,,,,-130,-130,-135,,,,,,,,,DQ
Mikhail Fadeev,M,Михаил Фадеев,Amateur Open,1985-12-01,30,B,Raw,Yes,75,74.8,,,,,,-110,-110,-117.5,,,,,,,,,DQ
Valeriy Chukanov,M,Валерий Чуканов,Amateur Teen 13-15,2001-05-10,14,B,Raw,Yes,82.5,81.3,,,,,,80,87.5,-92.5,,87.5,,,,,,87.5,1
Roman Cherevan,M,Роман Черевань,Amateur Teen 16-17,1999-07-17,16,B,Raw,Yes,82.5,78.5,,,,,,120,-127.5,-135,,120,,,,,,120,1
Kirill Ksenzyuk,M,Кирилл Ксензюк,Amateur Teen 16-17,1998-11-26,17,B,Raw,Yes,82.5,78.8,,,,,,102.5,112.5,115,,115,,,,,,115,2
Yakov Shalabaev,M,Яков Шалабаев,Amateur Teen 18-19,1996-07-25,19,B,Raw,Yes,82.5,81.6,,,,,,127.5,130,135,,135,,,,,,135,1
Mikhail Kiselev,M,Михаил Киселев,Amateur Juniors 20-23,1992-12-20,23,B,Raw,Yes,82.5,81,,,,,,140,-145,-145,,140,,,,,,140,4
Rinat Khusainov,M,Ринат Хусаинов,Amateur Juniors 20-23,1993-02-24,23,B,Raw,Yes,82.5,79.4,,,,,,135,-145,-145,,135,,,,,,135,5
Evgeniy Grinenko,M,Евгений Гриненко,Amateur Juniors 20-23,1995-10-17,20,B,Raw,Yes,82.5,80.4,,,,,,127.5,135,-145,,135,,,,,,135,6
Pavel Novikov,M,Павел Новиков,Amateur Juniors 20-23,1993-10-16,22,B,Raw,Yes,82.5,79.9,,,,,,120,-127.5,-127.5,,120,,,,,,120,7
Ivan Fomin,M,Иван Фомин,Amateur Juniors 20-23,1996-02-21,20,B,Raw,Yes,82.5,78.8,,,,,,105,110,112.5,,112.5,,,,,,112.5,8
Mikhail Kulikov,M,Михаил Куликов,Amateur Open,1987-04-24,28,B,Raw,Yes,82.5,81.4,,,,,,170,172.5,175,,175,,,,,,175,1
Artem Larionov,M,Артем Ларионов,Amateur Open,1978-05-14,37,B,Raw,Yes,82.5,75.9,,,,,,160,170,-175,,170,,,,,,170,3
Ivan Basikhin,M,Иван Басихин,Amateur Open,1984-06-29,31,B,Raw,Yes,82.5,80.9,,,,,,145,155,-165,,155,,,,,,155,4
Aleksey Savostyanov,M,Алексей Савостьянов,Amateur Open,1987-10-04,28,B,Raw,Yes,82.5,80.5,,,,,,145,150,-155,,150,,,,,,150,5
Sergey Bryzgalin,M,Сергей Брызгалин,Amateur Open,1988-11-21,27,B,Raw,Yes,82.5,80.7,,,,,,-127.5,145,-155,,145,,,,,,145,7
Sergey Repin,M,Сергей Репин,Amateur Open,1986-07-11,29,B,Raw,Yes,82.5,81.2,,,,,,127.5,145,-152.5,,145,,,,,,145,8
Dmitriy Chesnokov,M,Дмитрий Чесноков,Amateur Open,1988-07-13,27,B,Raw,Yes,82.5,81.5,,,,,,-130,137.5,-145,,137.5,,,,,,137.5,9
Valeriy Ruban,M,Валерий Рубан,Amateur Open,1990-01-14,26,B,Raw,Yes,82.5,79.5,,,,,,135,-140,-140,,135,,,,,,135,10
Aleksandr Murzin,M,Александр Мурзин,Amateur Open,1991-04-09,24,B,Raw,Yes,82.5,80.8,,,,,,-127.5,127.5,132.5,,132.5,,,,,,132.5,11
Dmitriy Karasyov,M,Дмитрий Карасёв,Amateur Open,1985-04-17,30,B,Raw,Yes,82.5,80.2,,,,,,127.5,-132.5,-132.5,,127.5,,,,,,127.5,12
Roman Torlov,M,Роман Торлов,Amateur Open,1976-12-27,39,B,Raw,Yes,82.5,80.5,,,,,,120,127.5,-132.5,,127.5,,,,,,127.5,13
Maksim Mamonov,M,Максим Мамонов,Amateur Open,1983-05-16,32,B,Raw,Yes,82.5,81.5,,,,,,-127.5,127.5,-142.5,,127.5,,,,,,127.5,14
Aleksey Morozov,M,Алексей Морозов,Amateur Open,1981-06-28,34,B,Raw,Yes,82.5,80.3,,,,,,125,-145,-145,,125,,,,,,125,15
Dmitriy Evdokimov,M,Дмитрий Евдокимов,Amateur Open,1986-09-18,29,B,Raw,Yes,82.5,81.3,,,,,,-125,125,-127.5,,125,,,,,,125,16
Sergey Kozyrev,M,Сергей Козырев,Amateur Open,1983-02-07,33,B,Raw,Yes,82.5,78.9,,,,,,115,-127.5,-127.5,,115,,,,,,115,18
Sergey Bogomolov,M,Сергей Богомолов,Amateur Open,1988-09-04,27,B,Raw,Yes,82.5,81.1,,,,,,115,-127.5,-127.5,,115,,,,,,115,19
Denis Gubin,M,Денис Губин,Amateur Open,1990-11-01,25,B,Raw,Yes,82.5,79.2,,,,,,112.5,-127.5,-127.5,,112.5,,,,,,112.5,20
Sergey Naumkin,M,Сергей Наумкин,Amateur Masters 40-44,1971-03-05,44,B,Raw,Yes,82.5,79.8,,,,,,120,130,135,,135,,,,,,135,1
Nikita Kozyrev,M,Никита Козырев,Amateur Teen 16-17,1998-07-24,17,B,Raw,Yes,90,86.7,,,,,,140,145,150,,150,,,,,,150,1
Dmitriy Markelov,M,Дмитрий Маркелов,Amateur Teen 16-17,1998-07-24,17,B,Raw,Yes,90,85.2,,,,,,135,140,-147.5,,140,,,,,,140,2
Ivan Filatov,M,Иван Филатов,Amateur Juniors 20-23,1994-10-31,21,B,Raw,Yes,90,89.1,,,,,,145,152.5,155,,155,,,,,,155,1
Aleksey Evteev,M,Алексей Евтеев,Amateur Juniors 20-23,1994-08-08,21,B,Raw,Yes,90,87.8,,,,,,132.5,142.5,152.5,,152.5,,,,,,152.5,2
Leva Dilbandyan,M,Лева Дилбандян,Amateur Juniors 20-23,1993-12-23,22,B,Raw,Yes,90,85.6,,,,,,147.5,-152.5,-152.5,,147.5,,,,,,147.5,3
Ivan Zotov,M,Иван Зотов,Amateur Juniors 20-23,1994-02-09,22,B,Raw,Yes,90,85.7,,,,,,-140,140,-152.5,,140,,,,,,140,4
Andrey Vasilevskiy,M,Андрей Василевский,Amateur Juniors 20-23,1993-01-28,23,B,Raw,Yes,90,83.1,,,,,,132.5,-137.5,137.5,,137.5,,,,,,137.5,5
Linar Galiullov,M,Линар Галиуллов,Amateur Juniors 20-23,1994-03-09,21,B,Raw,Yes,90,84.3,,,,,,120,-132.5,132.5,,132.5,,,,,,132.5,6
Igor Rogachev,M,Игорь Рогачев,Amateur Juniors 20-23,1994-08-07,21,B,Raw,Yes,90,89,,,,,,120,132.5,-135,,132.5,,,,,,132.5,7
Aleksandr Smirnov,M,Александр Смирнов,Amateur Juniors 20-23,1994-03-08,21,B,Raw,Yes,90,88.5,,,,,,-152.5,-152.5,,,,,,,,,,DQ
Aleksandr Shuralev,M,Александр Шуралев,Amateur Open,1975-07-13,40,B,Raw,Yes,90,89.8,,,,,,170,177.5,182.5,,182.5,,,,,,,DD
Andrey Minin,M,Андрей Минин,Amateur Open,1976-04-16,39,B,Raw,Yes,90,88.8,,,,,,162.5,-175,-175,,162.5,,,,,,162.5,7
Andrey Serikov,M,Андрей Сериков,Amateur Open,1976-07-16,39,B,Raw,Yes,90,86.9,,,,,,152.5,157.5,160,,160,,,,,,160,8
Vladimir Sevastyanov,M,Владимир Севастьянов,Amateur Open,1986-04-26,29,B,Raw,Yes,90,87,,,,,,-147.5,147.5,-152.5,,147.5,,,,,,147.5,10
Evgeniy Pavlikhin,M,Евгений Павлихин,Amateur Open,1980-07-30,35,B,Raw,Yes,90,89.2,,,,,,-137.5,142.5,147.5,,147.5,,,,,,147.5,11
Nikita Matsko,M,Никита Мацко,Amateur Open,1984-08-17,31,B,Raw,Yes,90,87.2,,,,,,-135,-145,145,,145,,,,,,145,12
Artyom Beglyarov,M,Артём Бегляров,Amateur Open,1985-06-13,30,B,Raw,Yes,90,88.5,,,,,,145,-152.5,-152.5,,145,,,,,,145,13
Aleksandr Obedientov,M,Александр Обедиентов,Amateur Open,1986-04-26,29,B,Raw,Yes,90,89,,,,,,145,-152.5,-152.5,,145,,,,,,145,14
Aleksandr Brovkin,M,Александр Бровкин,Amateur Open,1982-09-25,33,B,Raw,Yes,90,85.1,,,,,,132.5,137.5,142.5,,142.5,,,,,,142.5,15
Andrey Starkov,M,Андрей Старков,Amateur Open,1987-08-09,28,B,Raw,Yes,90,88.3,,,,,,122.5,132.5,140,,140,,,,,,140,16
Andrey Gavrilov,M,Андрей Гаврилов,Amateur Open,1976-04-10,39,B,Raw,Yes,90,90,,,,,,120,127.5,135,,135,,,,,,135,17
Sergey Rassadin,M,Сергей Рассадин,Amateur Open,1986-06-20,29,B,Raw,Yes,90,85.4,,,,,,120,132.5,-135,,132.5,,,,,,132.5,18
Aleksandr Zakharov,M,Александр Захаров,Amateur Open,1979-07-03,36,B,Raw,Yes,90,87,,,,,,-105,120,132.5,,132.5,,,,,,132.5,19
Vikentiy Ozhe,M,Викентий Оже,Amateur Open,1990-01-01,26,B,Raw,Yes,90,88.3,,,,,,132.5,-142.5,-152.5,,132.5,,,,,,132.5,20
Vyacheslav Lysenko,M,Вячеслав Лысенко,Amateur Open,1990-10-16,25,B,Raw,Yes,90,88.1,,,,,,115,-122.5,122.5,,122.5,,,,,,122.5,21
Vladimir Kuzin,M,Владимир Кузин,Amateur Open,1986-03-16,29,B,Raw,Yes,90,89.5,,,,,,120,-130,-130,,120,,,,,,120,22
Sergey Moiseev,M,Сергей Моисеев,Amateur Masters 40-44,1975-04-23,40,B,Raw,Yes,90,88.7,,,,,,147.5,152.5,-157.5,,152.5,,,,,,152.5,1
Sergey Korolyov,M,Сергей Королёв,Amateur Masters 40-44,1972-04-03,43,B,Raw,Yes,90,88.7,,,,,,137.5,142.5,-147.5,,142.5,,,,,,142.5,2
Kirill Ponomarev,M,Кирилл Пономарев,Amateur Masters 45-49,1970-11-16,45,B,Raw,Yes,90,89.7,,,,,,125,-132.5,-132.5,,125,,,,,,125,1
Aleksandr Sapachev,M,Александр Сапачев,Amateur Masters 50-54,1965-12-13,50,B,Raw,Yes,90,89.6,,,,,,115,-120,-120,,115,,,,,,115,1
Nikolay Kostev,M,Николай Костев,Amateur Masters 55-59,1959-12-17,56,B,Raw,Yes,90,85,,,,,,142.5,150,155,,155,,,,,,155,1
Sergey Gnatyuk,M,Сергей Гнатюк,Amateur Masters 55-59,1960-12-10,55,B,Raw,Yes,90,86.6,,,,,,125,-130,-130,,125,,,,,,125,2
Pavel Kriulenko,M,Павел Криуленко,Amateur Teen 18-19,1997-11-20,18,B,Raw,Yes,100,93.4,,,,,,135,140,-142.5,,140,,,,,,140,1
Dmitriy Yankov,M,Дмитрий Янков,Amateur Juniors 20-23,1992-07-15,23,B,Raw,Yes,100,97.7,,,,,,157.5,167.5,175,,175,,,,,,175,1
Sergey Pavlov,M,Сергей Павлов,Amateur Juniors 20-23,1993-09-29,22,B,Raw,Yes,100,95.3,,,,,,140,145,150,,150,,,,,,150,2
Fyodor Filatov,M,Фёдор Филатов,Amateur Juniors 20-23,1993-05-06,22,B,Raw,Yes,100,97.7,,,,,,135,140,-145,,140,,,,,,140,3
Konstantin Tatulov,M,Константин Татулов,Amateur Open,1987-06-17,28,B,Raw,Yes,100,96.2,,,,,,170,-175,-177.5,,170,,,,,,170,7
Andrey Ishin,M,Андрей Ишин,Amateur Open,1988-05-24,27,B,Raw,Yes,100,92.1,,,,,,-162.5,162.5,-170,,162.5,,,,,,162.5,11
Ruslan Rozmirets,M,Руслан Розмирец,Amateur Open,1976-08-26,39,B,Raw,Yes,100,97.3,,,,,,162.5,-175,-180,,162.5,,,,,,162.5,12
Aleksey Larin,M,Алексей Ларин,Amateur Open,1990-08-29,25,B,Raw,Yes,100,94.7,,,,,,130,140,150,,150,,,,,,150,14
Nikolay Mukhin,M,Николай Мухин,Amateur Open,1985-05-18,30,B,Raw,Yes,100,91.9,,,,,,140,147.5,-152.5,,147.5,,,,,,147.5,15
Artem Tikhonovich,M,Артем Тихонович,Amateur Open,1996-02-22,20,B,Raw,Yes,100,96.4,,,,,,-140,140,145,,145,,,,,,145,16
Roman Tovpeko,M,Роман Товпеко,Amateur Open,1981-03-13,34,B,Raw,Yes,100,96.7,,,,,,-140,140,-150,,140,,,,,,140,17
Roman Ivanovskiy,M,Роман Ивановский,Amateur Open,1969-10-06,46,B,Raw,Yes,100,96.9,,,,,,125,140,-145,,140,,,,,,140,18
Mikhail Mikhaylov,M,Михаил Михайлов,Amateur Open,1986-12-02,29,B,Raw,Yes,100,98.5,,,,,,125,135,140,,140,,,,,,140,19
Andrey Kalashnikov,M,Андрей Калашников,Amateur Open,1980-07-24,35,B,Raw,Yes,100,99.3,,,,,,140,-162.5,-162.5,,140,,,,,,140,20
Aleksey Lileev,M,Алексей Лилеев,Amateur Masters 40-44,1972-09-03,43,B,Raw,Yes,100,98,,,,,,155,160,167.5,,167.5,,,,,,167.5,2
Valeriy Anikeev,M,Валерий Аникеев,Amateur Masters 40-44,1975-10-20,40,B,Raw,Yes,100,95.6,,,,,,135,-140,-140,,135,,,,,,135,3
Dmitriy Galakhov,M,Дмитрий Галахов,Amateur Masters 40-44,1972-02-01,44,B,Raw,Yes,100,95.8,,,,,,-130,-130,-130,,,,,,,,,DQ
Yuriy Lyubach,M,Юрий Любач,Amateur Masters 45-49,1968-10-23,47,B,Raw,Yes,100,97.7,,,,,,135,142.5,-145,,142.5,,,,,,142.5,2
Aleksandr Bukharin,M,Александр Бухарин,Amateur Teen 16-17,1999-02-22,17,B,Raw,Yes,110,106,,,,,,162.5,167.5,172.5,,172.5,,,,,,172.5,1
Artem Krivonosov,M,Артем Кривоносов,Amateur Juniors 20-23,1992-09-15,23,B,Raw,Yes,110,106.9,,,,,,-150,150,-167.5,,150,,,,,,150,1
Vadim Polyanin,M,Вадим Полянин,Amateur Open,1983-12-15,32,B,Raw,Yes,110,109.2,,,,,,200,210,-215,,210,,,,,,210,1
Vitaliy Parmut,M,Виталий Пармут,Amateur Open,1987-04-18,28,B,Raw,Yes,110,104.6,,,,,,185,195,-200,,195,,,,,,195,2
Maksim Sevryukov,M,Максим Севрюков,Amateur Open,1985-03-06,30,B,Raw,Yes,110,108.2,,,,,,170,177.5,182.5,,182.5,,,,,,182.5,3
Ivan Fokin,M,Иван Фокин,Amateur Open,1985-04-28,30,B,Raw,Yes,110,106.2,,,,,,160,167.5,172.5,,172.5,,,,,,172.5,4
Nikolay Gusev,M,Николай Гусев,Amateur Open,1990-09-21,25,B,Raw,Yes,110,102.8,,,,,,167.5,170,-172.5,,170,,,,,,170,5
Aleksey Gerasimov,M,Алексей Герасимов,Amateur Open,1980-08-13,35,B,Raw,Yes,110,108.8,,,,,,160,167.5,-170,,167.5,,,,,,167.5,6
Andrey Dvoryanchikov,M,Андрей Дворянчиков,Amateur Open,1984-08-30,31,B,Raw,Yes,110,105.7,,,,,,165,-175,-175,,165,,,,,,165,7
Maksim Ivanov,M,Максим Иванов,Amateur Open,1976-04-13,39,B,Raw,Yes,110,105.9,,,,,,147.5,155,-167.5,,155,,,,,,155,8
Valeriy Nesterov,M,Валерий Нестеров,Amateur Open,1977-06-08,38,B,Raw,Yes,110,106.2,,,,,,147.5,155,-160,,155,,,,,,155,9
Nikolay Agafonov,M,Николай Агафонов,Amateur Open,1989-10-28,26,B,Raw,Yes,110,104,,,,,,135,-145,150,,150,,,,,,150,10
Vitaliy Bondarev,M,Виталий Бондарев,Amateur Open,1978-03-30,37,B,Raw,Yes,110,104.9,,,,,,135,142.5,150,,150,,,,,,150,11
Maksim Voronov,M,Максим Воронов,Amateur Open,1976-08-24,39,B,Raw,Yes,110,107.8,,,,,,150,-160,-160,,150,,,,,,150,12
Yuriy Kondratenko,M,Юрий Кондратенко,Amateur Open,1985-06-23,30,B,Raw,Yes,110,107.5,,,,,,140,-147.5,147.5,,147.5,,,,,,147.5,13
Andrey Monakhov,M,Андрей Монахов,Amateur Open,1987-03-14,28,B,Raw,Yes,110,108.4,,,,,,147.5,-150,-150,,147.5,,,,,,147.5,14
Vadim Ivanov,M,Вадим Иванов,Amateur Masters 40-44,1972-12-24,43,B,Raw,Yes,110,106.9,,,,,,170,175,-180,,175,,,,,,175,1
Georgiy Dyachenko,M,Георгий Дьяченко,Amateur Masters 40-44,1971-08-08,44,B,Raw,Yes,110,107,,,,,,140,-147.5,-147.5,,140,,,,,,140,3
Andrey Gerun,M,Андрей Герун,Amateur Masters 45-49,1971-02-02,45,B,Raw,Yes,110,101.2,,,,,,137.5,142.5,147.5,,147.5,,,,,,147.5,1
Aleksey Frolov,M,Алексей Фролов,Amateur Juniors 20-23,1994-05-10,21,B,Raw,Yes,125,114.7,,,,,,-130,-140,-140,,,,,,,,,DQ
Roman Ustinkin,M,Роман Устинкин,Amateur Open,1982-06-08,33,B,Raw,Yes,125,116.4,,,,,,190,195,200,,200,,,,,,200,2
Igor Golovanov,M,Игорь Голованов,Amateur Open,1983-11-04,32,B,Raw,Yes,125,120.4,,,,,,180,190,-200,,190,,,,,,190,3
Evgeniy Marinov,M,Евгений Маринов,Amateur Open,1983-11-20,32,B,Raw,Yes,125,115.5,,,,,,172.5,182.5,187.5,,187.5,,,,,,187.5,4
Aleksey Kalashnikov,M,Алексей Калашников,Amateur Open,1978-10-31,37,B,Raw,Yes,125,121,,,,,,177.5,185,-190,,185,,,,,,185,5
Vasiliy Perepichay,M,Василий Перепичай,Amateur Open,1981-02-27,35,B,Raw,Yes,125,120.7,,,,,,160,-170,-170,,160,,,,,,160,6
Aleksandr Yanichev,M,Александр Яничев,Amateur Open,1977-05-13,38,B,Raw,Yes,125,123,,,,,,-160,160,-170,,160,,,,,,160,7
Aleksandr Frolov,M,Александр Фролов,Amateur Open,1988-01-17,28,B,Raw,Yes,125,116,,,,,,130,140,-152.5,,140,,,,,,140,8
Artem Popov,M,Артем Попов,Amateur Open,1988-07-24,27,B,Raw,Yes,125,122.7,,,,,,-145,-152.5,-152.5,,,,,,,,,DQ
Aleksandr Sukhanov,M,Александр Суханов,Amateur Masters 40-44,1975-10-06,40,B,Raw,Yes,125,118.6,,,,,,160,165,-177.5,,165,,,,,,165,3
Artem Berdnik,M,Артем Бердник,Amateur Masters 40-44,1974-04-13,41,B,Raw,Yes,125,115.6,,,,,,142.5,147.5,-152.5,,147.5,,,,,,147.5,4
Vladimir Chubarov,M,Владимир Чубаров,Amateur Masters 50-54,1964-04-03,51,B,Raw,Yes,125,119.4,,,,,,160,165,170,,170,,,,,,170,2
Vladimir Popov,M,Владимир Попов,Amateur Masters 60-64,1956-02-26,60,B,Raw,Yes,125,122,,,,,,160,-165,165,,165,,,,,,165,1
Nikita Anisimov,M,Никита Анисимов,Amateur Open,1988-05-13,27,B,Raw,Yes,140,126.7,,,,,,180,200,-210,,200,,,,,,200,1
Sergey Druzin,M,Сергей Друзин,Amateur Masters 40-44,1971-12-21,44,B,Raw,Yes,140,136.2,,,,,,225,230,-235,,230,,,,,,230,1
Arseniy Niazashvili,M,Арсений Ниазашвили,Amateur Masters 45-49,1970-11-08,45,B,Raw,Yes,140,129.5,,,,,,165,175,182.5,,182.5,,,,,,,DD
Roman Mishurenkov,M,Роман Мишуренков,Amateur Open,1982-02-16,34,B,Raw,Yes,140+,142.2,,,,,,200,210,212.5,,212.5,,,,,,212.5,1
Boris Trofimov,M,Борис Трофимов,Amateur Masters 40-44,1972-03-21,43,B,Raw,Yes,140+,146,,,,,,210,220,225,,225,,,,,,225,1
Natalya Guzenina,F,Наталья Гузенина,Amateur Open,1989-05-16,26,SBD,Single-ply,Yes,67.5,66.2,-155,155,175,,175,85,95,-100,,95,175,185,-195,,185,455,1
Sergey Pisarev,M,Сергей Писарев,Amateur Open,1991-07-16,24,SBD,Single-ply,Yes,82.5,82.5,255,270,280,,280,157.5,-167.5,-170,,157.5,245,-262.5,270,,270,707.5,1
Mikhail Malinov,M,Михаил Малинов,Amateur Open,1985-11-26,30,SBD,Single-ply,Yes,82.5,81.8,200,-220,230,,230,-140,140,150,,150,210,-230,-230,,210,590,2
Viktor Skokin,M,Виктор Скокин,Amateur Masters 55-59,1957-07-20,58,SBD,Single-ply,Yes,82.5,79.3,190,200,207.5,,207.5,87.5,92.5,-95,,92.5,200,215,225,,225,525,1
Evgeniya Balyasina,F,Евгения Балясина,Amateur Open,1989-05-21,26,SBD,Wraps,Yes,48,47.5,80,-85,-85,,80,45,50,-52.5,,50,107.5,115,117.5,,117.5,247.5,1
Ekaterina Matyukhina,F,Екатерина Матюхина,Amateur Open,1990-05-20,25,SBD,Wraps,Yes,48,48,-77.5,77.5,-82.5,,77.5,57.5,60,62.5,,62.5,95,-105,-105,,95,235,2
Varvara Kosova,F,Варвара Косова,Amateur Juniors 20-23,1995-01-23,21,SBD,Wraps,Yes,52,51.1,95,100,-102.5,,100,40,42.5,45,,45,100,105,107.5,,107.5,252.5,1
Veronika Tyuleneva,F,Вероника Тюленева,Amateur Juniors 20-23,1992-11-25,23,SBD,Wraps,Yes,52,52,60,65,-70,,65,45,50,-55,,50,95,102.5,-107.5,,102.5,217.5,2
Anna Ratnikova,F,Анна Ратникова,Amateur Open,1982-10-26,33,SBD,Wraps,Yes,52,52,85,90,92.5,,92.5,55,57.5,-60,,57.5,120,125,-127.5,,125,275,1
Zarina Chikina,F,Зарина Чикина,Amateur Open,1986-01-20,30,SBD,Wraps,Yes,52,48.4,70,75,-77.5,,75,40,45,47.5,,47.5,100,105,-110,,105,227.5,2
Kseniya Lizunova,F,Ксения Лизунова,Amateur Open,1989-06-16,26,SBD,Wraps,Yes,52,51.2,65,70,75,,75,55,57.5,-60,,57.5,85,90,-95,,90,222.5,3
Larisa Potapovich,F,Лариса Потапович,Amateur Masters 50-54,1965-11-11,50,SBD,Wraps,Yes,52,51.4,65,75,-80,,75,-42.5,42.5,45,-47.5,45,100,-110,-110,,100,220,1
Olesya Shishkina,F,Олеся Шишкина,Amateur Juniors 20-23,1994-10-15,21,SBD,Wraps,Yes,56,55.3,90,95,97.5,,97.5,70,-75,75,,75,135,-140,140,,140,312.5,1
Lyudmila Sinchina,F,Людмила Синчина,Amateur Open,1976-09-20,39,SBD,Wraps,Yes,56,55.4,100,105,110,,110,55,60,-62.5,,60,125,135,-145,,135,305,1
Mariya Nekrasova,F,Мария Некрасова,Amateur Open,1989-03-25,26,SBD,Wraps,Yes,56,55.6,90,95,100,,100,-50,50,55,,55,125,130,135,,135,290,2
Lidiya Soldatova,F,Лидия Солдатова,Amateur Open,1985-06-10,30,SBD,Wraps,Yes,56,54.8,85,90,-95,,90,50,-52.5,-52.5,,50,135,145,-150,,145,285,3
Natalya Levenkova,F,Наталья Левенкова,Amateur Open,1988-09-16,27,SBD,Wraps,Yes,56,54.1,77.5,82.5,87.5,,87.5,47.5,52.5,55,,55,100,110,-115,,110,252.5,4
Anastasiya Fedorova,F,Анастасия Федорова,Amateur Open,1983-05-09,32,SBD,Wraps,Yes,56,54.5,75,-85,85,,85,50,-55,55,,55,85,92.5,100,,100,240,5
Anastasiya Baykova,F,Анастасия Байкова,Amateur Open,1990-12-13,25,SBD,Wraps,Yes,56,54.7,70,-75,80,,80,50,-55,-55,,50,80,90,97.5,,97.5,227.5,6
Ekaterina Chaplygina,F,Екатерина Чаплыгина,Amateur Open,1991-09-17,24,SBD,Wraps,Yes,56,55.7,75,80,-82.5,,80,42.5,-47.5,47.5,,47.5,95,100,-105,,100,227.5,7
Elena Produbnova,F,Елена Продубнова,Amateur Open,1983-11-22,32,SBD,Wraps,Yes,56,55.4,-110,-110,-110,,,,,,,,,,,,,,DQ
Elena Kuznetsova,F,Елена Кузнецова,Amateur Masters 45-49,1966-08-10,49,SBD,Wraps,Yes,56,54.8,60,-70,-70,,60,37.5,-42.5,-42.5,,37.5,70,80,90,-100,90,187.5,1
Valeriya Sazonova,F,Валерия Сазонова,Amateur Teen 16-17,1999-05-01,16,SBD,Wraps,Yes,60,56.8,62.5,-70,70,,70,37.5,-42.5,-42.5,,37.5,65,75,90,,90,197.5,1
Ekaterina Zhukova,F,Екатерина Жукова,Amateur Teen 18-19,1996-05-03,19,SBD,Wraps,Yes,60,60,60,67.5,75,,75,37.5,40,-45,,40,80,85,87.5,,87.5,202.5,1
Oksana Baturova,F,Оксана Батурова,Amateur Open,1983-10-20,32,SBD,Wraps,Yes,60,59.4,-77.5,80,82.5,,82.5,65,67.5,-70,,67.5,117.5,122.5,-125,,122.5,272.5,1
Natalya Tyokhan,F,Наталья Тёхан,Amateur Open,1992-01-29,24,SBD,Wraps,Yes,60,59.2,95,100,-102.5,,100,50,52.5,55,,55,95,100,105,,105,260,2
Aleksandra Vuller,F,Александра Вуллер,Amateur Open,1991-05-20,24,SBD,Wraps,Yes,60,56.6,65,-75,75,,75,40,-45,45,,45,95,-105,105,,105,225,3
Olena Lapshina,F,Олена Лапшина,Amateur Masters 40-44,1971-08-30,44,SBD,Wraps,Yes,60,59.8,100,105,-110,,105,-57.5,-57.5,-57.5,,,,,,,,,DQ
Vera Tumanova,F,Вера Туманова,Amateur Open,1981-08-15,34,SBD,Wraps,Yes,67.5,60.8,90,97.5,-102.5,,97.5,60,62.5,65,,65,135,140,-147.5,,140,302.5,1
Viktoriya Epikhina,F,Виктория Епихина,Amateur Open,1991-04-18,24,SBD,Wraps,Yes,67.5,65.1,100,-110,-110,,100,62.5,-70,70,,70,-115,130,-140,,130,300,2
Anastasiya Marchenko,F,Анастасія Марченко,Amateur Open,1988-01-13,28,SBD,Wraps,Yes,67.5,64.8,-100,105,-107.5,,105,62.5,-65,-65,,62.5,120,130,-137.5,,130,297.5,3
Svetlana Grigoreva,F,Светлана Григорьева,Amateur Open,1982-07-15,33,SBD,Wraps,Yes,67.5,65.4,90,95,100,,100,65,70,-72.5,,70,110,120,-125,,120,290,4
Mariya Bondarenko,F,Мария Бондаренко,Amateur Open,1988-03-02,27,SBD,Wraps,Yes,67.5,66.9,-95,95,-100,,95,57.5,-60,-60,,57.5,125,130,137.5,,137.5,290,5
Irina Moshnenko,F,Ирина Мошненко,Amateur Masters 45-49,1970-03-27,45,SBD,Wraps,Yes,67.5,65.3,60,65,67.5,,67.5,45,-50,-50,,45,60,70,80,,80,192.5,1
Anastasiya Zamashnyuk,F,Анастасия Замашнюк,Amateur Teen 18-19,1996-03-23,19,SBD,Wraps,Yes,75,72.8,100,107.5,-112.5,,107.5,52.5,57.5,60,,60,115,122.5,127.5,,127.5,295,1
Ekaterina Pozdnyakova,F,Екатерина Позднякова,Amateur Open,1991-12-29,24,SBD,Wraps,Yes,75,72.6,120,127.5,-132.5,,127.5,67.5,70,-72.5,,70,140,150,152.5,,152.5,350,1
Elena Davydova,F,Елена Давыдова,Amateur Open,1973-12-29,42,SBD,Wraps,Yes,75,74.3,110,115,117.5,,117.5,72.5,75,-77.5,,75,135,140,142.5,,142.5,335,2
Agata Serebrennikova,F,Агата Серебренникова,Amateur Open,1986-12-03,29,SBD,Wraps,Yes,75,73.4,100,110,-115,,110,-70,75,-77.5,,75,125,135,140,,140,325,3
Ekaterina Mamicheva,F,Екатерина Мамичева,Amateur Open,1979-02-19,37,SBD,Wraps,Yes,75,74.2,100,-110,-115,,100,60,-67.5,-67.5,,60,140,150,157.5,,157.5,317.5,4
Gulnara Alibaeva,F,Гульнара Алибаева,Amateur Open,1977-10-30,38,SBD,Wraps,Yes,82.5,80.7,-85,90,95,,95,57.5,-60,-60,,57.5,100,110,120,,120,272.5,3
Zhanna Bolotova,F,Жанна Болотова,Amateur Masters 50-54,1965-06-20,50,SBD,Wraps,Yes,90,87.6,-50,50,55,,55,50,55,60,,60,70,80,90,,90,205,1
Daniil Voronov,M,Даниил Воронов,Amateur Teen 13-15,2002-02-18,14,SBD,Wraps,Yes,67.5,66,80,-90,90,,90,-60,65,70,,70,90,100,-107.5,,100,260,1
Ruslan Krasnov,M,Руслан Краснов,Amateur Teen 16-17,1998-12-21,17,SBD,Wraps,Yes,67.5,67.3,120,130,140,,140,90,-95,-95,,90,140,150,162.5,,162.5,392.5,1
Aleksandr Volkov,M,Александр Волков,Amateur Juniors 20-23,1995-08-31,20,SBD,Wraps,Yes,67.5,67.5,110,120,130,,130,-85,85,90,,90,110,120,130,,130,350,1
Shirur Ragimov,M,Ширур Рагимов,Amateur Open,1985-02-23,31,SBD,Wraps,Yes,67.5,66.5,170,-180,185,,185,130,-135,140,,140,215,225,-235,,225,550,1
Evgeniy Karpov,M,Евгений Карпов,Amateur Open,1979-10-26,36,SBD,Wraps,Yes,67.5,66.9,-155,160,-170,,160,120,-125,-125,,120,160,-170,-175,,160,440,2
Aleksandr Grevtsev,M,Александр Гревцев,Amateur Masters 40-44,1975-09-10,40,SBD,Wraps,Yes,67.5,66.5,110,120,-125,,120,87.5,-92.5,-92.5,,87.5,140,150,-155,,150,357.5,1
Yuriy Stepanov,M,Юрий Степанов,Amateur Teen 13-15,2000-03-18,15,SBD,Wraps,Yes,75,68,-120,-120,120,,120,70,-75,-75,,70,120,130,140,,140,330,1
Roman Khomenko,M,Роман Хоменко,Amateur Teen 18-19,1996-10-22,19,SBD,Wraps,Yes,75,73.5,170,180,185,,185,110,115,-120,,115,232.5,240,-245,,240,540,1
Aleksey Kholin,M,Алексей Холин,Amateur Teen 18-19,1996-07-02,19,SBD,Wraps,Yes,75,72.5,160,170,-180,,170,95,105,112.5,,112.5,150,170,180,,180,462.5,2
Vadim Loyko,M,Вадим Лойко,Amateur Juniors 20-23,1994-04-16,21,SBD,Wraps,Yes,75,74.2,185,-195,200,,200,120,125,130,,130,210,230,240,,240,570,1
Aleksandr Smelyy,M,Александр Смелый,Amateur Juniors 20-23,1993-06-09,22,SBD,Wraps,Yes,75,73.2,-162.5,162.5,-170,,162.5,105,110,-115,,110,-192.5,-192.5,-192.5,,,,DQ
Yuriy Ivkin,M,Юрий Ивкин,Amateur Open,1983-07-21,32,SBD,Wraps,Yes,75,73.5,200,205,210,,210,125,130,-135,,130,222.5,230,235,,235,575,1
Konstantin Kuznetsov,M,Константин Кузнецов,Amateur Open,1981-06-29,34,SBD,Wraps,Yes,75,72.9,175,182.5,-190,,182.5,127.5,-132.5,132.5,,132.5,190,205,-217.5,,205,520,2
Kirill Vovchuk,M,Кирилл Вовчук,Amateur Open,1990-01-22,26,SBD,Wraps,Yes,75,73.5,-150,165,-175,,165,117.5,122.5,-125,,122.5,210,-225,225,,225,512.5,3
Ivan Rodionov,M,Иван Родионов,Amateur Open,1991-04-18,24,SBD,Wraps,Yes,75,74.5,155,170,180,,180,115,120,-122.5,,120,180,-200,-200,,180,480,4
Nikolay Kharitonov,M,Николай Харитонов,Amateur Open,1986-11-29,29,SBD,Wraps,Yes,75,74.2,150,-160,-165,,150,110,115,-120,,115,170,180,202.5,,202.5,467.5,5
Aleksandr Shcherbakov,M,Александр Щербаков,Amateur Open,1987-09-18,28,SBD,Wraps,Yes,75,69.4,135,145,150,,150,85,90,-95,,90,165,175,185,,185,425,6
Dmitriy Pigrov,M,Дмитрий Пигров,Amateur Open,1989-01-02,27,SBD,Wraps,Yes,75,73.4,135,142.5,-150,,142.5,100,-105,105,,105,160,170,-180,,170,417.5,7
Igor Polyakov,M,Игорь Поляков,Amateur Open,1990-04-16,25,SBD,Wraps,Yes,75,70.3,-130,140,-142.5,,140,-80,-82.5,-82.5,,,,,,,,,DQ
Anton Dutov,M,Антон Дутов,Amateur Teen 16-17,1999-04-27,16,SBD,Wraps,Yes,82.5,80.8,135,145,150,,150,-95,95,-100,,95,160,170,185,,185,430,1
Ilya Kobzar,M,Илья Кобзарь,Amateur Teen 16-17,1998-07-14,17,SBD,Wraps,Yes,82.5,81.3,120,140,-150,,140,80,85,95,,95,-140,140,150,,150,385,2
Aleksandr Bakin,M,Александр Бакин,Amateur Teen 18-19,1997-04-11,18,SBD,Wraps,Yes,82.5,82.5,170,180,190,,190,120,-125,-125,,120,180,190,200,,200,510,1
Anton Drynin,M,Антон Дрынин,Amateur Teen 18-19,1996-04-09,19,SBD,Wraps,Yes,82.5,80.5,180,190,195,,195,120,127.5,-130,,127.5,180,-192.5,-192.5,,180,502.5,2
Andrey Popov,M,Андрей Попов,Amateur Open,1990-09-18,25,SBD,Wraps,Yes,82.5,80.2,215,-225,-227.5,,215,-147.5,-147.5,147.5,,147.5,245,-257.5,-262.5,,245,607.5,1
Dmitriy Karpeev,M,Дмитрий Карпеев,Amateur Open,1984-04-24,31,SBD,Wraps,Yes,82.5,80.7,177.5,187.5,190,,190,130,137.5,-140,,137.5,215,227.5,-240,,227.5,555,2
Aleksey Vorotnikov,M,Алексей Воротников,Amateur Open,1980-10-08,35,SBD,Wraps,Yes,82.5,81.5,185,195,-205,,195,130,-135,-135,,130,-210,217.5,225,,225,550,3
Andrey Zharov,M,Андрей Жаров,Amateur Open,1983-10-03,32,SBD,Wraps,Yes,82.5,82,160,170,180,,180,127.5,135,-140,,135,210,220,230,,230,545,4
Yaroslav Klimanov,M,Ярослав Климанов,Amateur Open,1991-03-04,24,SBD,Wraps,Yes,82.5,79.7,-175,182.5,190,,190,120,125,-130,,125,190,210,220,,220,535,6
Konstantin Apatenko,M,Константин Апатенко,Amateur Open,1990-08-04,25,SBD,Wraps,Yes,82.5,79.4,150,160,-167.5,,160,115,127.5,132.5,,132.5,165,180,-185,,180,472.5,7
Ilya Krasov,M,Илья Красов,Amateur Open,1979-03-03,36,SBD,Wraps,Yes,82.5,81.7,-120,125,-130,,125,-105,-107.5,-107.5,,,,,,,,,DQ
Nikolay Zamp,M,Николай Замп,Amateur Open,1990-03-02,25,SBD,Wraps,Yes,82.5,82.3,-182.5,,,,,,,,,,,,,,,,DQ
Ilya Alyokhin,M,Илья Алёхин,Amateur Teen 16-17,1998-08-28,17,SBD,Wraps,Yes,90,86.9,180,-187.5,187.5,,187.5,120,-130,-130,,120,220,230,,,230,537.5,1
Svyatoslav Tarasov,M,Святослав Тарасов,Amateur Teen 18-19,1997-03-25,18,SBD,Wraps,Yes,90,85.9,170,180,190,,190,-125,-130,130,,130,200,-217.5,217.5,,217.5,537.5,1
Aleksandr Yudaev,M,Александр Юдаев,Amateur Juniors 20-23,1994-02-10,22,SBD,Wraps,Yes,90,88.4,200,210,-220,,210,145,152.5,157.5,,157.5,240,245,250,,250,617.5,1
Artyom Skoropisov,M,Артём Скорописов,Amateur Juniors 20-23,1994-03-13,21,SBD,Wraps,Yes,90,87.7,-180,180,187.5,,187.5,170,180,185,,185,225,235,-242.5,,235,607.5,2
Ivan Vostrikov,M,Иван Востриков,Amateur Juniors 20-23,1995-10-16,20,SBD,Wraps,Yes,90,89.6,-190,190,-200,,190,110,-120,122.5,,122.5,230,240,-250,,240,552.5,3
Daniil Annenkov,M,Даниил Анненков,Amateur Juniors 20-23,1992-07-03,23,SBD,Wraps,Yes,90,89.2,-170,175,177.5,,177.5,145,147.5,150,,150,-200,-200,210,,210,537.5,4
Pavel Simanin,M,Павел Симанин,Amateur Juniors 20-23,1994-06-12,21,SBD,Wraps,Yes,90,89,150,165,175,,175,125,-135,-135,,125,190,210,-220,,210,510,5
Evgeniy Vladimirov,M,Евгений Владимиров,Amateur Open,1964-08-22,51,SBD,Wraps,Yes,90,89,215,225,235,,235,140,145,150,,150,225,235,240,,240,625,2
Igor Barukov,M,Игорь Баруков,Amateur Open,1985-04-25,30,SBD,Wraps,Yes,90,87.5,-177.5,177.5,-187.5,,177.5,165,172.5,-177.5,,172.5,187.5,195,205,,205,555,5
Kirill Vedeneev,M,Кирилл Веденеев,Amateur Open,1991-05-07,24,SBD,Wraps,Yes,90,89.5,170,177.5,-182.5,,177.5,-137.5,137.5,-142.5,,137.5,220,230,-235,,230,545,6
Andrey Pivovar,M,Андрей Пивовар,Amateur Open,1978-02-28,37,SBD,Wraps,Yes,90,88.5,190,200,-202.5,,200,125,-132.5,-132.5,,125,195,205,212.5,,212.5,537.5,8
Andrey Panasyuk,M,Андрей Панасюк,Amateur Open,1986-02-11,30,SBD,Wraps,Yes,90,88.4,155,160,-165,,160,125,130,-135,,130,190,200,210,,210,500,9
Aleksandr Tolmachev,M,Александр Толмачев,Amateur Open,1984-01-06,32,SBD,Wraps,Yes,90,89.7,-140,150,160,,160,100,110,-117.5,,110,140,160,170,,170,440,10
Daniil Ermolaev,M,Даниил Ермолаев,Amateur Open,1989-12-19,26,SBD,Wraps,Yes,90,88.5,-190,190,195,,195,-130,-130,-135,,,,,,,,,DQ
Evgeniy Vladimirov,M,Евгений Владимиров,Amateur Masters 50-54,1964-08-22,51,SBD,Wraps,Yes,90,89,215,225,235,,235,140,145,150,,150,225,235,240,,240,625,1
Viktor Kovalenko,M,Виктор Коваленко,Amateur Masters 55-59,1959-09-10,56,SBD,Wraps,Yes,90,88.3,-135,-142.5,142.5,,142.5,87.5,-92.5,-92.5,,87.5,155,162.5,-165,,162.5,392.5,1
Pavel Fokin,M,Павел Фокин,Amateur Juniors 20-23,1992-10-21,23,SBD,Wraps,Yes,100,97.6,220,-225,-225,,220,142.5,150,-162.5,,150,200,215,-220,,215,585,2
Ivan Abramov,M,Иван Абрамов,Amateur Open,1980-05-18,35,SBD,Wraps,Yes,100,100,200,220,230,,230,152.5,160,170,,170,240,260,270,,270,670,2
Vitaliy Krylov,M,Виталий Крылов,Amateur Open,1989-05-04,26,SBD,Wraps,Yes,100,96.3,200,210,-220,,210,150,165,175,,175,210,225,245,,245,630,3
Andrey Andreev,M,Андрей Андреев,Amateur Open,1979-03-08,36,SBD,Wraps,Yes,100,97.3,-200,205,210,,210,175,180,190,,190,210,220,230,,230,630,4
Yuriy Mitrofanov,M,Юрий Митрофанов,Amateur Open,1985-08-20,30,SBD,Wraps,Yes,100,94.9,200,210,215,,215,145,-152.5,-152.5,,145,-240,240,250,,250,610,6
Sergey Pereskokov,M,Сергей Перескоков,Amateur Open,1987-10-14,28,SBD,Wraps,Yes,100,100,207.5,215,222.5,,222.5,155,160,165,,165,217.5,-227.5,-230,,217.5,605,7
Nikolay Zabelin,M,Николай Забелин,Amateur Open,1985-05-24,30,SBD,Wraps,Yes,100,94.3,190,200,-210,,200,145,150,-155,,150,240,250,-260,,250,600,8
Konstantin Seregin,M,Константин Серегин,Amateur Open,1978-01-19,38,SBD,Wraps,Yes,100,97,190,200,210,,210,120,125,130,,130,-240,250,-260,,250,590,9
Anton Gavrilenko,M,Антон Гавриленко,Amateur Open,1984-07-03,31,SBD,Wraps,Yes,100,97,215,-225,225,,225,140,150,-155,,150,215,-225,-225,,215,590,10
Ilya Alekseev,M,Илья Алексеев,Amateur Open,1986-04-06,29,SBD,Wraps,Yes,100,96,140,160,170,,170,100,-110,-110,,100,160,180,200,,200,470,11
Aleksey Trofimov,M,Алексей Трофимов,Amateur Open,1981-02-21,35,SBD,Wraps,Yes,100,97.6,-170,,,,,,,,,,,,,,,,DQ
Igor Sereda,M,Игорь Середа,Amateur Masters 50-54,1964-09-03,51,SBD,Wraps,Yes,100,97,175,-180,-180,,175,140,-145,,,140,210,215,,,215,530,1
Kirill Tarasov,M,Кирилл Тарасов,Amateur Teen 13-15,2000-06-18,15,SBD,Wraps,Yes,110,105.3,-160,160,170,,170,120,125,130,,130,170,180,190,,190,490,1
Stanislav Karpov,M,Станислав Карпов,Amateur Open,1982-10-01,33,SBD,Wraps,Yes,110,100.6,200,210,215,,215,155,157.5,-160,,157.5,250,270,282.5,,282.5,655,5
Dmitriy Osminin,M,Дмитрий Осьминин,Amateur Open,1988-11-27,27,SBD,Wraps,Yes,110,108.1,200,-212.5,215,,215,140,145,-150,,145,210,220,230,,230,590,7
Andrey Shevchenko,M,Андрей Шевченко,Amateur Open,1986-10-17,29,SBD,Wraps,Yes,110,103.2,-240,-240,-240,,,,,,,,,,,,,,DQ
Konstantin Agureev,M,Константин Агуреев,Amateur Open,1975-02-06,41,SBD,Wraps,Yes,125,121.3,230,240,245,,245,150,157.5,-162.5,,157.5,260,-270,-270,,260,662.5,2
Vasiliy Perepichay,M,Василий Перепичай,Amateur Open,1981-02-27,35,SBD,Wraps,Yes,125,120.9,-210,220,-240,,220,160,-170,-170,,160,230,245,-260,,245,625,5
Aleksey Kozishnikov,M,Алексей Козишников,Amateur Masters 40-44,1973-01-16,43,SBD,Wraps,Yes,125,125,265,-275,275,,275,180,190,195,,195,265,280,-285,,280,750,1
Aleksey Yudin,M,Алексей Юдин,Amateur Masters 40-44,1974-06-07,41,SBD,Wraps,Yes,125,123.3,-205,210,220,,220,160,-165,165,,165,240,250,260,,260,645,2
Nikolay Markin,M,Николай Маркин,Amateur Open,1981-03-14,34,SBD,Wraps,Yes,140,126.9,225,232.5,,,232.5,165,175,185,,185,250,-260,,,250,667.5,2
Igor Alferov,M,Игорь Алферов,Amateur Open,1976-04-02,39,SBD,Wraps,Yes,140,135.7,210,225,-235,,225,150,-160,-160,,150,210,225,-230,,225,600,3
Vasiliy Voropaev,M,Василий Воропаев,Pro Masters 55-59,1956-06-10,59,D,Multi-ply,No,110,105,,,,,,,,,,,200,-225,230,,230,230,1
Tatyana Vorontsova,F,Татьяна Воронцова,Pro Open,1982-08-17,33,D,Single-ply,No,75,72.2,,,,,,,,,,,105,115,120,,120,120,1
Vladimir Kulakov,M,Владимир Кулаков,Pro Open,1955-12-24,60,D,Single-ply,No,75,73.4,,,,,,,,,,,87.5,,,,87.5,87.5,1
Vladimir Kulakov,M,Владимир Кулаков,Pro Masters 60-64,1955-12-24,60,D,Single-ply,No,75,73.4,,,,,,,,,,,87.5,,,,87.5,87.5,1
Tatyana Dalnikova,F,Татьяна Дальникова,Pro Open,1982-05-23,33,D,Raw,No,75,74.6,,,,,,,,,,,135,145,-150,,145,145,3
Daniil Bobryshev,M,Даниил Бобрышев,Pro Teen 18-19,1997-05-25,18,D,Raw,No,67.5,64.2,,,,,,,,,,,120,140,-150,,140,140,1
Vladimir Kulakov,M,Владимир Кулаков,Pro Open,1955-12-24,60,D,Raw,No,75,73.4,,,,,,,,,,,85,,,,85,85,4
Vladimir Ermokhin,M,Владимир Ермохин,Pro Masters 55-59,1961-02-06,55,D,Raw,No,75,74,,,,,,,,,,,170,-175,,,170,170,1
Vladimir Kulakov,M,Владимир Кулаков,Pro Masters 60-64,1955-12-24,60,D,Raw,No,75,73.4,,,,,,,,,,,85,,,,85,85,1
Maksim Kalyonkin,M,Максим Калёнкин,Pro Open,1989-04-19,26,D,Raw,No,82.5,82,,,,,,,,,,,270,275,-280,,275,275,1
Sergey Lovyagin,M,Сергей Ловягин,Pro Open,1984-08-30,31,D,Raw,No,82.5,81.4,,,,,,,,,,,235,245,-255,,245,245,2
Evgeniy Shuvalov,M,Евгений Шувалов,Pro Open,1983-03-05,32,D,Raw,No,82.5,79.4,,,,,,,,,,,230,240,-255,,240,240,3
Vladimir Akhotelashvili,M,Владимир Ахотелашвили,Pro Open,1988-02-04,28,D,Raw,No,82.5,82,,,,,,,,,,,220,240,-255,,240,240,4
Vladimir Yakovets,M,Владимир Яковец,Pro Juniors 20-23,1994-10-04,21,D,Raw,No,90,89.6,,,,,,,,,,,235,-245,-245,,235,235,1
Timofey Perepelkin,M,Тимофей Перепелкин,Pro Teen 18-19,1997-09-16,18,D,Raw,No,100,93.5,,,,,,,,,,,215,245,-277.5,,245,245,2
Evgeniy Lukoyanov,M,Евгений Лукоянов,Pro Open,1982-03-24,33,D,Raw,No,100,98.5,,,,,,,,,,,240,277.5,-290,,277.5,277.5,1
Aleksandr Spiridonov,M,Александр Спиридонов,Pro Open,1986-11-11,29,D,Raw,No,100,99.3,,,,,,,,,,,-260,260,-280,,260,260,2
Artem Ushakov,M,Артем Ушаков,Pro Open,1986-01-21,30,D,Raw,No,100,98.8,,,,,,,,,,,240,-250,-250,,240,240,5
Aleksey Gorbonosov,M,Алексей Горбоносов,Pro Open,1985-12-20,30,D,Raw,No,110,106.2,,,,,,,,,,,300,315,-320,,315,315,2
Denis Kurmey,M,Денис Курмей,Pro Open,1987-10-21,28,D,Raw,No,110,104.4,,,,,,,,,,,-250,250,285,,285,285,3
Viktor Maslyuk,M,Виктор Маслюк,Pro Open,1974-02-10,42,D,Raw,No,110,107.3,,,,,,,,,,,220,250,-265,,250,250,8
Vladislav Bernetskiy,M,Владислав Бернецкий,Pro Juniors 20-23,1993-08-21,22,D,Raw,No,125,116.4,,,,,,,,,,,260,295,305,-310,305,305,1
Vadim Pchyolkin,M,Вадим Пчёлкин,Pro Masters 40-44,1974-06-14,41,D,Raw,No,125,123.4,,,,,,,,,,,250,270,290,,290,290,1
Konstantin Sapunkov,M,Константин Сапунков,Pro Open,1981-09-02,34,B,Multi-ply,No,90,86.9,,,,,,232.5,-242.5,242.5,,242.5,,,,,,242.5,1
Vladimir Kulakov,M,Владимир Кулаков,Pro Open,1955-12-24,60,B,Single-ply,No,75,73.4,,,,,,67.5,75,80,,80,,,,,,80,1
Vladimir Kulakov,M,Владимир Кулаков,Pro Masters 60-64,1955-12-24,60,B,Single-ply,No,75,73.4,,,,,,67.5,75,80,,80,,,,,,80,1
Sergey Kandaurov,M,Сергей Кандауров,Pro Masters 40-44,1974-05-29,41,B,Single-ply,No,90,85.4,,,,,,165,177.5,180,,180,,,,,,180,1
Dmitriy Shabalin,M,Дмитрий Шабалин,Pro Masters 45-49,1969-01-19,47,B,Single-ply,No,140,135.2,,,,,,290,-297.5,-297.5,,290,,,,,,290,1
Natalya Klementeva,F,Наталья Клементьева,Pro Open,1980-10-17,35,B,Raw,No,52,50.7,,,,,,50,-57.5,57.5,,57.5,,,,,,57.5,4
Irina Myagkova,F,Ирина Мягкова,Pro Open,1990-04-17,25,B,Raw,No,52,48.9,,,,,,35,40,-45,,40,,,,,,40,7
Anastasiya Zorina,F,Анастасия Зорина,Pro Teen 18-19,1996-11-12,19,B,Raw,No,60,59.6,,,,,,65,-67.5,67.5,-70,67.5,,,,,,67.5,1
Alyona Belozyorova,F,Алёна Белозёрова,Pro Open,1986-10-08,29,B,Raw,No,60,58.5,,,,,,45,50,52.5,,52.5,,,,,,52.5,3
Andrey Simonov,M,Андрей Симонов,Pro Open,1990-05-15,25,B,Raw,No,67.5,66.7,,,,,,130,137.5,-147.5,,137.5,,,,,,137.5,2
Denis Shvedov,M,Денис Шведов,Pro Open,1990-04-28,25,B,Raw,No,67.5,64.4,,,,,,87.5,90,95,,95,,,,,,95,5
Dmitriy Kolesnikov,M,Дмитрий Колесников,Pro Teen 16-17,1998-11-13,17,B,Raw,No,75,67.7,,,,,,115,-125,-125,,115,,,,,,115,1
Nikolay Masnukha,M,Николай Маснуха,Pro Open,1982-07-17,33,B,Raw,No,75,72.9,,,,,,145,150,155,,155,,,,,,155,1
Maksim Rudakov,M,Максим Рудаков,Pro Open,1991-03-12,24,B,Raw,No,75,73.9,,,,,,155,-162.5,-162.5,,155,,,,,,155,2
Vladimir Kulakov,M,Владимир Кулаков,Pro Open,1955-12-24,60,B,Raw,No,75,73.4,,,,,,65,70,75,,75,,,,,,75,17
Dmitriy Kovalenko,M,Дмитрий Коваленко,Pro Masters 40-44,1972-12-17,43,B,Raw,No,75,68.5,,,,,,75,80,85,,85,,,,,,85,1
Vladimir Kulakov,M,Владимир Кулаков,Pro Masters 60-64,1955-12-24,60,B,Raw,No,75,73.4,,,,,,65,70,75,,75,,,,,,75,1
Daniil Arzhakov,M,Даниил Аржаков,Pro Juniors 20-23,1995-08-08,20,B,Raw,No,82.5,82,,,,,,165,170,175,,175,,,,,,175,1
Timur Stazaev,M,Тимур Стазаев,Pro Juniors 20-23,1995-06-23,20,B,Raw,No,82.5,79.2,,,,,,160,-165,165,,165,,,,,,165,2
Timur Abrosimov,M,Тимур Абросимов,Pro Juniors 20-23,1993-10-13,22,B,Raw,No,82.5,81.2,,,,,,160,-170,-170,,160,,,,,,160,3
Maksim Kalyonkin,M,Максим Калёнкин,Pro Open,1989-04-19,26,B,Raw,No,82.5,82,,,,,,175,-180,-180,,175,,,,,,175,2
Denis Yurya,M,Денис Юря,Pro Open,1988-09-19,27,B,Raw,No,82.5,81.1,,,,,,150,-170,-170,,150,,,,,,150,6
Nikolay Petrokovich,M,Николай Петрокович,Pro Open,1979-08-17,36,B,Raw,No,82.5,78.5,,,,,,110,120,-127.5,,120,,,,,,120,17
Ilya Snezhkov,M,Илья Снежков,Pro Open,1989-12-06,26,B,Raw,No,82.5,82,,,,,,-170,-170,-175,,,,,,,,,DQ
Igor Polivanov,M,Игорь Поливанов,Pro Masters 40-44,1974-12-06,41,B,Raw,No,82.5,80.3,,,,,,-142.5,-147.5,-147.5,,,,,,,,,DQ
Sergey Goncharov,M,Сергей Гончаров,Pro Masters 60-64,1952-03-22,63,B,Raw,No,82.5,80.7,,,,,,115,117.5,120,,120,,,,,,120,1
Evgeniy Chistyakov,M,Евгений Чистяков,Pro Open,1989-03-03,26,B,Raw,No,90,89,,,,,,170,180,-182.5,,180,,,,,,180,2
Igor Gusarov,M,Игорь Гусаров,Pro Open,1986-07-30,29,B,Raw,No,90,90,,,,,,180,-190,-190,,180,,,,,,180,3
Pavel Kotov,M,Павел Котов,Pro Open,1991-02-03,25,B,Raw,No,90,87.5,,,,,,170,175,-180,,175,,,,,,175,4
Roman Dagaev,M,Роман Дагаев,Pro Open,1980-08-16,35,B,Raw,No,90,84.4,,,,,,172.5,-180,-180,,172.5,,,,,,172.5,5
Roman Egorov,M,Роман Егоров,Pro Open,1988-07-24,27,B,Raw,No,90,83.9,,,,,,160,170,-180,,170,,,,,,170,6
Egor Fatyanov,M,Егор Фатьянов,Pro Open,1984-03-03,31,B,Raw,No,90,88.3,,,,,,150,-157.5,157.5,,157.5,,,,,,157.5,9
Igor Lipachev,M,Игорь Липачев,Pro Open,1968-08-16,47,B,Raw,No,100,98.8,,,,,,-210,210,-212.5,,210,,,,,,210,1
Aleksandr Tyshchenko,M,Александр Тыщенко,Pro Open,1986-05-14,29,B,Raw,No,100,96.3,,,,,,190,197.5,202.5,,202.5,,,,,,202.5,2
Artem Sychkov,M,Артем Сычков,Pro Open,1985-10-02,30,B,Raw,No,100,97.6,,,,,,180,190,-195,,190,,,,,,190,3
Yuriy Grigorev,M,Юрий Григорьев,Pro Open,1982-02-09,34,B,Raw,No,100,98.5,,,,,,185,-192.5,-192.5,,185,,,,,,185,4
Andrey Zhegulin,M,Андрей Жегулин,Pro Open,1980-06-26,35,B,Raw,No,100,98.4,,,,,,165,177.5,180,,180,,,,,,180,5
Evgeniy Zaytsev,M,Евгений Зайцев,Pro Open,1990-04-17,25,B,Raw,No,100,94.8,,,,,,170,-180,-180,,170,,,,,,170,6
Pavel Kashin,M,Павел Кашин,Pro Open,1980-06-07,35,B,Raw,No,100,97.1,,,,,,165,-170,170,,170,,,,,,170,8
Mikhail Solodyankin,M,Михаил Солодянкин,Pro Open,1988-05-23,27,B,Raw,No,100,97.3,,,,,,150,165,-170,,165,,,,,,165,9
Pavel Mikheev,M,Павел Михеев,Pro Open,1988-02-13,28,B,Raw,No,100,98.1,,,,,,165,-170,,,165,,,,,,165,10
Giya Torchinava,M,Гия Торчинава,Pro Open,1989-12-07,26,B,Raw,No,100,93.8,,,,,,-155,160,-165,,160,,,,,,160,13
Igor Chupryakov,M,Игорь Чупряков,Pro Masters 40-44,1975-08-31,40,B,Raw,No,100,96.5,,,,,,185,-187.5,-187.5,,185,,,,,,185,1
Vladimir Postnov,M,Владимир Постнов,Pro Masters 45-49,1970-04-21,45,B,Raw,No,100,95.5,,,,,,172.5,182.5,190,,190,,,,,,190,1
Vyacheslav Filin,M,Вячеслав Филин,Pro Masters 50-54,1961-11-12,54,B,Raw,No,100,95,,,,,,187.5,-190,190,,190,,,,,,190,1
Aleksandr Romanov,M,Александр Романов,Pro Masters 40-44,1973-02-02,43,B,Raw,No,110,107.6,,,,,,-160,160,-165,,160,,,,,,160,2
Dmitriy Kostin,M,Дмитрий Костин,Pro Open,1985-09-13,30,B,Raw,No,125,121.5,,,,,,230,-235,-235,,230,,,,,,230,1
Viktor Kotov,M,Виктор Котов,Pro Open,1989-10-10,26,B,Raw,No,125,118,,,,,,-180,-180,,,,,,,,,,DQ
Vadim Pchyolkin,M,Вадим Пчёлкин,Pro Masters 40-44,1974-06-14,41,B,Raw,No,125,123.4,,,,,,200,207.5,212.5,,212.5,,,,,,212.5,1
Dmitriy Belov,M,Дмитрий Белов,Pro Masters 40-44,1972-02-15,44,B,Raw,No,125,124.7,,,,,,202.5,210,-212.5,,210,,,,,,210,2
Sergey Rykov,M,Сергей Рыков,Pro Masters 50-54,1965-08-26,50,B,Raw,No,125,112.5,,,,,,180,185,-187.5,,185,,,,,,185,1
Evgeniy Ivanov,M,Евгений Иванов,Pro Open,1989-04-28,26,B,Raw,No,140,137.1,,,,,,175,182.5,187.5,,187.5,,,,,,187.5,2
Aleksandr Nosov,M,Александр Носов,Pro Open,1985-01-31,31,SBD,Multi-ply,No,100,96.6,257.5,272.5,282.5,,282.5,-205,205,210,,210,257.5,270,282.5,,282.5,775,1
Vladimir Gurenkov,M,Владимир Гуреньков,Pro Juniors 20-23,1992-07-10,23,SBD,Single-ply,No,82.5,82.5,240,255,265,,265,145,155,165,,165,240,260,-275,,260,690,1
Aleksey Yagunov,M,Алексей Ягунов,Pro Masters 45-49,1968-07-19,47,SBD,Single-ply,No,90,89.2,250,-270,-270,,250,170,-180,-185,,170,230,240,,,240,660,1
Andrey Medvedev,M,Андрей Медведев,Pro Masters 60-64,1954-11-22,61,SBD,Single-ply,No,90,83.3,-100,105,110,,110,90,95,97.5,,97.5,100,110,115,,115,322.5,1
Aleksandr Shabrov,M,Александр Шабров,Pro Open,1991-02-07,25,SBD,Single-ply,No,100,93.9,300,315,-320,,315,180,190,200,,200,270,280,290,,290,805,1
Arseniy Mikhaylenko,M,Арсений Михайленко,Pro Open,1987-03-25,28,SBD,Single-ply,No,100,91.7,305,-325,-325,,305,195,205,-220,,205,275,-290,-290,,275,785,2
Andrey Karpov,M,Андрей Карпов,Pro Open,1985-09-12,30,SBD,Single-ply,No,100,99.6,270,285,-292.5,,285,180,187.5,192.5,,192.5,235,245,-257.5,,245,722.5,3
Andrey Drozhzhin,M,Андрей Дрожжин,Pro Open,1977-11-21,38,SBD,Single-ply,No,110,106.5,-350,350,-370,,350,210,-230,-230,,210,270,285,295,,295,855,1
Yuriy Deryabin,M,Юрий Дерябин,Pro Open,1985-01-24,31,SBD,Single-ply,No,110,109.1,220,240,-260,,240,160,-170,175,,175,180,200,220,,220,635,2
Oksana Lomova,F,Оксана Ломова,Pro Open,1983-08-19,32,SBD,Wraps,No,82.5,78.1,165,170,-175,,170,95,-100,100,,100,177.5,185,190,,190,460,1
Mariya Semchagova,F,Мария Семчагова,Pro Open,1982-06-30,33,SBD,Wraps,No,82.5,82.5,100,105,110,,110,77.5,85,92.5,,92.5,105,-115,-115,,105,307.5,2
Aleksandr Vasilev,M,Александр Васильев,Pro Juniors 20-23,1992-05-05,23,SBD,Wraps,No,75,72,180,190,-195,,190,120,125,,,125,220,230,-240,,230,545,2
Nikolay Zamp,M,Николай Замп,Pro Open,1990-03-02,25,SBD,Wraps,No,82.5,82.3,180,190,-192.5,,190,125,-135,-135,,125,215,230,,,230,545,5
Vladimir Tereshchenko,M,Владимир Терещенко,Pro Open,1982-07-29,33,SBD,Wraps,No,82.5,80,-130,-130,130,,130,90,-100,-100,,90,150,170,200,,200,420,8
Aleksey Molochkov,M,Алексей Молочков,Pro Masters 50-54,1962-08-08,53,SBD,Wraps,No,82.5,82.2,-175,182.5,-190,,182.5,135,140,145,,145,185,-190,195,,195,522.5,1
Nikolay Afanasev,M,Николай Афанасьев,Pro Open,1981-04-27,34,SBD,Wraps,No,90,90,-215,227.5,235,,235,162.5,170,-175,,170,245,-262.5,,,245,650,1
Mikhail Borisov,M,Михаил Борисов,Pro Open,1988-06-20,27,SBD,Wraps,No,90,88.8,180,200,215,,215,135,-145,150,,150,200,220,240,,240,605,3
Aleksey Kolesov,M,Алексей Колесов,Pro Open,1987-12-29,28,SBD,Wraps,No,90,90,185,-195,-195,,185,140,150,155,,155,230,245,-262.5,,245,585,4
Aleksandr Kuznetsov,M,Александр Кузнецов,Pro Open,1978-03-21,37,SBD,Wraps,No,90,86.2,165,-180,195,,195,130,137.5,-145,,137.5,170,-195,205,,205,537.5,7
Aleksandr Elumeev,M,Александр Елумеев,Pro Teen 16-17,1998-03-22,17,SBD,Wraps,No,100,98,-170,-170,-170,,,,,,,,,,,,,,DQ
Vasiliy Bondarev,M,Василий Бондарев,Pro Juniors 20-23,1994-04-08,21,SBD,Wraps,No,100,99.5,-210,-210,210,,210,145,-160,160,,160,230,-245,245,,245,615,1
Aleksey Zhulin,M,Алексей Жулин,Pro Open,1992-01-12,24,SBD,Wraps,No,100,97.1,220,230,235,,235,162.5,-167.5,172.5,,172.5,245,260,275,,275,682.5,1
Dmitriy Titkov,M,Дмитрий Титков,Pro Open,1984-08-10,31,SBD,Wraps,No,100,97.9,180,190,205,,205,150,160,165,,165,230,250,-270,,250,620,5
Roman Kroshkin,M,Роман Крошкин,Pro Open,1981-02-09,35,SBD,Wraps,No,100,97.4,210,220,-235,,220,140,150,-157.5,,150,50,,,,50,420,12
Yuriy Obruchkov,M,Юрий Обручков,Pro Masters 40-44,1974-10-06,41,SBD,Wraps,No,100,96.9,225,235,240,,240,-150,150,-160,,150,-225,235,250,,250,640,1
Evgeniy Solopov,M,Евгений Солопов,Pro Open,1989-09-04,26,SBD,Wraps,No,110,107.2,230,-240,240,,240,175,180,-182.5,,180,280,290,-300,,290,710,1
Aleksey Gruzin,M,Алексей Грузин,Pro Open,1983-06-23,32,SBD,Wraps,No,110,108.2,225,250,260,,260,155,170,180,,180,240,260,270,,270,710,2
Denis Stolyarchuk,M,Денис Столярчук,Pro Open,1985-05-08,30,SBD,Wraps,No,110,107.1,230,240,250,,250,160,170,180,,180,-240,240,-252.5,,240,670,3
Sergey Sadovnikov,M,Сергей Садовников,Pro Open,1976-05-05,39,SBD,Wraps,No,110,107.9,215,-225,230,,230,150,165,-172.5,,165,250,-265,275,,275,670,4
Aleksey Kochetkov,M,Алексей Кочетков,Pro Open,1988-09-04,27,SBD,Wraps,No,110,107.9,220,230,-235,,230,170,180,-190,,180,230,240,-245,,240,650,6
Aleksandr Drozdov,M,Александр Дроздов,Pro Open,1980-02-09,36,SBD,Wraps,No,110,102.2,210,-220,-220,,210,150,-160,-160,,150,220,-230,-230,,220,580,8
Vladimir Ivanov,M,Владимир Иванов,Pro Open,1990-04-10,25,SBD,Wraps,No,110,108.1,-190,-200,-200,,,,,,,,,,,,,,DQ
Igor Karpunin,M,Игорь Карпунин,Pro Open,1978-05-19,37,SBD,Wraps,No,125,121.2,230,240,250,,250,185,195,200,,200,250,-270,280,,280,730,1
Aleksey Averyanov,M,Алексей Аверьянов,Pro Open,1993-08-05,22,SBD,Wraps,No,125,112.3,215,225,235,,235,160,170,-175,,170,235,255,-265,,255,660,3
Nikita Molokanov,M,Никита Молоканов,Pro Open,1990-09-19,25,SBD,Wraps,No,125,115.6,215,225,-230,,225,150,160,-165,,160,-240,260,-285,,260,645,4
Miroslav Shlapak,M,Мирослав Шлапак,Pro Masters 45-49,1968-08-12,47,SBD,Wraps,No,125,117,-230,230,-250,,230,180,190,200,-210,200,270,290,300,,300,730,1
Evgeniy Varlakhov,M,Евгений Варлахов,Pro Open,1987-03-28,28,SBD,Wraps,No,140,137,260,-270,-270,,260,170,-180,180,,180,300,325,-335,,325,765,1
Maksim Popov #7,M,Максим Попов,Pro Open,,,SBD,Wraps,No,90,89.3,250,-252.5,,,250,170,180,-182.5,,180,-275,-275,-275,,,,DQ
Marat Savosin,M,Марат Савосин,Pro Open,,,SBD,Wraps,No,110,106.4,290,302.5,310,,310,200,205,,,205,295,305,-310,,305,820,1
Nizami Tagiev,M,Низами Тагиев,Pro Open,,,SBD,Wraps,No,110,101,210,220,232.5,,232.5,-200,-200,-200,,,,,,,,,DQ
Aleksandr Pirogov #2,M,Александр Пирогов,Pro Open,,,SBD,Wraps,No,140+,141.8,315,330,345,,345,225,250,,,250,300,320,335,,335,930,1
